<?xml version="1.0" encoding="UTF-8" standalone="no"?>
<svg
   xmlns:dc="http://purl.org/dc/elements/1.1/"
   xmlns:cc="http://creativecommons.org/ns#"
   xmlns:rdf="http://www.w3.org/1999/02/22-rdf-syntax-ns#"
   xmlns:svg="http://www.w3.org/2000/svg"
   xmlns="http://www.w3.org/2000/svg"
   xmlns:sodipodi="http://sodipodi.sourceforge.net/DTD/sodipodi-0.dtd"
   xmlns:inkscape="http://www.inkscape.org/namespaces/inkscape"
   width="165px"
   height="151px"
   viewBox="0 0 165 151"
   version="1.1"
   id="svg206"
   sodipodi:docname="meiko-droite-champi.svg"
   inkscape:version="0.92.4 (f8dce91, 2019-08-02)">
  <metadata
     id="metadata210">
    <rdf:RDF>
      <cc:Work
         rdf:about="">
        <dc:format>image/svg+xml</dc:format>
        <dc:type
           rdf:resource="http://purl.org/dc/dcmitype/StillImage" />
      </cc:Work>
    </rdf:RDF>
  </metadata>
  <sodipodi:namedview
     pagecolor="#ffffff"
     bordercolor="#666666"
     borderopacity="1"
     objecttolerance="10"
     gridtolerance="10"
     guidetolerance="10"
     inkscape:pageopacity="0"
     inkscape:pageshadow="2"
     inkscape:window-width="1920"
     inkscape:window-height="1052"
     id="namedview208"
     showgrid="false"
     inkscape:zoom="8.8411762"
     inkscape:cx="118.04077"
     inkscape:cy="85.893692"
     inkscape:window-x="1920"
     inkscape:window-y="0"
     inkscape:window-maximized="1"
     inkscape:current-layer="CHAMPI" />
  <!-- Generator: Sketch 39.1 (31720) - http://www.bohemiancoding.com/sketch -->
  <title
     id="title2">Group</title>
  <desc
     id="desc4">Created with Sketch.</desc>
  <defs
     id="defs6" />
  <g
     id="Page-1"
     stroke="none"
     stroke-width="1"
     fill="none"
     fill-rule="evenodd">
    <g
       id="Group"
       transform="translate(2.000000, 2.000000)">
      <path
         d="M63.506,73.325 C63.455,73.491 63.402,73.655 63.351,73.831 L62.921,73.831 L63.506,73.325 L63.506,73.325 L63.506,73.325 Z M91.679,11.681 L71.514,17.469 L68.17,21.099 L70.958,21.099 L68.716,26.311 L70.958,26.311 L70.958,30.548 L72.663,29.38 L72.663,34.298 L76.264,33.248 L76.264,36.548 L78.812,36.548 L78.812,36.662 C82.496,36.6906667 85.61,36.7176667 88.154,36.743 L88.854,36.548 L89.564,36.757 C89.912,36.7603333 90.247,36.764 90.569,36.768 C90.824,36.901 91.103,37.026 91.405,37.141 C91.315,37.1663333 91.224,37.1923333 91.132,37.219 L89.99,36.883 C90.093,36.797 90.195,36.711 90.295,36.622 C89.436,36.108 88.918,35.485 88.859,34.784 C88.721,33.119 91.21,31.466 94.926,30.505 L94.926,30.505 C95.636,29.015 96.132,27.412 96.39,25.734 C96.308,25.806 96.226,25.878 96.138,25.944 C93.103,28.237 89.859,28.501 87.158,28.645 C84.457,28.79 78.155,30.578 77.559,27.745 C76.87,24.466 82.321,19.417 86.947,16.872 L86.947,16.872 C86.439,16.214 86.03,15.1263333 85.72,13.609 C86.74,15.3423333 87.7846667,16.0233333 88.854,15.652 L88.659,16.031 C89.804,15.542 90.827,15.269 91.598,15.292 C93.408,15.346 95.115,17.027 96.177,19.07 L96.177,19.07 L96.177,19.07 C95.95,18.029 95.627,17.022 95.219,16.057 L94.816,16.057 L94.436,15.295 L93.865,14.724 L92.311,12.44 C92.1036667,12.1806667 91.893,11.9276667 91.679,11.681 L91.679,11.681 L91.679,11.681 L91.679,11.681 L91.679,11.681 L91.679,11.681 L91.679,11.681 L91.679,11.681 L91.679,11.681 L91.679,11.681 L91.679,11.681 L91.679,11.681 L91.679,11.681 L91.679,11.681 L91.679,11.681 L91.679,11.681 L91.679,11.681 L91.679,11.681 L91.679,11.681 L91.679,11.681 L91.679,11.681 L91.679,11.681 L91.679,11.681 L91.679,11.681 L91.679,11.681 L91.679,11.681 L91.679,11.681 L91.679,11.681 L91.679,11.681 L91.679,11.681 L91.679,11.681 L91.679,11.681 L91.679,11.681 L91.679,11.681 L91.679,11.681 L91.679,11.681 L91.679,11.681 L91.679,11.681 L91.679,11.681 L91.679,11.681 L91.679,11.681 L91.679,11.681 L91.679,11.681 L91.679,11.681 L91.679,11.681 L91.679,11.681 L91.679,11.681 L91.679,11.681 Z M66.201,42.825 C66.245,43.1303333 66.2906667,43.443 66.338,43.763 C66.294,43.7423333 66.2483333,43.732 66.201,43.732 L66.201,42.825 L66.201,42.825 L66.201,42.825 Z M65.513,65.001 C65.46,65.355 65.4,65.686 65.34,66.02 L64.196,66.857 L65.513,65.001 L65.513,65.001 L65.513,65.001 Z M64.829,68.404 C64.748,68.814 64.659,69.189 64.575,69.586 L64.196,69.793 L64.829,68.404 L64.829,68.404 L64.829,68.404 Z M59.535,21.84 L59.535,22.599 L59.588,22.836 L59.275,22.626 L59.535,21.84 L59.535,21.84 L59.535,21.84 Z M62.249,76.906 C62.198,77.035 62.146,77.169 62.093,77.313 L61.827,77.135 L62.249,76.906 L62.249,76.906 L62.249,76.906 Z M60.218,30.689 L60.118,30.334 L60.369,30.334 L60.218,30.689 L60.218,30.689 L60.218,30.689 Z M59.745,29.006 L59.551,28.315 L60.369,28.315 L59.745,29.006 L59.745,29.006 L59.745,29.006 Z M59.07,26.602 L58.881,25.929 L59.275,25.929 L59.07,26.602 L59.07,26.602 L59.07,26.602 Z M59.469,16.925 C60.02,15.329 60.816,13.843 61.798,12.49 L61.798,12.49 C60.0726667,7.93866667 59.4356667,4.26566667 59.887,1.471 C60.3516667,-1.40366667 64.2646667,-0.0656666667 71.626,5.485 C71.826,5.423 72.028,5.364 72.231,5.308 C72.0756667,5.33666667 71.9196667,5.36666667 71.763,5.398 C72.135,5.309 72.502,5.229 72.867,5.153 C74.349,4.79 75.902,4.601 77.5,4.601 C80.219,4.601 82.805,5.147 85.134,6.156 C85.407,6.24 85.663,6.354 85.91,6.485 C86.22,6.617 86.519,6.768 86.806,6.936 C87.419,7.251 87.984,7.592 88.513,7.943 C88.525,7.954 88.541,7.964 88.562,7.973 C89.288,8.467 89.943,8.979 90.494,9.484 C90.541,9.502 90.56,9.519 90.552,9.535 C92.513,11.239 93.591,12.862 93.865,13.392 C94.079,13.8073333 94.2933333,14.1816667 94.508,14.515 L94.508,14.515 C94.7453333,14.8363333 94.9803333,15.1523333 95.213,15.463 C95.271,15.529 95.329,15.592 95.387,15.652 C101.588333,23.8626667 105.677333,28.2396667 107.654,28.783 L107.663,28.778 C110.101667,29.4333333 111.387667,30.365 111.521,31.573 C111.699,32.267 111.344667,33.1256667 110.458,34.149 C110.215,34.527 109.847,34.896 109.372,35.246 C109.335333,35.28 109.298,35.314 109.26,35.348 C109.242667,35.3533333 109.225667,35.3586667 109.209,35.364 C109.039,35.482 108.857,35.598 108.662,35.711 L108.662,35.711 L108.662,35.711 C108.362,35.885 108.032,36.052 107.671,36.21 L107.671,36.21 C107.652333,36.2213333 107.633667,36.2326667 107.615,36.244 C108.049,37.356 107.953,38.44 107.276,38.968 C106.525,39.553 105.288,39.28 104.245,38.366 L104.245,38.366 C103.779,38.514 102.691,38.682 101.075,38.909 C96.666,39.93 86.891,42.293 83.479,44.545 L83.479,44.545 C82.055,46.1263333 81.766,47.6043333 82.612,48.979 C82.725,49.361 82.924,49.832 83.19,50.371 L83.19,50.371 L83.208,50.371 C85.74,54.097 87.9966667,57.806 89.978,61.498 C90.867,62.227 91.804,62.897 92.783,63.501 C93.686,64.058 94.629,64.541 95.608,64.947 C96.089,65.148 96.579,65.329 97.076,65.488 C97.559,65.644 98.049,65.779 98.544,65.892 C98.686,65.925 98.828,65.956 98.97,65.985 L98.805,65.599 C100.559667,66.0876667 102.405667,66.318 104.343,66.29 L104.343,66.29 C104.508,66.276 104.674,66.26 104.838,66.242 C105.999,66.114 107.15,65.906 108.283,65.617 L108.283,55.239 C108.283,51.512 111.308,48.487 115.035,48.487 L115.17,48.487 L115.17,48.487 L115.17,48.487 L115.17,48.487 L115.17,48.487 L115.17,48.487 L115.17,48.487 L115.17,48.487 L115.17,48.487 L115.17,48.487 L115.17,48.487 L115.17,48.487 L115.17,48.487 L115.17,48.487 L115.17,48.487 L115.17,48.487 L115.17,48.487 C114.221,48.487 113.451,47.717 113.451,46.768 L113.451,42.97 C113.451,42.021 114.221,41.251 115.17,41.251 L153.769,41.251 C154.717,41.251 155.487,42.021 155.487,42.97 L155.487,46.768 C155.487,47.717 154.717,48.487 153.769,48.487 L154.248,48.487 C157.975,48.487 161,51.512 161,55.239 L161,82.048 C161,85.775 157.975,88.8 154.248,88.8 L115.035,88.8 C111.308,88.8 108.283,85.775 108.283,82.048 L108.283,77.453 L108.283,77.453 L108.283,77.453 C106.955,77.731 105.692667,77.9146667 104.496,78.004 C104.091,78.056 103.685,78.108 103.279,78.152 C101.644,78.333 99.994,78.375 98.351,78.28 C97.927,78.254 97.502,78.22 97.079,78.182 L97.079,78.182 L97.079,78.182 C97.533,79.592 97.9406667,80.999 98.302,82.403 L98.302,82.403 L98.302,82.403 L98.302,82.403 L98.302,82.403 L99.981,82.21 C100.609,84.5946667 101.053333,87.4236667 101.314,90.697 C101.405,91.396 101.459,92.103 101.465,92.663 C101.468,92.788 101.467,92.902 101.464,93.005 L101.464,93.005 L101.464,93.005 L101.464,93.005 C101.514,93.985 101.549667,95 101.571,96.05 C101.467667,96.176 101.363333,96.2896667 101.258,96.391 C101.261333,96.539 101.264667,96.6876667 101.268,96.837 C101.050667,97.103 100.827,97.3136667 100.597,97.469 L100.597,97.469 C100.803667,101.955667 100.577667,106.415 99.919,110.847 C97.6763333,111.654333 93.705,111.278667 88.005,109.72 C87.33,113.27 86.219,116.275 84.804,118.402 C84.838,118.738 84.868,119.075 84.887,119.413 C85.009,120.203 85.066,121.003 85.06,121.8 C85.055,122.813 84.981,123.823 84.844,124.826 C84.708,125.819 84.531,126.806 84.31,127.784 C84.098,128.729 83.857,129.668 83.586,130.597 C83.385,131.294 83.169,131.984 82.938,132.671 C92.508,132.258333 99.4546667,132.559667 103.778,133.575 C108.625333,134.713 111.405,137.490667 112.117,141.908 C109.791,138.7 107.422667,136.963 105.012,136.697 L105.012,136.697 L105.012,136.697 L105.012,136.697 L105.012,136.697 C105.017333,136.701 105.023,136.705 105.029,136.709 C107.280333,137.218333 109.156333,139.305 110.657,142.969 C110.532,142.585 109.126,141.465 108.103,140.722 C108.371667,141.41 108.573333,142.152 108.708,142.948 C107.517333,141.332 106.318333,140.093667 105.111,139.233 C104.749667,139.146333 104.378667,139.087 103.998,139.055 C104.378,139.380333 104.744667,139.764 105.098,140.206 C107.142,141.408667 108.387333,142.672667 108.834,143.998 C108.24,143.706667 107.583667,143.419667 106.865,143.137 C106.998333,143.420333 107.129,143.714667 107.257,144.02 C107.182,143.797 106.67,143.328 106.053,142.829 C104.898333,142.407 103.600667,141.994667 102.16,141.592 C103.928,142.692667 105.021667,143.85 105.441,145.064 C103.625,144.190667 101.228667,143.361667 98.252,142.577 C90.8353333,140.622333 83.1343333,139.597 75.149,139.501 C70.495,140.032333 68.4343333,139.047667 68.967,136.547 C69.2003333,135.453 70.2136667,134.731667 72.007,134.383 L71.258,134.124 L72.558,130.364 C72.806,129.644 73.035,128.918 73.248,128.186 C73.473,127.414 73.674,126.634 73.849,125.851 C74.02,125.093 74.159,124.329 74.262,123.559 C74.354,122.894 74.402,122.226 74.406,121.556 C74.408,121.249 74.391,120.942 74.357,120.637 C70.763,117.946 67.918,110.854 67.245,102.249 C64.5536667,100.999667 62.4553333,99.1606667 60.95,96.732 C58.853,105.597 57.131,109.334 51.743,120.62 L51.758,120.328 C48.99,128.52 45.456,135.266 35.065,139.876 C21.3043333,145.98 9.93766667,140.453 0.965,123.295 C4.915,123.709667 8.95133333,122.329 13.074,119.153 C16.902,116.205 20.804,111.709 24.781,105.666 C27.4963333,101.539333 30.572,98.173 34.008,95.567 L34.008,95.567 L34.008,95.567 L33.667,95.472 C34.3396667,95.1073333 34.9346667,94.7816667 35.452,94.495 C37.1053333,93.3443333 38.8453333,92.3763333 40.672,91.591 C42.473,90.564 44.384,89.659 46.298,88.784 C46.288,88.616 46.3093333,88.4706667 46.362,88.348 L41.329,88.93 C44.2303333,88.272 46.8006667,87.5156667 49.04,86.661 C49.704,86.3463333 50.3116667,86.0903333 50.863,85.893 C54.9723333,84.0956667 57.7763333,81.9103333 59.275,79.337 C59.9,78.264 60.701,76.974 61.098,76.151 C63.053,72.093 62.378,70.475 64.196,65.389 C64.5693333,64.3443333 64.8846667,63.1363333 65.142,61.765 C64.8506667,61.617 64.6746667,61.4023333 64.614,61.121 C64.3486667,56.921 64.5316667,53.8423333 65.163,51.885 C61.677,55.369 59.659,57.341 59.752,58.942 C57.98,57.5926667 57.336,56.538 57.82,55.778 C60.8726667,52.278 63.353,50.133 65.261,49.343 L65.261,49.343 L65.261,49.323 C65.261,48.579 65.639,47.929 66.205,47.597 C66.2083333,47.239 66.207,46.8683333 66.201,46.485 L66.201,45.2 L66.201,43.732 L65.472,42.631 L65.472,41.519 L64.047,42.01 C63.6123333,39.9473333 63.3263333,38.2576667 63.189,36.941 L62.921,36.941 L62.921,34.922 L62.731,34.922 L62.824,34.748 C62.724,34.633 62.625,34.517 62.527,34.401 L62.026,32.804 L62.519,34.275 L63.514,34.457 L63.315,35.76 L64.31,35.348 L63.964,36.048 L65.014,36.048 L65.182,36.562 C64.856,36.5593333 64.5273333,36.557 64.196,36.555 L64.196,36.207 L62.921,35.657 L62.705,34.97 L61.864,36.548 L61.407,34.922 L61.098,34.922 L61.272,34.441 L60.84,32.904 L61.827,32.904 L61.538,33.705 L60.364,33.248 L60.536,32.904 L59.275,32.904 L60.016,31.163 L58.864,30.548 L58.983,30.334 L58.546,30.334 L59.525,29.25 C59.407,28.942 59.298,28.629 59.192,28.315 L58.546,28.315 L58.82,27.42 L57.664,27.099 L58.444,25.929 L57.788,25.929 L58.441,24.478 C58.435,24.424 58.431,24.37 58.427,24.315 L58.427,24.315 L58.427,24.315 L58.427,24.315 L58.427,24.315 L58.427,24.315 L58.427,24.315 L58.427,24.315 L58.427,24.315 L58.427,24.315 L58.427,24.315 L58.427,24.315 L58.427,24.315 L58.427,24.315 L58.427,24.315 L58.427,24.315 L58.427,24.315 L58.427,24.315 L58.427,24.315 L58.427,24.315 L58.427,24.315 L58.427,24.315 L58.427,24.315 L58.427,24.315 L58.427,24.315 L58.427,24.315 L58.427,24.315 L58.427,24.315 L58.427,24.315 L58.427,24.315 L58.427,24.315 L58.427,24.315 L58.427,24.315 L58.427,24.315 L58.427,24.315 L58.427,24.315 L58.427,24.315 L58.427,24.315 L58.427,24.315 L58.427,24.315 L58.427,24.315 L58.427,24.315 L58.427,24.315 L58.427,24.315 L58.427,24.315 L58.427,24.315 L58.427,24.315 L58.427,24.315 L58.427,24.315 L58.427,24.315 L58.427,24.315 L58.427,24.315 L58.427,24.315 L58.427,24.315 L58.461,24.435 L59.275,22.626 L57.788,23.36 L58.492,20.973 C58.496,20.911 58.503,20.851 58.51,20.791 L57.788,20.791 L58.648,19.942 C58.673,19.728 58.714,19.52 58.784,19.322 L58.546,19.322 L58.871,18.93 C58.989,18.305 59.166,17.701 59.396,17.12 L59.275,17.12 L59.469,16.925 L59.469,16.925 L59.469,16.925 Z"
         id="Shape"
         stroke="#9BA6C6"
         stroke-width="3" />
      <g
         id="g202">
        <g
           transform="translate(46.000000, 0.000000)"
           id="g188">
          <g
             transform="translate(25.000000, 48.000000)"
             id="g20">
            <g
               transform="translate(1.000000, 1.000000)"
               id="g17">
              <path
                 d="M36.57,16.542 L41.377,15.261 L43.939,24.873 L39.133,26.155 C37.424,26.61 35.683,26.936 33.925,27.129 C32.289,27.308 30.64,27.35 28.997,27.255 C28.205,27.209 27.415,27.129 26.632,27.018 C25.852,26.907 25.078,26.761 24.312,26.586 C23.544,26.409 22.784,26.198 22.032,25.958 C21.274,25.715 20.526,25.438 19.79,25.132 C18.324,24.523 16.908,23.797 15.557,22.964 C14.103,22.064 12.714,21.064 11.403,19.968 C11.079,19.695 10.757,19.419 10.443,19.136 C10.116,18.846 9.796,18.551 9.482,18.251 C8.348,17.171 7.272,16.033 6.257,14.839 C5.113,13.494 4.031,12.098 3.012,10.656 L0.148,6.591 L8.276,0.86 L11.143,4.924 C11.986,6.122 12.883,7.28 13.832,8.396 C14.622,9.323 15.458,10.208 16.339,11.046 C16.58,11.274 16.822,11.499 17.069,11.72 C17.304,11.929 17.542,12.136 17.783,12.337 C18.73,13.128 19.733,13.853 20.783,14.501 C21.686,15.058 22.629,15.541 23.608,15.947 C24.089,16.148 24.579,16.329 25.076,16.488 C25.559,16.644 26.049,16.779 26.544,16.892 C27.038,17.006 27.537,17.099 28.038,17.171 C28.549,17.244 29.063,17.294 29.576,17.326 C30.664,17.39 31.756,17.36 32.838,17.242 C34.098,17.103 35.345,16.87 36.57,16.542 L36.57,16.542 Z"
                 fill="#D1D1D1"
                 id="path9" />
              <g
                 transform="translate(26.000000, 12.000000)"
                 fill="#464646"
                 id="g15">
                <path
                   d="M13.059,13.189 C6.60033333,11.2236667 6.58,8.714 12.998,5.66 C15.176,2.69466667 17.4223333,1.01133333 19.737,0.61 C17.955,2.634 16.9253333,4.239 16.648,5.425 C23.5706667,5.07566667 27.603,3.66166667 28.745,1.183 C28.6916667,4.393 26.384,6.894 21.822,8.686 C26.6226667,7.67866667 29.5273333,6.312 30.536,4.586 C29.1646667,9.04466667 26.6016667,11.3863333 22.847,11.611 C27.1396667,11.4243333 29.976,10.43 31.356,8.628 C28.928,14.0726667 23.5036667,15.7753333 15.083,13.736 C14.35,13.559 13.675,13.376 13.059,13.189 L13.059,13.189 Z"
                   id="path11" />
                <path
                   d="M0.805,4.599 C4.889,5.73633333 9.468,5.474 14.542,3.812 L16.264,13.718 C10.2233333,15.2833333 5.06966667,15.572 0.803,14.584 L3.125,12.841 L0.558,11.054 L2.718,9.55 L0.111,8.076 L1.786,6.891 L0.805,4.599 L0.805,4.599 Z"
                   id="path13" />
              </g>
            </g>
            <circle
               id="Oval"
               fill="#EBEBEB"
               cx="5.53765011"
               cy="5.21317391"
               r="5.1390801" />
          </g>
          <g
             transform="translate(23.000000, 78.000000)"
             id="g28">
            <path
               d="M6.249,35.019 L4.964,31.254 L12.494,28.681 L13.779,32.447 C14.051,33.243 14.308,34.043 14.553,34.846 C14.75,35.503 14.935,36.161 15.102,36.826 C15.33,37.725 15.521,38.632 15.677,39.547 C15.78,40.166 15.852,40.789 15.887,41.413 C16.009,42.203 16.066,43.003 16.06,43.8 C16.055,44.813 15.981,45.824 15.844,46.826 C15.708,47.819 15.531,48.806 15.31,49.784 C15.098,50.729 14.857,51.668 14.586,52.597 C14.338,53.457 14.067,54.306 13.775,55.151 L12.476,58.911 L4.954,56.313 L6.253,52.553 C6.502,51.833 6.733,51.107 6.945,50.375 C7.17,49.603 7.371,48.823 7.546,48.04 C7.717,47.282 7.854,46.518 7.96,45.748 C8.051,45.083 8.099,44.415 8.103,43.745 C8.107,43.247 8.059,42.75 7.96,42.261 C7.952,41.795 7.908,41.332 7.831,40.874 C7.711,40.172 7.564,39.474 7.389,38.783 C7.25,38.236 7.099,37.691 6.935,37.15 C6.719,36.436 6.49,35.726 6.249,35.019 L6.249,35.019 Z"
               fill="#464646"
               id="path22" />
            <path
               d="M10.889,43.789 C16.233,43.575 20.179,33.632 19.697,21.599 C19.214,9.566 14.484,-0.029 9.14,0.185 C3.796,0.4 -0.151,10.343 0.332,22.375 C0.815,34.408 5.545,44.003 10.889,43.789 L10.889,43.789 Z"
               fill="#D1D1D1"
               id="path24" />
            <path
               d="M10.34,54.853 C6.112,54.697 3.808,55.478 3.428,57.196 C2.87533333,59.692 4.928,60.6926667 9.586,60.198 C17.57,60.3566667 25.2626667,61.4423333 32.664,63.455 C35.6346667,64.263 38.0246667,65.1106667 39.834,65.998 C39.2406667,64.238 37.238,62.5856667 33.826,61.041 C35.4546667,60.9476667 36.9266667,61.3103333 38.242,62.129 C38.99,62.594 41.488,64.451 41.657,64.969 C40.135,61.2536667 38.2273333,59.1603333 35.934,58.689 C38.372,58.9256667 40.7663333,60.6653333 43.117,63.908 C42.405,59.4906667 39.6253333,56.713 34.778,55.575 C29.93,54.4363333 21.784,54.1956667 10.34,54.853 L10.34,54.853 Z"
               fill="#464646"
               id="path26" />
          </g>
          <g
             transform="translate(21.000000, 78.000000)"
             id="g36">
            <path
               d="M5.552,34.83 L4.266,31.065 L11.796,28.492 L13.083,32.258 C13.354,33.054 13.612,33.854 13.855,34.657 C14.054,35.314 14.237,35.972 14.404,36.637 C14.633,37.536 14.826,38.443 14.979,39.358 C15.084,39.977 15.154,40.6 15.192,41.224 C15.311,42.014 15.369,42.814 15.363,43.611 C15.357,44.624 15.283,45.635 15.146,46.637 C15.011,47.63 14.834,48.617 14.613,49.595 C14.402,50.54 14.159,51.479 13.889,52.408 C13.64,53.268 13.37,54.117 13.077,54.962 L11.778,58.722 L4.258,56.124 L5.558,52.364 C5.806,51.644 6.035,50.918 6.248,50.186 C6.473,49.414 6.674,48.634 6.849,47.851 C7.02,47.093 7.159,46.329 7.262,45.559 C7.354,44.894 7.402,44.226 7.406,43.556 C7.41,43.058 7.362,42.561 7.262,42.072 C7.254,41.606 7.211,41.143 7.133,40.685 C7.016,39.983 6.869,39.285 6.691,38.594 C6.554,38.047 6.401,37.502 6.238,36.961 C6.023,36.247 5.794,35.537 5.552,34.83 L5.552,34.83 Z"
               fill="#464646"
               id="path30" />
            <path
               d="M10.691,43.789 C16.035,43.575 19.982,33.632 19.499,21.599 C19.017,9.566 14.287,-0.029 8.943,0.185 C3.599,0.4 -0.348,10.343 0.135,22.375 C0.617,34.408 5.348,44.003 10.691,43.789 L10.691,43.789 Z"
               fill="#EBEBEB"
               id="path32" />
            <path
               d="M8.861,56.15 C4.63166667,56.0266667 2.33366667,56.8256667 1.967,58.547 C1.43433333,61.0476667 3.495,62.0323333 8.149,61.501 C16.1343333,61.597 23.8353333,62.6223333 31.252,64.577 C34.2286667,65.3616667 36.625,66.1906667 38.441,67.064 C37.8343333,65.3086667 35.819,63.672 32.395,62.154 C34.0223333,62.048 35.497,62.399 36.819,63.207 C37.571,63.666 40.084,65.504 40.257,66.02 C38.7056667,62.3173333 36.7813333,60.2393333 34.484,59.786 C36.924,60.004 39.332,61.7246667 41.708,64.948 C40.9613333,60.5366667 38.16,57.781 33.304,56.681 C28.4473333,55.5803333 20.2996667,55.4033333 8.861,56.15 L8.861,56.15 Z"
               fill="#464646"
               id="path34" />
          </g>
          <path
             d="M32.495,37.28 L32.495,37.264 C22.615,24.9506667 17.8203333,20.9646667 18.111,25.306 C18.4016667,29.6466667 19.2636667,36.6093333 20.697,46.194 C21.493,76.83 11.043,82.145 12.505,90.139 C14.2556667,99.709 20.9023333,104.409333 32.445,104.24 C43.9883333,104.409333 50.635,99.709 52.385,90.139 C53.453,84.3 50.537,75.238 45.397,64.315 C43.325,59.909 37.472,51.884 36.612,48.979 C35.3966667,47.0043333 36.5236667,44.816 39.993,42.414 C43.059,40.292 40.5596667,38.5806667 32.495,37.28 L32.495,37.28 Z"
             id="path38"
             fill="#D1D1D1" />
          <g
             transform="translate(11.000000, 0.000000)"
             id="g84">
            <g
               transform="translate(2.000000, 0.000000)"
               id="g44">
              <path
                 d="M3.854,15.078 C1.342,9.31266667 0.353,4.777 0.887,1.471 C1.42166667,-1.83566667 6.519,0.432 16.179,8.274 L3.854,15.078 L3.854,15.078 Z"
                 fill="#EBEBEB"
                 id="path40" />
              <path
                 d="M4.137,15.078 C2.50633333,10.9566667 1.89433333,7.701 2.301,5.311 C2.707,2.92166667 6.13866667,4.489 12.596,10.013 L4.137,15.078 L4.137,15.078 Z"
                 fill="#464646"
                 id="path42" />
            </g>
            <g
               transform="translate(45.000000, 33.000000)"
               id="g50">
              <path
                 d="M1.526,4.639 C0.388,3.179 0.219,1.404 1.151,0.678 C2.082,-0.048 3.762,0.548 4.9,2.007 C6.039,3.467 6.207,5.242 5.276,5.968 C4.344,6.694 2.664,6.098 1.526,4.639 L1.526,4.639 Z"
                 fill="#F9A9A9"
                 id="path46" />
              <path
                 d="M4.604,5.107 L2.014,1.785"
                 stroke="#F98383"
                 stroke-width="5"
                 fill="#000000"
                 id="path48" />
            </g>
            <path
               d="M8.074,34.05 C5.814,31.8766667 5.47166667,34.53 7.047,42.01 L10.601,40.784 L9.357,45.492 L11.716,43.927 L11.972,46.507 L13.958,44.38 L15.108,48.308 L18.667,44.652 L19.264,45.551 L27.348,40.148 C18.754,40.1753333 12.3293333,38.1426667 8.074,34.05 L8.074,34.05 Z"
               id="path52"
               fill="#8B8B8B" />
            <path
               d="M26.606,44.38 C28.481,40.181 45.285,39.06 47.31,38.348 C48.66,37.8726667 48.66,37.2726667 47.31,36.548 C42.3353333,37.098 39.3856667,37.098 38.461,36.548 C37.5356667,35.998 31.986,37.6476667 21.812,41.497"
               id="path54"
               fill="#8B8B8B" />
            <path
               d="M25.445,45.492 C27.32,42.498 44.166,38.917 46.191,38.409 C47.541,38.0703333 48.112,37.7893333 47.904,37.566 C42.5333333,39.03 39.3856667,39.566 38.461,39.174 C37.5356667,38.782 31.986,39.9583333 21.812,42.703"
               id="path56"
               fill="#D1D1D1" />
            <ellipse
               id="ellipse58"
               fill="#EBEBEB"
               cx="20.4999994"
               cy="22.9741001"
               rx="19.1232619"
               ry="18.37333" />
            <path
               d="M35.311,11.5 C43.5356667,22.9493333 49.1853333,29.0986667 52.26,29.948 C55.3346667,30.798 55.3346667,32.598 52.26,35.348 C46.16,37.2226667 41.5603333,37.6226667 38.461,36.548 C32.9616667,37.998 29.162,39.198 27.062,40.148 C24.962,41.0973333 22.2123333,42.147 18.813,43.297 L18.813,41.497 L14.763,43.297 L15.663,40.747 L11.763,41.497 L12.663,40.148 L8.764,40.148 L9.813,38.348 L6.964,38.348 L8.014,36.548 L4.864,36.548 L6.064,34.298 L3.364,33.248 L4.114,31.748 L1.864,30.548 L3.364,27.849 L0.664,27.099 L1.864,25.299 L0.664,22.599 L1.864,21.099 L35.311,11.5 L35.311,11.5 Z"
               id="path60"
               fill="#EBEBEB" />
            <path
               d="M39.138,25.944 C42.172,23.652 38.64,15.412 34.598,15.292 C30.556,15.173 19.599,23.176 20.559,27.745 C21.155,30.578 27.457,28.79 30.158,28.645 C32.859,28.501 36.103,28.237 39.138,25.944 L39.138,25.944 Z"
               id="path62"
               fill="#464646" />
            <path
               d="M33.23,20.297 C34.223,18.834 36.217,18.452 37.68,19.445 C39.143,20.438 39.524,22.431 38.532,23.894 C37.539,25.357 35.545,25.739 34.082,24.746 C32.619,23.754 32.237,21.76 33.23,20.297 L33.23,20.297 Z"
               id="path64"
               fill="#FFFFFF" />
            <polygon
               id="polygon66"
               fill="#D1D1D1"
               points="8.014 15.295 4.864 13.773 12.663 10.156 9.357 13.392 13.958 13.392 9.813 17.199 14.763 17.199 11.17 21.099 13.958 21.099 11.716 26.311 13.958 26.311 13.958 30.548 15.663 29.38 15.663 34.298 19.264 33.248 19.264 36.548 21.812 36.548 21.812 38.409 25.445 37.566 26.606 38.348 28.198 37.566 31.854 36.548 35.311 37.566 23.622 41.665 18.667 43.297 14.763 43.297 11.17 41.665 9.357 40.148 8.014 36.048 6.964 36.048 7.31 35.348 6.315 35.76 6.514 34.457 5.519 34.275 3.364 27.849 3.364 26.311 2.535 22.599 2.535 21.386 2.535 18.531 3.364 15.652" />
            <path
               d="M35.407,21.291 C35.574,20.012 36.428,19.281 37.314,19.66 C38.2,20.038 38.783,21.384 38.617,22.662 C38.45,23.941 37.596,24.671 36.71,24.293 C35.824,23.914 35.241,22.569 35.407,21.291 L35.407,21.291 Z"
               id="path68"
               fill="#000000" />
            <path
               d="M37.827,21.624 C37.872,21.196 37.666,20.753 37.368,20.634 C37.069,20.516 36.791,20.767 36.746,21.194 C36.702,21.621 36.907,22.065 37.206,22.183 C37.504,22.302 37.783,22.051 37.827,21.624 L37.827,21.624 Z"
               id="path70"
               fill="#FFFFFF" />
            <path
               d="M31.859,34.784 C31.67,32.499 36.43,30.236 42.483,29.733 C48.536,29.229 53.604,30.676 53.794,32.96 C53.984,35.245 49.224,37.508 43.171,38.011 C37.118,38.514 32.049,37.068 31.859,34.784 L31.859,34.784 Z"
               id="path72"
               fill="#D1D1D1" />
            <path
               d="M31.854,15.652 C30.7846667,16.0233333 29.74,15.3423333 28.72,13.609 C29.2,15.9583333 29.9173333,17.2776667 30.872,17.567 L31.854,15.652 L31.854,15.652 Z"
               id="path74"
               fill="#464646" />
            <path
               d="M50.759,28.809 C48.8236667,28.3956667 44.6996667,24.01 38.387,15.652 C37.8796667,15.1286667 37.3723333,14.3753333 36.865,13.392 C36.103,11.917 29.11,1.972 14.763,5.398 C23.3336667,3.68533333 30.183,6.03266667 35.311,12.44 L36.865,14.724 L37.436,15.295 L37.816,16.057 L38.387,16.057 L38.768,17.199 L39.339,17.199 L39.91,18.531 L40.671,19.102 L41.052,20.244 L41.623,21.386 L42.575,22.599 L42.575,23.48 L43.146,23.48 L43.146,24.051 L43.907,24.051 L43.907,24.622 L44.668,24.622 L44.668,25.299 L45.049,25.299 L45.239,26.311 L45.81,26.311 L46.191,27.099 L46.572,27.099 L46.572,27.849 L47.31,27.849 L47.31,28.428 L48.285,28.428 L48.285,28.809 L48.823,28.809 L49.807,28.809 L49.807,29.38 L50.759,28.809 L50.759,28.809 Z"
               id="path76"
               fill="#8B8B8B" />
            <path
               d="M32.677,35.348 C34.5163333,37.8326667 37.8156667,38.8326667 42.575,38.348 C48.1156667,37.7833333 51.4776667,36.4256667 52.661,34.275 L52.74,31.446"
               id="path78"
               stroke="#000000"
               stroke-width="0.398" />
            <path
               d="M51.786,35.76 C55.79,32.3833333 55.4156667,30.056 50.663,28.778 L48.823,29.96 C47.6116667,32.6033333 48.5993333,34.5366667 51.786,35.76 L51.786,35.76 Z"
               id="path80"
               fill="#464646" />
            <ellipse
               id="ellipse82"
               fill="#000000"
               cx="51.8086229"
               cy="34.1623403"
               rx="0.931182961"
               ry="0.793805363" />
          </g>
          <path
             d="M37.208,50.371 C28.3226667,50.1063333 22.9516667,48.9793333 21.095,46.99 L20.299,50.371 C27.1956667,50.769 31.307,51.2996667 32.633,51.963 C33.959,52.6263333 34.8873333,59.8543333 35.418,73.647 C36.3466667,92.479 35.4183333,103.486667 32.633,106.67 C43.5076667,110.648667 50.603,112.041 53.919,110.847 C56.8363333,91.219 51.266,71.0603333 37.208,50.371 L37.208,50.371 Z"
             id="path86"
             fill="#FFFFFF" />
          <path
             d="M55.268,96.837 C55.156,91.211 54.626,86.5973333 53.678,82.996 L50.516,83.36 L52.106,97.2 C53.2773333,98.104 54.3313333,97.983 55.268,96.837 L55.268,96.837 Z"
             id="path88"
             fill="#D1D1D1" />
          <path
             d="M55.571,96.05 C55.459,90.424 54.929,85.8106667 53.981,82.21 L50.819,82.573 L52.408,96.413 C53.58,97.3176667 54.6343333,97.1966667 55.571,96.05 L55.571,96.05 Z"
             id="path90"
             fill="#FFFFFF" />
          <g
             transform="translate(53.000000, 83.000000)"
             id="g104">
            <path
               d="M0.287,2.332 C0.287,2.332 0.695,1.655 1.389,4.689 C0.862,6.093 0.287,2.332 0.287,2.332 L0.287,2.332 Z M0.718,0.36 C0.718,0.36 0.851,3.179 1.389,4.689 C1.31,1.506 0.718,0.36 0.718,0.36 L0.718,0.36 Z"
               fill="#33691E"
               id="path92" />
            <path
               d="M0.287,2.332 C0.287,2.332 0.917,3.943 1.389,4.689 C0.862,6.093 0.287,2.332 0.287,2.332 L0.287,2.332 Z M0.718,0.36 C0.718,0.36 0.851,3.179 1.389,4.689 C1.196,2.894 0.718,0.36 0.718,0.36 L0.718,0.36 Z"
               fill="#558B2F"
               id="path94" />
            <path
               d="M1.237,6.164 L1.338,6.538 C1.363,5.683 1.428,5.126 1.506,4.759 C1.515,5.254 1.592,5.713 1.599,5.739 L1.649,5.487 C1.649,5.487 1.559,4.837 1.622,4.334 C1.722,4.103 1.81,4.094 1.81,4.094 L1.751,3.55 C1.736,3.551 1.305,3.57 1.237,6.164 L1.237,6.164 Z"
               fill="#6D4C41"
               id="path96" />
            <path
               d="M1.524,11.277 C1.464,11.284 1.397,11.181 1.321,10.969 C1.079,10.253 0.862,8.542 0.845,7.141 C0.835,6.371 0.88,5.816 0.979,5.641 C1.052,5.496 1.147,5.595 1.247,5.887 C1.49,6.604 1.706,8.314 1.724,9.715 C1.734,10.484 1.688,11.039 1.59,11.215 C1.573,11.244 1.548,11.275 1.524,11.277 L1.524,11.277 L1.524,11.277 Z M2.32,10.641 C2.16,10.659 1.909,9.751 1.725,8.45 C1.612,7.663 1.544,6.845 1.537,6.214 C1.528,5.72 1.561,5.386 1.625,5.269 C1.776,4.977 2.069,5.937 2.277,7.428 C2.39,8.213 2.458,9.031 2.465,9.663 C2.474,10.157 2.441,10.491 2.377,10.607 C2.357,10.609 2.34,10.639 2.32,10.641 L2.32,10.641 L2.32,10.641 Z"
               fill="#9E9D24"
               id="path98" />
            <path
               d="M1.615,10.167 C1.632,10.331 1.628,10.441 1.604,10.443 C1.58,10.446 1.552,10.339 1.535,10.176 C1.517,10.012 1.522,9.902 1.546,9.899 C1.57,9.897 1.597,10.003 1.615,10.167 L1.615,10.167 Z M1.415,10.189 C1.391,10.191 1.387,10.301 1.404,10.465 C1.422,10.629 1.45,10.735 1.474,10.732 C1.498,10.73 1.502,10.62 1.484,10.456 C1.467,10.292 1.439,10.186 1.415,10.189 L1.415,10.189 Z M1.338,9.096 C1.314,9.099 1.31,9.209 1.327,9.373 C1.345,9.536 1.372,9.643 1.397,9.64 C1.421,9.638 1.425,9.528 1.407,9.364 C1.39,9.2 1.362,9.094 1.338,9.096 L1.338,9.096 Z M2.235,9.55 C2.211,9.553 2.207,9.663 2.224,9.826 C2.242,9.99 2.27,10.097 2.294,10.094 C2.318,10.091 2.322,9.982 2.304,9.818 C2.287,9.654 2.259,9.548 2.235,9.55 L2.235,9.55 Z M2.267,8.721 C2.243,8.724 2.239,8.834 2.256,8.998 C2.274,9.161 2.302,9.268 2.326,9.265 C2.35,9.263 2.354,9.153 2.336,8.989 C2.319,8.825 2.291,8.719 2.267,8.721 L2.267,8.721 Z M2.078,8.467 C2.054,8.469 2.05,8.579 2.067,8.743 C2.085,8.907 2.113,9.013 2.137,9.011 C2.161,9.008 2.165,8.898 2.147,8.734 C2.13,8.571 2.102,8.464 2.078,8.467 L2.078,8.467 Z"
               fill="#827717"
               id="path100" />
            <path
               d="M1.82,7.944 C1.639,6.863 1.724,6.304 1.724,6.304 M1.235,6.632 C1.235,6.632 1.017,6.077 1.043,7.477"
               stroke="#C0CA33"
               stroke-width="2"
               id="path102" />
          </g>
          <path
             d="M33.375,87.122 C20.073,86.1353333 13.7643333,84.115 14.449,81.061 L11.935,84.841 C10.2116667,88.2223333 16.7206667,90.2426667 31.462,90.902 C46.204,91.5613333 49.2466667,91.5613333 40.59,90.902 L40.59,87.122 C48.208,87.3673333 45.803,87.3673333 33.375,87.122 L33.375,87.122 Z"
             id="path106"
             fill="#FFFFFF" />
          <path
             d="M10.888,85.984 C5.191,88.54 1.9,89.741 1.342,91.482 C0.175333333,89.5846667 -0.0456666667,88.3686667 0.679,87.834 C6.23566667,84.9066667 9.92266667,83.9133333 11.74,84.854 C14.467,86.266 16.585,83.428 10.888,85.984 L10.888,85.984 Z"
             id="path108"
             fill="#FFFFFF" />
          <path
             d="M12.02,86.777 C9.771,92.601 8.277,95.77 9.105,97.4 C6.941,96.8726667 5.92866667,96.164 6.068,95.274 C7.95666667,89.2846667 9.87766667,85.9846667 11.831,85.374 C14.762,84.459 14.27,80.952 12.02,86.777 L12.02,86.777 Z"
             id="path110"
             fill="#FFFFFF" />
          <path
             d="M18.363,4.827 C21.2183333,6.50833333 23.185,7.77733333 24.263,8.634 L22.972,8.253 L23.663,9.205 L22.17,9.205 L22.763,10.156 L21.601,10.156 L22.17,11.108 L20.076,11.108 L20.357,12.44 L18.363,12.06 L18.744,13.392 L17.412,12.631 L17.412,13.392 L17.064,12.44 L16.46,13.392 L16.46,12.06 L16.079,12.06 L18.363,4.827 L18.363,4.827 Z"
             id="path112"
             fill="#464646" />
          <ellipse
             id="ellipse114"
             fill="#FFFFFF"
             cx="21.0948322"
             cy="49.3231376"
             rx="1.83370827"
             ry="1.98932978" />
          <ellipse
             id="ellipse116"
             fill="#FFFFFF"
             cx="11.7963146"
             cy="85.4805132"
             rx="1.83370827"
             ry="1.98932978" />
          <path
             d="M20.676,50.374 C16.283,54.81 13.646,57.117 13.752,58.942 C11.98,57.5926667 11.336,56.538 11.82,55.778 C15.9486667,51.0453333 19.03,48.7903333 21.064,49.013 C24.116,49.347 25.069,45.937 20.676,50.374 L20.676,50.374 Z"
             id="path118"
             fill="#FFFFFF" />
          <path
             d="M21.105,51.049 C21.105,57.293 20.853,60.788 22.213,62.009 C20.0043333,62.297 18.8046667,62.001 18.614,61.121 C18.2173333,54.853 18.8203333,51.0823333 20.423,49.809 C22.827,47.899 21.105,44.805 21.105,51.049 L21.105,51.049 Z"
             id="path120"
             fill="#FFFFFF" />
          <g
             transform="translate(62.000000, 41.000000)"
             id="g172">
            <g
               id="g164">
              <path
                 d="M6.98700893,7.23713274 L46.0129911,7.23713274 C49.7215714,7.23713274 52.7326339,10.2633452 52.7326339,13.9910607 L52.7326339,40.8060714 C52.7326339,44.5333113 49.7215714,47.5595238 46.0129911,47.5595238 L6.98700893,47.5595238 C3.27842857,47.5595238 0.267366071,44.5333113 0.267366071,40.8060714 L0.267366071,13.9910607 C0.267366071,10.2633452 3.27842857,7.23713274 6.98700893,7.23713274 L6.98700893,7.23713274 Z"
                 fill="#C7F099"
                 id="path122" />
              <path
                 d="M7.12140179,0 L45.5355179,0 C46.4795804,0 47.2461875,0.76998869 47.2461875,1.71880119 L47.2461875,5.51833155 C47.2461875,6.46714405 46.4795804,7.23713274 45.5355179,7.23713274 L7.12140179,7.23713274 C6.17733929,7.23713274 5.41120536,6.46714405 5.41120536,5.51833155 L5.41120536,1.71880119 C5.41120536,0.76998869 6.17733929,0 7.12140179,0 L7.12140179,0 Z"
                 fill="#4D5355"
                 id="path124" />
              <path
                 d="M45.4716339,9.42011488 L8.20884821,9.42011488 C4.7799375,9.6813752 3.06548214,11.2896798 3.06548214,14.2450286 L3.06548214,41.8157601 C3.29073214,43.6087542 4.16696726,44.8724107 5.6941875,45.6067298 C4.9323125,45.0255524 4.551375,43.340677 4.551375,40.5521036 L4.551375,15.0492601 C5.00534524,13.0577843 6.83416071,12.0620464 10.0378214,12.0620464 L40.21375,12.0620464 L45.4716339,9.42011488 L45.4716339,9.42011488 Z"
                 fill="#ECFBEE"
                 id="path126" />
              <path
                 d="M7.39066071,0.851791071 L41.1464554,0.851791071 C41.7999643,0.851791071 42.3309107,1.38493333 42.3309107,2.04220595 L42.3309107,3.68158274 C42.3309107,4.33885536 41.7999643,4.87247321 41.1464554,4.87247321 L7.39066071,4.87247321 C6.73715179,4.87247321 6.20620536,4.33885536 6.20620536,3.68158274 L6.20620536,2.04220595 C6.20620536,1.38493333 6.73715179,0.851791071 7.39066071,0.851791071 L7.39066071,0.851791071 Z"
                 fill="#8A8D8E"
                 id="path128" />
              <g
                 transform="translate(21.294643, 25.206548)"
                 id="g138">
                <path
                   d="M28.1406339,13.5378185 C28.7174821,12.4881798 28.5220446,10.704222 28.4434911,10.2143589 C28.3374911,9.55470833 27.9224821,7.57575655 27.1440446,6.56892143 C26.6230357,5.67813155 24.0903929,3.45472381 23.6839018,3.16461071 C19.1514554,-0.031864881 16.2851964,-0.49842381 13.0034554,0.760952381 C10.9586964,1.54568452 9.1391875,4.7535744 9.13114286,4.96521429 C9.11410714,5.42796845 8.33992857,7.13868452 9.83055357,9.82009048 C15.3311964,16.5963714 20.7849911,17.160903 22.0588839,17.0695887 C24.47275,17.2079869 27.8425089,14.8300107 28.1406339,13.5378185 Z"
                   fill="#B9B7B7"
                   id="path130" />
                <path
                   d="M27.1497232,8.43230357 C27.4700893,9.88239345 28.6602232,12.2403946 27.2907411,13.6586196 C25.9217321,15.0768446 24.876875,16.8907649 22.3783036,16.4888869 C19.8802054,16.0870089 16.6278036,15.1572202 14.9937946,14.0467054 C13.3597857,12.9361905 11.4498929,11.3624458 10.4854821,9.59370714 C9.52107143,7.82496845 9.20875,6.891375 9.33036607,5.81034702 C9.45150893,4.72931905 10.0988661,7.14724524 10.4249107,7.48539345 C10.7514286,7.82401726 11.6306607,10.2352851 13.0469911,9.83626071 C14.4628482,9.4377119 14.4827232,9.03345595 15.3576964,9.14331845 C16.2321964,9.25365655 15.5247411,10.1377881 17.9996518,9.78775 C20.4740893,9.4381875 18.5145089,9.25746131 20.67,8.45655893 C22.8250179,7.65565655 24.7732411,8.2301756 25.1944018,8.24063869 C25.6155625,8.25110179 26.8298304,6.98268929 27.1497232,8.43230357 L27.1497232,8.43230357 Z"
                   fill="#979AA0"
                   id="path132" />
                <path
                   d="M18.0058036,17.0629304 C20.0543482,15.7721649 21.4342411,11.8727595 20.9331071,10.6457238 C20.7996607,9.45435774 19.6128393,8.11270357 19.2669196,7.75886071 C18.8008036,7.28231429 17.3229554,5.90974643 16.1086875,5.54116012 C15.1707768,5.11740476 11.8251518,4.77640298 11.3263839,4.77640298 C5.78977679,4.8044631 3.1833125,6.09094821 1.23130357,9.02632202 C0.0156160714,10.8554613 0.377625,14.5299101 0.4935625,14.7073071 C0.746258929,15.0944417 1.09927679,16.9397512 3.85858929,18.2604792 C12.2463125,20.5885179 17.019625,17.8781006 18.0058036,17.0629304 L18.0058036,17.0629304 Z"
                   fill="#A5A1A1"
                   id="path134" />
                <path
                   d="M20.3094107,11.2383155 C20.0089196,13.1911095 20.2015179,15.278497 17.9324554,16.4032798 C15.6629196,17.5285381 12.474875,18.6609304 10.5029911,18.7051607 C8.53110714,18.7493911 6.06755357,18.57675 4.26271429,17.6945208 C2.457875,16.8122917 1.66571429,16.2330167 1.14233929,15.2803994 C0.618964286,14.3282577 2.53832143,15.9238798 2.99970536,16.0104381 C3.46061607,16.0965208 5.56594643,17.5523179 6.49108036,16.4032798 C7.4166875,15.2547173 7.20042857,14.9132399 7.97697321,14.4947161 C8.75399107,14.0757167 8.68632143,15.2081089 10.5029911,13.4840762 C12.3201339,11.7595679 10.6175089,12.7521351 11.9145893,10.8449982 C13.2116696,8.9383369 15.1310268,8.27440595 15.4807321,8.03803512 C15.8304375,7.80166429 16.0902321,6.06098571 17.1861964,7.05783333 C18.2816875,8.05420536 20.6099018,9.28504583 20.3094107,11.2383155 Z"
                   fill="#949496"
                   id="path136" />
              </g>
              <g
                 transform="translate(6.625000, 26.633333)"
                 id="g148">
                <path
                   d="M18.4639375,9.84801241 C18.2570177,8.77934991 13.0588847,7.91470754 12.7502279,11.3513587 C12.5578161,13.4924885 13.1782127,16.8069117 13.2434985,16.9324688 C13.3856765,17.2059361 15.3322461,18.1672319 16.4990487,18.4335652 C19.820827,17.6640521 19.5992536,14.0888849 19.8444381,12.9788456 C20.4077096,11.0488802 18.8075947,10.8215559 18.4639375,9.84801241 Z"
                   fill="#B9B8B8"
                   transform="translate(16.338415, 13.667539) rotate(-56.000000) translate(-16.338415, -13.667539) "
                   id="path140" />
                <path
                   d="M16.9858601,8.05478077 C16.9017892,6.98611827 14.7898033,6.12147589 14.6643969,9.55812708 C14.5862206,11.6992568 14.8382859,15.0136801 14.8648113,15.1392372 C14.9225778,15.4127045 15.7134632,16.3740002 16.1875316,16.6403336 C17.5371602,15.8708205 17.4471356,12.2956533 17.5467533,11.185614 C17.7756089,9.25564851 17.125487,9.02832422 16.9858601,8.05478077 Z"
                   fill="#979AA0"
                   transform="translate(16.122266, 11.874307) rotate(-56.000000) translate(-16.122266, -11.874307) "
                   id="path142" />
                <path
                   d="M18.7260357,10.2329071 C20.1958393,8.30294167 20.1300625,4.1647875 19.2333214,3.19124405 C18.6933839,2.12258155 17.1147411,1.28315595 16.6670804,1.07341845 C16.0646786,0.791390476 14.2021071,0.0252065476 12.9362589,0.107008929 C11.9103304,0.03995 8.65745536,0.89792381 8.19086607,1.07294286 C3.01390179,3.04713869 1.01977679,5.16876905 0.214366071,8.60542024 C-0.287714286,10.74655 1.33115179,14.0609732 1.50150893,14.1865304 C1.87250893,14.4599976 2.84638393,16.064656 5.89104464,16.3309893 C14.5589107,15.5614762 18.08625,11.3429464 18.7260357,10.2329071 L18.7260357,10.2329071 Z"
                   fill="#B9B8B8"
                   id="path144" />
                <path
                   d="M14.4737321,1.1485625 C15.8474732,1.69692381 18.4567768,2.03079167 18.8556964,3.96598869 C19.2546161,5.90118571 20.1612946,7.78882321 18.4274375,9.64079107 C16.6935804,11.4927589 14.1017857,13.6752655 12.2699732,14.4105357 C10.4381607,15.1453304 8.07019643,15.8501625 6.07228571,15.6589732 C4.074375,15.4673083 3.1303125,15.203353 2.3088125,14.4951917 C1.48683929,13.7870304 3.84060714,14.6069565 4.30246429,14.5256298 C4.76479464,14.444303 7.24349107,15.0668571 7.71055357,13.665278 C8.17714286,12.2636988 7.85583036,12.020194 8.43741071,11.3543607 C9.01946429,10.689003 9.35024107,11.7738357 10.4514107,9.51951429 C11.5530536,7.26519286 10.3042411,8.79328036 10.8550625,6.55084881 C11.4058839,4.30889286 12.9726964,3.01146905 13.2178214,2.6671381 C13.4629464,2.32233155 13.1004643,0.600676786 14.4737321,1.1485625 L14.4737321,1.1485625 Z"
                   fill="#979AA0"
                   id="path146" />
              </g>
              <g
                 transform="translate(18.928571, 16.645833)"
                 id="g154">
                <path
                   d="M17.2344643,13.5844268 C19.4462679,12.601847 21.3670446,8.94166607 21.0462054,7.65470536 C21.0835893,6.45620536 20.1007232,4.95760476 19.80875,4.55810476 C19.4150357,4.01925536 18.1482411,2.44788869 16.9988036,1.9080881 C16.1314018,1.35401964 12.8681161,0.535044643 12.3750268,0.463229762 C6.89141964,-0.305807738 4.12832143,0.591640476 1.77833929,3.2164506 C0.314214286,4.85154702 0.149535714,8.5397881 0.2385,8.73240417 C0.433464286,9.15187917 0.5200625,11.0290536 3.06264286,12.7331113 C11.0320446,16.2449065 16.1422857,14.2493089 17.2344643,13.5844268 L17.2344643,13.5844268 Z"
                   fill="#FFFFFF"
                   id="path150" />
                <path
                   d="M17.8491696,3.56458631 C18.7918125,4.70839286 20.9203304,6.2616869 20.3444286,8.15122679 C19.769,10.0412423 19.6620536,12.1343369 17.2557589,12.9209714 C14.8499375,13.7080815 11.5331786,14.3701101 9.57501786,14.1299345 C7.61733036,13.8897589 5.20346429,13.3642262 3.54295536,12.2313583 C1.88244643,11.0984905 1.18114286,10.4107798 0.798785714,9.39300595 C0.416901786,8.37523214 2.08924107,10.2310048 2.53311607,10.3827196 C2.97699107,10.5344345 4.85328571,12.2779667 5.9326875,11.2744607 C7.0125625,10.2704792 6.8469375,9.90189286 7.67553571,9.59893869 C8.50366071,9.29598452 8.27509821,10.4074506 10.3193839,8.96259226 C12.3631964,7.51725833 10.5370625,8.25443095 12.0920446,6.55417798 C13.6475,4.853925 15.641625,4.47297321 16.0216161,4.28939345 C16.4011339,4.1053381 16.9065268,2.42030417 17.8491696,3.56458631 L17.8491696,3.56458631 Z"
                   fill="#D1E0FF"
                   id="path152" />
              </g>
              <g
                 transform="translate(6.625000, 14.743452)"
                 id="g160">
                <path
                   d="M16.0774554,11.5793173 C17.6797589,9.79203036 18.3668661,5.47980833 17.7753482,4.3340994 C17.5060893,3.14225774 16.3074375,2.03412083 15.9629375,1.74971488 C15.4987143,1.36638512 14.0445268,0.292015476 12.9480893,0.188335714 C12.0835268,-0.0347184524 9.14959821,0.372391071 8.71897321,0.485107143 C3.94045536,1.76540952 1.85547321,3.67397321 0.549875,7.12679464 C-0.263580357,9.2783875 0.524321429,12.9656774 0.647357143,13.1216726 C0.915669643,13.4617232 1.45939286,15.2746923 4.01333036,16.0061577 C11.5587321,16.4983988 15.3307232,12.6384679 16.0774554,11.5793173 L16.0774554,11.5793173 Z"
                   fill="#A5A1A1"
                   id="path156" />
                <path
                   d="M14.0748125,1.50050298 C15.1504286,2.27524762 17.3201161,3.01146905 17.3134911,5.0831619 C17.3068661,7.15485476 17.7426964,9.25222976 15.9283929,10.9191911 C14.1140893,12.5861524 11.5071518,14.4690339 9.80973214,14.9603238 C8.1123125,15.4511381 5.96202679,15.8311387 4.28921429,15.3341417 C2.61640179,14.8371446 1.85689286,14.4214744 1.2819375,13.563025 C0.706982143,12.7045756 2.57097321,13.907356 2.98030357,13.8921369 C3.38963393,13.8764423 5.39653571,14.8932649 6.04720536,13.5059536 C6.697875,12.1181667 6.46647321,11.8171149 7.08354464,11.2116821 C7.70014286,10.6062494 7.78816071,11.7833476 9.13445536,9.60369464 C10.4802768,7.42404167 9.13871429,8.82704762 10.0122679,6.57795774 C10.8853482,4.32839226 12.4573661,3.21359702 12.7289911,2.89209464 C13.0001429,2.57011667 12.9996696,0.726233929 14.0748125,1.50050298 L14.0748125,1.50050298 Z"
                   fill="#939496"
                   id="path158" />
              </g>
              <path
                 d="M8.26847321,45.6067298 L45.5312589,45.6067298 C48.9604851,45.3451524 50.6750982,43.7368478 50.6750982,40.7818161 L50.6750982,13.2110845 C50.4498482,11.4180905 49.5734554,10.1544339 48.0459196,9.42011488 C48.8081101,10.0009752 49.1892054,11.6858506 49.1892054,14.4747411 L49.1892054,39.9775845 C48.7352351,41.9687433 46.9064196,42.9643226 43.7027589,42.9643226 L13.5268304,42.9643226 L8.26847321,45.6067298 L8.26847321,45.6067298 Z"
                 fill-opacity="0.6"
                 fill="#0CB3B1"
                 id="path162" />
            </g>
            <rect
               id="Rectangle-path"
               stroke="#951D10"
               stroke-width="3.999946"
               fill="#FFFFFF"
               transform="translate(26.504885, 25.996564) rotate(6.776783) translate(-26.504885, -25.996564) "
               x="9.97976933"
               y="17.4318074"
               width="33.0502321"
               height="17.1295137" />
            <g
               transform="translate(33.180463, 27.154619) rotate(6.745580) translate(-33.180463, -27.154619) translate(18.180463, 24.154619)"
               font-weight="bold"
               id="CHAMPI"
               font-size="5"
               font-family="BradleyHandITCTT-Bold, Bradley Hand"
               fill="#951D10"
               font-style="expanded">
              <g
                 aria-label="CHAMPI"
                 style=""
                 id="text169">
                <path
                   d="m 0.01401854,-0.05884981 q 0.0625,0.0859375 0.04296875,0.1875 -0.01953125,0.1015625 -0.109375,0.1640625 -0.0859375,0.0585938 -0.1875,0.0390625 Q -1.509419,0.09349394 -2.5133252,0.68333769 -3.2359815,1.1091189 -3.6305127,1.8474002 q -0.390625,0.7382812 -0.3046875,1.46875 0.085937,0.7304687 0.6484375,1.15625 1.0078125,0.765625 3.08593749,0.2734375 0.1015625,-0.023437 0.19140625,0.03125 0.08984375,0.054687 0.11328125,0.15625 0.0234375,0.1015625 -0.03125,0.1914062 -0.0546875,0.089844 -0.15625,0.1132813 Q -2.3961377,5.7849002 -3.5914502,4.8786502 -4.3297315,4.3200564 -4.4391065,3.4059939 -4.5445752,2.4880252 -4.0836377,1.6169314 -3.618794,0.74583769 -2.7672315,0.24583769 q 1.1640625,-0.68359375 2.62109379,-0.41015625 0.1015625,0.015625 0.16015625,0.10546875 z"
                   style="font-style:normal;font-variant:normal;font-weight:bold;font-stretch:normal;font-size:8px;font-family:Chilanka;-inkscape-font-specification:'Chilanka Bold'"
                   id="path212" />
                <path
                   d="m 3.9710498,-0.21900606 q 0.074219,-0.078125 0.1796875,-0.078125 0.1054687,0 0.1796875,0.0742188 0.074219,0.0742188 0.078125,0.17578125 L 4.459331,5.2419314 q 0,0.1015625 -0.074219,0.1757813 -0.074219,0.078125 -0.1796875,0.078125 -0.1015625,0.00391 -0.1796875,-0.070312 -0.074219,-0.074219 -0.074219,-0.1796875 l -0.023437,-2.34375 -2.4921875,-0.03125 0.023437,2.4179687 q 0,0.1054688 -0.074219,0.1796875 -0.074219,0.078125 -0.1796875,0.078125 -0.1015625,0 -0.1796875,-0.074219 -0.0742188,-0.074219 -0.0742188,-0.1757813 L 0.90073729,0.00755644 q 0,-0.10546875 0.0742188,-0.1796875 0.0742188,-0.0742188 0.17578126,-0.0742188 0.1054687,-0.003906 0.1796875,0.0703125 0.078125,0.0742188 0.078125,0.1796875 0,0 0.023437,2.35937501 l 2.4921875,0.03125 q -0.011719,-1.21875 -0.023437,-2.43750001 -0.00391,-0.1015625 0.070312,-0.17578125 z"
                   style="font-style:normal;font-variant:normal;font-weight:bold;font-stretch:normal;font-size:8px;font-family:Chilanka;-inkscape-font-specification:'Chilanka Bold'"
                   id="path214" />
                <path
                   d="M 5.662456,5.4645877 Q 5.584331,5.5349002 5.4788623,5.5270877 5.3772998,5.5192752 5.3069873,5.4372439 5.240581,5.3591189 5.2444873,5.2770877 5.3890185,3.3786502 5.849956,1.8825564 6.3147998,0.38255644 6.959331,-0.10572481 7.9671435,-0.86353731 8.8069873,1.2653689 9.349956,2.6364627 9.7522998,4.8825564 l 0.0625,0.34375 q 0.015625,0.1015625 -0.046875,0.1875 -0.0625,0.085937 -0.1640625,0.1015625 Q 9.506206,5.5349002 9.4202685,5.4724002 9.334331,5.4138064 9.3108935,5.3122439 L 9.2522998,4.9724002 Q 9.0726123,3.9606814 8.8616748,3.1364627 h -0.00391 -2.796875 q -0.234375,1.15625 -0.3085937,2.15625 -0.00781,0.1015625 -0.089844,0.171875 z M 6.1741748,2.6286502 H 8.7288623 Q 8.2835498,1.0700564 7.8226123,0.48021269 7.7054248,0.33177519 7.599956,0.27708769 7.4983935,0.22240019 7.4554248,0.22630644 7.2132373,0.25365019 6.9632373,0.62083769 6.4866748,1.3317752 6.1741748,2.6286502 Z"
                   style="font-style:normal;font-variant:normal;font-weight:bold;font-stretch:normal;font-size:8px;font-family:Chilanka;-inkscape-font-specification:'Chilanka Bold'"
                   id="path216" />
                <path
                   d="m 11.123394,0.73411894 0.05469,4.53124996 q 0.0039,0.1054688 -0.07031,0.1796875 -0.07422,0.078125 -0.179688,0.078125 -0.101562,0 -0.179687,-0.074219 -0.07422,-0.074219 -0.07813,-0.1757813 l -0.06641,-5.32031246 q 0,-0.10546875 0.07422,-0.1796875 0.07422,-0.078125 0.183594,-0.078125 0.109375,0 0.195312,0.09375 L 11.72105,0.69115019 Q 12.935894,2.3005252 13.342144,2.5974002 13.6273,2.3630252 14.0023,1.7770877 14.65855,0.74974394 15.010112,0.11693144 l 0.152344,-0.27734375 q 0.05078,-0.0898438 0.152344,-0.1171875 0.101562,-0.03125 0.179687,0.0117188 0.144532,0.0820313 0.144532,0.23046875 l 0.03516,5.35937501 q 0,0.1015625 -0.07422,0.1757812 -0.07422,0.078125 -0.179687,0.078125 -0.101563,0 -0.179688,-0.074219 -0.07422,-0.074219 -0.07422,-0.1796875 l -0.02734,-4.41406251 q -0.71875,1.20312501 -1.070313,1.64062501 -0.351562,0.4375 -0.546875,0.5390625 -0.273437,0.1523437 -0.621094,-0.1640625 -0.34375,-0.3203125 -0.636718,-0.6875 Q 11.97105,1.8669314 11.670269,1.4684939 11.373394,1.0700564 11.310894,0.99193144 Z"
                   style="font-style:normal;font-variant:normal;font-weight:bold;font-stretch:normal;font-size:8px;font-family:Chilanka;-inkscape-font-specification:'Chilanka Bold'"
                   id="path218" />
                <path
                   d="m 16.22105,3.9411502 z m 0.738281,-1.5273438 q 1.148438,0.050781 1.71875,-0.3945312 0.332031,-0.2578125 0.320313,-0.59375 -0.0078,-0.3398438 -0.394532,-0.62890626 -0.574218,-0.43359375 -1.648437,-0.51171875 z m 0.0039,0.5078125 0.0039,2.3789063 q 0,0.1015625 -0.07422,0.1757812 -0.07422,0.078125 -0.179688,0.078125 -0.101562,0 -0.179687,-0.074219 -0.07422,-0.074219 -0.07422,-0.1796875 l -0.01172,-5.28515626 q 0,-0.10546875 0.08203,-0.1796875 0.08203,-0.078125 0.179687,-0.0742188 1.429688,0.0507813 2.199219,0.62890625 0.585937,0.4375 0.601562,1.02734376 0.01563,0.5859375 -0.519531,1 -0.710937,0.5585937 -2.027344,0.5039062 z"
                   style="font-style:normal;font-variant:normal;font-weight:bold;font-stretch:normal;font-size:8px;font-family:Chilanka;-inkscape-font-specification:'Chilanka Bold'"
                   id="path220" />
                <path
                   d="m 20.365581,-0.23463106 q 0.07422,-0.078125 0.175781,-0.078125 0.105469,-0.003906 0.179688,0.0703125 0.07813,0.0742188 0.07813,0.1796875 l 0.05078,5.28515626 q 0,0.1054687 -0.07422,0.1796875 -0.07422,0.078125 -0.179687,0.078125 -0.101563,0 -0.179688,-0.074219 -0.07422,-0.074219 -0.07422,-0.1757812 l -0.05078,-5.28906251 q 0,-0.1015625 0.07422,-0.17578125 z"
                   style="font-style:normal;font-variant:normal;font-weight:bold;font-stretch:normal;font-size:8px;font-family:Chilanka;-inkscape-font-specification:'Chilanka Bold'"
                   id="path222" />
              </g>
            </g>
          </g>
          <g
             transform="translate(22.000000, 50.000000)"
             id="g186">
            <g
               transform="translate(1.000000, 1.000000)"
               id="g182">
              <path
                 d="M36.925,16.567 L41.729,15.286 L44.293,24.897 L39.487,26.178 C37.778,26.633 36.037,26.96 34.279,27.152 C32.644,27.333 30.994,27.375 29.351,27.28 C28.559,27.232 27.77,27.154 26.986,27.041 C26.206,26.93 25.432,26.786 24.666,26.609 C23.898,26.432 23.139,26.223 22.387,25.983 C21.629,25.738 20.879,25.464 20.145,25.157 C18.678,24.548 17.262,23.822 15.911,22.989 C14.457,22.09 13.069,21.089 11.758,19.993 C11.433,19.72 11.111,19.444 10.797,19.161 C10.47,18.871 10.15,18.574 9.836,18.276 C8.702,17.196 7.626,16.056 6.611,14.864 C5.467,13.52 4.385,12.123 3.367,10.681 L0.502,6.617 L8.63,0.883 L11.497,4.95 C12.34,6.145 13.238,7.305 14.187,8.421 C14.976,9.348 15.812,10.231 16.693,11.071 C16.934,11.299 17.176,11.522 17.423,11.743 C17.658,11.954 17.897,12.159 18.137,12.362 C19.084,13.154 20.087,13.876 21.137,14.524 C22.038,15.081 22.983,15.567 23.962,15.972 C24.444,16.173 24.933,16.352 25.43,16.512 C25.914,16.669 26.403,16.802 26.898,16.917 C27.392,17.031 27.891,17.124 28.392,17.196 C28.902,17.267 29.415,17.319 29.93,17.349 C31.018,17.413 32.108,17.385 33.193,17.265 C34.452,17.128 35.699,16.893 36.925,16.567 L36.925,16.567 Z"
                 fill="#E8E8E8"
                 id="path174" />
              <g
                 transform="translate(26.000000, 12.000000)"
                 fill="#464646"
                 id="g180">
                <path
                   d="M13.413,13.213 C6.95433333,11.2476667 6.934,8.738 13.352,5.684 C15.53,2.71866667 17.7763333,1.03533333 20.091,0.634 C18.309,2.658 17.2793333,4.263 17.002,5.449 C23.9246667,5.09966667 27.9573333,3.686 29.1,1.208 C29.046,4.41733333 26.738,6.91833333 22.176,8.711 C26.9766667,7.703 29.8813333,6.33633333 30.89,4.611 C29.5186667,9.06966667 26.9556667,11.411 23.201,11.635 C27.4936667,11.4483333 30.33,10.454 31.71,8.652 C29.282,14.0966667 23.8576667,15.7993333 15.437,13.76 C14.704,13.583 14.029,13.4 13.413,13.213 L13.413,13.213 Z"
                   id="path176" />
                <path
                   d="M1.159,4.623 C5.243,5.76033333 9.822,5.498 14.896,3.836 L16.618,13.742 C10.5773333,15.3073333 5.42366667,15.5963333 1.157,14.609 L3.479,12.865 L0.912,11.078 L3.072,9.575 L0.465,8.1 L2.14,6.916 L1.159,4.623 L1.159,4.623 Z"
                   id="path178" />
              </g>
            </g>
            <circle
               id="circle184"
               fill="#EBEBEB"
               cx="5.89173077"
               cy="5.2375011"
               r="5.1390801" />
          </g>
        </g>
        <g
           transform="translate(0.000000, 14.000000)"
           id="g200">
          <path
             d="M59.398,74.75 C44.58,73.474 33.041,79.1126667 24.781,91.666 C20.804,97.709 16.902,102.205 13.074,105.153 C8.95133333,108.329 4.915,109.709667 0.965,109.295 C9.93766667,126.453 21.3043333,131.98 35.065,125.876 C54.089,117.436 50.129,101.834 60.597,83.323 C61.74,82.429 61.157,67.521 62.36,66.826 L59.398,74.75 L59.398,74.75 Z"
             fill="#464646"
             id="path190" />
          <path
             d="M17.377,105.872 L14.744,108.876 L18.226,109.144 L15.663,112.001 L18.883,113.18 L15.322,115.246 L19.399,116.431 L15.384,118.364 L19.309,119.87 L15.07,121.191 L19.174,123.404 L14.729,124.436 C20.3316667,129.73 28.4126667,129.485 38.972,123.701 L35.807,122.767 L38.094,119.511 L34.832,119.397 L36.739,115.391 L33.667,114.984 L35.972,111.946 L32.092,111.791 L34.9,109.142 L31.451,108.443 L33.205,104.758 L29.249,104.763 L31.887,100.666 L28.308,100.963 L30.716,97.346 L27.083,98.479 L29.142,94.153 L25.985,96.093 L28.196,91.446 L24.814,92.773 C20.6793333,98.5636667 17.1103333,102.451 14.107,104.435 L17.377,105.872 L17.377,105.872 Z"
             fill="#EBEBEB"
             id="path192" />
          <path
             d="M63.535,65.327 C62.7823333,72.787 61.95,78.4653333 61.038,82.362 C58.9,91.494 57.207,95.176 51.743,106.62 L52.025,101.026 L48.436,102.026 L49.132,98.186 L46.131,99.981 L47.276,95.249 L44.401,97.777 L45.003,93.388 L41.701,94.308 L42.99,89.536 L39.096,91.388 L40.479,87.165 L37.016,88.898 L39.035,84.881 L35.16,85.961 L36.873,82.362 L33.667,81.472 C36.623,79.87 38.8936667,78.6123333 40.479,77.699 C47.864,73.444 57.128,71.298 61.038,64.389 L63.535,65.327 L63.535,65.327 Z"
             fill="#EBEBEB"
             id="path194" />
          <path
             d="M66.931,30.466 C66.7283333,29.9766667 66.485,29.732 66.201,29.732 L66.201,26.979 L66.931,26.408 L66.201,24.043 L65.472,24.043 L65.472,22.941 L64.196,22.941 L64.196,22.207 L62.921,21.657 L61.827,18.17 L61.827,16.334 L61.827,15.05 L60.369,13.031 L61.098,11.929 L60.369,11.929 L60.369,9.36 L59.275,8.626 L60.369,5.322 L60.369,4.588 L61.098,2.019 L61.827,0 L60.369,0.918 L60.369,2.019 L59.275,3.12 L60.369,3.12 L58.546,5.322 L59.275,5.322 L57.788,6.791 L58.546,6.791 L57.788,9.36 L59.275,8.626 L57.788,11.929 L59.275,11.929 L58.546,14.315 L60.369,14.315 L58.546,16.334 L60.369,16.334 L59.275,18.904 L61.827,18.904 L61.098,20.922 L62.921,20.922 L62.921,22.941 L64.196,22.941 L64.196,26.408 L65.472,26.408 L65.472,28.631 L66.201,29.732 L66.201,31.2 L66.201,32.485 C66.323,41.009 65.6546667,47.3103333 64.196,51.389 C62.378,56.475 63.053,58.093 61.098,62.151 C60.701,62.974 59.9,64.264 59.275,65.337 C56.8043333,69.5783333 50.8223333,72.776 41.329,74.93 L46.516,74.33 L45.787,76.532 L49.25,75.615 L48.641,78.551 L50.526,76.532 L51.438,79.836 L53.078,78.551 L53.078,81.511 L56.177,79.836 L56.177,81.511 L58.546,79.836 L59.275,83.323 C61.0976667,78.5103333 61.9483333,75.5126667 61.827,74.33 C61.7056667,73.1473333 62.0703333,72.5356667 62.921,72.495 L61.827,71.393 L62.921,69.558 L61.827,67.723 L62.921,65.704 L61.827,64.97 L62.921,63.869 L61.827,63.135 L64.196,61.85 L62.921,61.85 L64.196,59.831 L62.921,59.831 L65.472,57.629 L64.196,57.629 L66.201,54.692 L64.196,55.793 L66.201,51.389 L64.196,52.857 L66.931,49.003 L66.201,48.085 L66.931,46.8 L66.201,45.883 L66.931,43.313 L66.931,41.478 L67.66,39.092 L67.66,37.073"
             fill="#464646"
             id="path196" />
          <polyline
             fill="#464646"
             points="68.409 31.397 67.66 33.459 68.409 36.083"
             id="polyline198" />
        </g>
      </g>
    </g>
  </g>
</svg>
