<?xml version="1.0" encoding="UTF-8"?>
<svg id="Calque_1" data-name="Calque 1" xmlns="http://www.w3.org/2000/svg" viewBox="0 40 160 130">
  <defs>
    <style>
      .cls-1 {
        fill: rgba(216, 199, 202, .6);
      }

      .cls-1,
      .cls-2,
      .cls-3,
      .cls-4,
      .cls-5,
      .cls-6,
      .cls-7,
      .cls-8,
      .cls-9 {
        stroke-width: 0px;
      }

      .cls-10 {
        fill: #fff;
        stroke: #331027;
        stroke-linecap: square;
        stroke-linejoin: bevel;
        stroke-width: 4px;
      }

      .cls-2 {
        fill: #502024;
      }

      .cls-3 {
        fill: #4d5355;
      }

      .cls-4 {
        fill: #ddcd4e;
      }

      .cls-5 {
        fill: #8a8d8e;
      }

      .cls-6 {
        fill: #331027;
      }

      .cls-7 {
        fill: #662b32;
      }

      .cls-8 {
        fill: #e5d8da;
      }

      .cls-9 {
        fill: #eae4e4;
      }
    </style>
  </defs>
  <path class="cls-8"
    d="m38.75,75.3h82.5c7.8,0,14.2,6.4,14.2,14.2v56.4c0,7.8-6.4,14.2-14.2,14.2H38.75c-7.8,0-14.2-6.4-14.2-14.2v-56.4c0-7.8,6.3-14.2,14.2-14.2Z" />
  <path class="cls-3"
    d="m38.95,60.1h81.2c2,0,3.6,1.6,3.6,3.6v8c0,2-1.6,3.6-3.6,3.6H38.95c-2,0-3.6-1.6-3.6-3.6v-8c0-2,1.7-3.6,3.6-3.6Z" />
  <path class="cls-9"
    d="m120.05,79.9H41.25c-7.2.5-10.9,3.9-10.9,10.1v58c.5,3.8,2.3,6.4,5.6,8-1.6-1.2-2.4-4.8-2.4-10.6v-53.6c1-4.2,4.8-6.3,11.6-6.3h63.8l11.1-5.6Z" />
  <path class="cls-5"
    d="m39.55,61.9h71.4c1.4,0,2.5,1.1,2.5,2.5v3.4c0,1.4-1.1,2.5-2.5,2.5H39.55c-1.4,0-2.5-1.1-2.5-2.5v-3.4c0-1.4,1.1-2.5,2.5-2.5Z" />
  <path class="cls-1"
    d="m41.45,156h78.7c7.2-.6,10.9-3.9,10.9-10.1v-58c-.5-3.8-2.3-6.4-5.6-8,1.6,1.2,2.4,4.8,2.4,10.6v53.6c-1,4.2-4.8,6.3-11.6,6.3h-63.8l-11,5.6Z" />
  <path class="cls-4"
    d="m96.73,131.87c-.11-1.25-.79-3.28.45-4.19,1.25-1.02,2.26-2.26,4.3-1.7s4.42,1.7,5.66,2.83c1.13,1.13,2.49,2.6,3.06,4.08s.68,2.26.45,3.17c-.23.79-.45-1.13-.68-1.47s-.68-2.38-1.81-2.15c-1.13.11-1.25.45-1.92.34-.68-.23,0-.79-2.04-.79s-.45.34-2.26.68-3.28-.34-3.62-.34c-.34-.11-1.47.79-1.59-.45Z" />
  <g>
    <path class="cls-7"
      d="m38.14,141.7c-2.38.11-5.77-2.26-6.11-3.51-.57-1.02-.34-2.83-.34-3.28.11-.68.57-2.6,1.25-3.62.57-.91,3.06-3.06,3.51-3.4,4.53-3.17,7.36-3.62,10.76-2.38,2.04.79,3.85,3.96,3.85,4.19,0,.45.79,2.15-.68,4.87-5.43,6.68-10.87,7.25-12.23,7.13Z" />
    <path class="cls-2"
      d="m33.04,133.09c-.34,1.47-1.47,3.85-.11,5.21,1.36,1.47,2.38,3.17,4.98,2.83,2.49-.34,5.77-1.36,7.36-2.38,1.7-1.13,3.51-2.6,4.53-4.42.91-1.81,1.25-2.72,1.13-3.85s-.79,1.36-1.13,1.7-1.13,2.72-2.6,2.38-1.47-.79-2.38-.68c-.91.11-.23,1.02-2.6.68-2.49-.34-.57-.57-2.6-1.36-2.15-.79-4.08-.23-4.53-.23-.45-.11-1.7-1.25-2.04.11Z" />
    <path class="cls-7"
      d="m38.63,151.8c-1.59-1.02-2.6-3.96-2.26-4.87.11-.91,1.02-1.92,1.25-2.15.34-.34,1.47-1.36,2.38-1.7.68-.34,3.28-.57,3.62-.57,4.19,0,6.23,1.02,7.7,3.17.91,1.36.68,4.19.57,4.3-.23.34-.45,1.7-2.6,2.72-6.23,1.81-9.85-.23-10.64-.91Z" />
    <path class="cls-2"
      d="m39.31,144.21c-.79.79-2.6,1.7-2.38,3.17.23,1.47.11,3.06,1.81,3.96s4.19,1.7,5.66,1.7,3.4-.11,4.76-.79,2.04-1.13,2.38-1.81c.45-.68-1.02.45-1.36.57-.34.11-1.92,1.13-2.72.34-.68-.91-.57-1.13-1.13-1.47s-.57.57-1.92-.79c-1.36-1.25-.11-.57-1.13-2.04s-2.49-1.92-2.72-2.15c-.23-.11-.34-1.47-1.25-.68Z" />
    <path class="cls-7"
      d="m48.93,145.12c-1.25-1.59-1.13-4.87-.45-5.66.45-.79,1.7-1.59,2.04-1.7.45-.23,2.04-.79,3.06-.79.79,0,3.51.68,3.85.79,4.19,1.59,5.89,3.28,6.45,6.11.45,1.7-.91,4.42-1.02,4.53-.34.23-1.13,1.47-3.62,1.7-6.91-.68-9.74-4.08-10.3-4.98Z" />
    <path class="cls-2"
      d="m52.33,137.76c-1.13.45-3.28.68-3.62,2.26-.34,1.59-1.13,3.06.34,4.53s3.51,3.28,4.98,3.85,3.4,1.13,4.98,1.02,2.38-.34,3.06-.91-1.25.11-1.59,0-2.38.45-2.72-.68-.11-1.36-.57-1.92-.68.34-1.7-1.47c-.91-1.81.11-.57-.34-2.38s-1.7-2.83-1.92-3.17c0-.11.23-1.47-.91-1.13Z" />
    <path class="cls-7"
      d="m104.08,148.63c-1.7-1.92-2.49-6.57-1.81-7.81.34-1.25,1.59-2.49,1.92-2.72.57-.45,2.04-1.59,3.28-1.7.91-.23,4.08.23,4.53.34,5.21,1.36,7.36,3.4,8.83,7.13.91,2.26,0,6.23-.11,6.45-.34.34-.91,2.26-3.62,3.17-8.04.34-12.23-3.74-13.02-4.87Z" />
    <path class="cls-2"
      d="m106.34,137.76c-1.13.79-3.51,1.59-3.51,3.85s-.45,4.53,1.47,6.23,4.76,3.85,6.57,4.3c1.81.57,4.19.91,6,.45,1.81-.57,2.6-1.02,3.28-1.92s-1.36.34-1.81.34-2.6,1.02-3.28-.45c-.68-1.47-.45-1.81-1.13-2.49s-.79.57-2.15-1.7c-1.47-2.38,0-.79-1.02-3.28-.91-2.38-2.6-3.62-2.94-3.96-.34-.23-.34-2.15-1.47-1.36Z" />
    <path class="cls-7"
      d="m94.23,152.25c-1.47.11-3.51-1.36-3.74-2.15-.34-.68-.23-1.7-.23-2.04.11-.45.34-1.59.79-2.26.34-.57,1.92-1.92,2.15-2.15,2.83-1.92,4.53-2.26,6.57-1.47,1.25.45,2.38,2.49,2.38,2.6,0,.34.45,1.36-.45,2.94-3.28,4.3-6.68,4.64-7.47,4.53Z" />
    <path class="cls-2"
      d="m91.17,147.04c-.23.91-.91,2.38-.11,3.17.79.91,1.47,2.04,3.06,1.7,1.59-.23,3.51-.79,4.53-1.47s2.15-1.59,2.72-2.72.79-1.7.68-2.38-.45.79-.68,1.02c-.23.23-.68,1.7-1.59,1.47s-.91-.45-1.47-.45c-.57.11-.11.57-1.59.45s-.34-.34-1.59-.79c-1.36-.45-2.49-.11-2.83-.11-.23,0-1.02-.79-1.13.11Z" />
    <path class="cls-7"
      d="m87.88,150.78c-1.13,1.25-3.85,1.81-4.64,1.36-.79-.23-1.59-1.13-1.81-1.47-.34-.34-1.02-1.47-1.25-2.38-.23-.68-.11-2.94,0-3.28.57-3.74,1.7-5.43,3.85-6.45,1.36-.68,3.85,0,3.96.11.23.23,1.47.68,2.04,2.6.79,5.89-1.47,8.94-2.15,9.51Z" />
    <path class="cls-2"
      d="m81.2,149.2c.57.79,1.13,2.6,2.49,2.6s2.72.34,3.74-1.13,2.15-3.51,2.38-4.87.34-3.06-.11-4.3c-.45-1.36-.68-1.92-1.36-2.38s.34,1.02.34,1.36c0,.34.79,1.92-.11,2.38-.91.57-1.13.34-1.47.79s.45.57-.91,1.59c-1.36,1.02-.45,0-1.92.68-1.47.68-2.04,1.92-2.26,2.15-.11.23-1.36.23-.79,1.13Z" />
    <path class="cls-7"
      d="m88.22,136.97c-1.25-1.59-1.13-4.87-.45-5.66.45-.79,1.7-1.59,2.04-1.7.45-.23,2.04-.79,3.06-.79.79,0,3.51.68,3.85.79,4.19,1.59,5.89,3.28,6.45,6.11.45,1.7-.91,4.42-1.02,4.53-.34.23-1.13,1.47-3.62,1.7-6.91-.68-9.74-4.08-10.3-4.98Z" />
    <path class="cls-2"
      d="m91.73,129.72c-1.13.45-3.28.68-3.62,2.26-.34,1.59-1.13,3.06.34,4.53s3.51,3.28,4.98,3.85,3.4,1.13,4.98,1.02,2.38-.34,3.06-.91c.68-.57-1.25.11-1.59,0s-2.38.45-2.72-.68-.11-1.36-.57-1.92-.68.34-1.7-1.47c-.91-1.81.11-.57-.34-2.38s-1.7-2.83-1.92-3.17c-.11-.23.11-1.59-.91-1.13Z" />
    <path class="cls-7"
      d="m66.14,149.31c-1.59-1.02-2.6-3.96-2.26-4.87.11-.91,1.02-1.92,1.25-2.15.34-.34,1.47-1.36,2.38-1.7.68-.34,3.28-.57,3.62-.57,4.19,0,6.23,1.02,7.7,3.17.91,1.36.68,4.19.57,4.3-.23.34-.45,1.7-2.6,2.72-6.23,1.7-9.85-.34-10.64-.91Z" />
    <path class="cls-2"
      d="m66.82,141.61c-.79.79-2.6,1.7-2.38,3.17.23,1.47.11,3.06,1.81,3.96s4.19,1.7,5.66,1.7,3.4-.11,4.76-.79,2.04-1.13,2.38-1.81c.45-.68-1.02.45-1.36.57-.34.11-1.92,1.13-2.72.34-.68-.91-.57-1.13-1.13-1.47s-.57.57-1.92-.79c-1.36-1.25-.11-.57-1.13-2.04s-2.49-1.92-2.72-2.15c-.23,0-.45-1.36-1.25-.68Z" />
    <path class="cls-7"
      d="m56.86,135.27c-1.7-1.92-2.49-6.57-1.81-7.81.34-1.25,1.59-2.49,1.92-2.72.57-.45,2.04-1.59,3.28-1.7.91-.23,4.08.23,4.53.34,5.21,1.36,7.36,3.4,8.83,7.13.91,2.26,0,6.23-.11,6.45-.34.34-.91,2.26-3.62,3.17-8.15.34-12.23-3.74-13.02-4.87Z" />
    <path class="cls-2"
      d="m59.01,124.4c-1.13.79-3.51,1.59-3.51,3.85s-.45,4.53,1.47,6.23,4.76,3.85,6.57,4.3,4.19.91,6,.45c1.81-.57,2.6-1.02,3.28-1.92s-1.36.34-1.81.34-2.6,1.02-3.28-.45-.45-1.81-1.13-2.49-.79.57-2.15-1.7,0-.79-1.02-3.28c-.91-2.38-2.6-3.62-2.94-3.96-.34-.23-.34-2.15-1.47-1.36Z" />
    <path class="cls-7"
      d="m79.05,137.65c-1.47.11-3.62-1.36-3.74-2.15-.34-.68-.23-1.81-.23-2.04.11-.45.34-1.59.79-2.26.34-.57,1.92-1.92,2.15-2.15,2.83-1.92,4.53-2.26,6.57-1.47,1.25.45,2.38,2.49,2.38,2.6,0,.34.45,1.36-.45,2.94-3.28,4.19-6.68,4.64-7.47,4.53Z" />
    <path class="cls-2"
      d="m76,132.44c-.23.91-.91,2.26-.11,3.17.79.91,1.47,1.92,2.94,1.7s3.51-.79,4.42-1.47c1.02-.68,2.15-1.59,2.72-2.72.57-1.02.79-1.59.68-2.26s-.45.79-.68,1.02-.68,1.7-1.59,1.36c-.91-.23-.91-.45-1.36-.45-.57.11-.11.57-1.59.45s-.34-.34-1.59-.79c-1.36-.45-2.49-.11-2.72-.11-.11,0-.91-.79-1.13.11Z" />
    <path class="cls-7"
      d="m43.12,110.22c1.92-.34,4.98,1.13,5.32,2.04.57.79.68,2.26.68,2.6,0,.57-.11,2.15-.57,3.06-.34.79-2.04,2.83-2.38,3.17-3.28,3.06-5.55,3.85-8.27,3.28-1.7-.34-3.62-2.72-3.62-2.83-.11-.34-.91-1.59,0-3.96,3.51-6.11,7.81-7.25,8.83-7.36Z" />
    <path class="cls-2"
      d="m48.56,117.01c.11-1.25.79-3.28-.57-4.3-1.25-1.02-2.38-2.38-4.42-1.7s-4.64,1.81-5.77,2.94c-1.25,1.13-2.6,2.72-3.17,4.19s-.68,2.38-.57,3.28c.23.91.45-1.13.68-1.47s.68-2.38,1.92-2.26c1.25.11,1.25.45,2.04.34.68-.23,0-.79,2.15-.91,2.04,0,.45.34,2.38.79,1.92.34,3.4-.34,3.74-.34.23-.23,1.47.68,1.59-.57Z" />
    <path class="cls-7"
      d="m104.42,134.02c-1.59-1.02-2.6-3.96-2.26-4.87.11-.91,1.02-1.92,1.25-2.15.34-.34,1.47-1.36,2.38-1.7.68-.34,3.28-.57,3.62-.57,4.19,0,6.23,1.02,7.7,3.17.91,1.36.68,4.19.57,4.3-.23.34-.45,1.7-2.6,2.72-6.23,1.81-9.85-.34-10.64-.91Z" />
    <path class="cls-2"
      d="m105.09,126.44c-.79.79-2.6,1.7-2.38,3.17s.11,3.06,1.81,3.96,4.19,1.7,5.66,1.7,3.4-.11,4.76-.79,2.04-1.13,2.38-1.81c.45-.68-1.02.45-1.36.57s-1.92,1.13-2.72.34c-.68-.91-.57-1.13-1.13-1.47s-.57.57-1.92-.79c-1.36-1.25-.11-.57-1.13-2.04s-2.49-1.92-2.72-2.15c-.23-.11-.45-1.47-1.25-.68Z" />
    <path class="cls-7"
      d="m121.4,139.8c-1.47.11-3.62-1.36-3.74-2.15-.34-.68-.23-1.81-.23-2.04.11-.45.34-1.59.79-2.26.34-.57,1.92-1.92,2.15-2.15,2.83-1.92,4.53-2.26,6.57-1.47,1.25.45,2.38,2.49,2.38,2.6,0,.34.45,1.36-.45,2.94-3.28,4.19-6.68,4.64-7.47,4.53Z" />
    <path class="cls-2"
      d="m118.34,134.59c-.23.91-.91,2.26-.11,3.17s1.47,1.92,2.94,1.7,3.51-.79,4.42-1.47c1.02-.68,2.15-1.59,2.72-2.72.57-1.02.79-1.59.68-2.26-.11-.68-.45.79-.68,1.02s-.68,1.7-1.59,1.36c-.91-.23-.91-.45-1.36-.45-.57.11-.11.57-1.59.45s-.34-.34-1.59-.79c-1.36-.45-2.49-.11-2.72-.11-.11,0-.91-.79-1.13.11Z" />
    <path class="cls-7"
      d="m116.98,126.44c-1.59-1.02-2.6-3.96-2.26-4.87.11-.91,1.02-1.92,1.25-2.15.34-.34,1.47-1.36,2.38-1.7.68-.34,3.28-.57,3.62-.57,4.19,0,6.23,1.02,7.7,3.17.91,1.36.68,4.19.57,4.3-.23.34-.45,1.7-2.6,2.72-6.23,1.81-9.85-.23-10.64-.91Z" />
    <path class="cls-2"
      d="m117.66,118.85c-.79.79-2.6,1.7-2.38,3.17s.11,3.06,1.81,3.96,4.19,1.7,5.66,1.7,3.4-.11,4.76-.79,2.04-1.13,2.38-1.81c.45-.68-1.02.45-1.36.57s-1.92,1.13-2.72.34-.57-1.13-1.13-1.47-.57.57-1.92-.79c-1.36-1.25-.11-.57-1.13-2.04s-2.49-1.92-2.72-2.15c-.23-.11-.45-1.47-1.25-.68Z" />
    <path class="cls-7"
      d="m113.7,111.72c-1.7-1.92-2.49-6.57-1.81-7.81.34-1.25,1.59-2.49,1.92-2.72.57-.45,2.04-1.59,3.28-1.7.91-.23,4.08.23,4.53.34,5.21,1.36,7.36,3.4,8.83,7.13.91,2.26,0,6.23-.11,6.45-.34.34-.91,2.26-3.62,3.17-8.15.45-12.23-3.74-13.02-4.87Z" />
    <path class="cls-2"
      d="m115.85,100.96c-1.13.79-3.51,1.59-3.51,3.85s-.45,4.53,1.47,6.23,4.76,3.85,6.57,4.3c1.81.57,4.19.91,6,.45,1.81-.57,2.6-1.02,3.28-1.92.68-.91-1.36.34-1.81.34s-2.6,1.02-3.28-.45c-.68-1.47-.45-1.81-1.13-2.49s-.79.57-2.15-1.7c-1.47-2.38,0-.79-1.02-3.28-.91-2.38-2.6-3.62-2.94-3.96-.34-.23-.34-2.26-1.47-1.36Z" />
    <path class="cls-7"
      d="m37.69,111.24c-1.59.11-3.74-1.47-3.85-2.26-.34-.68-.23-1.81-.23-2.15.11-.45.34-1.7.79-2.38.34-.57,1.92-1.92,2.15-2.15,2.94-2.04,4.76-2.38,6.79-1.59,1.25.57,2.49,2.49,2.49,2.6,0,.34.57,1.36-.45,3.06-3.4,4.64-6.91,4.98-7.7,4.87Z" />
    <path class="cls-2"
      d="m34.52,105.92c-.23.91-.91,2.38-.11,3.28s1.47,2.04,3.06,1.81c1.59-.23,3.62-.79,4.64-1.47,1.02-.68,2.15-1.7,2.83-2.72.57-1.13.79-1.7.68-2.38s-.45.79-.68,1.02c-.23.23-.68,1.7-1.59,1.47s-.91-.45-1.47-.45c-.57.11-.11.57-1.7.45-1.59-.23-.34-.34-1.7-.79-1.36-.45-2.6-.11-2.83-.11-.11-.23-.91-1.02-1.13-.11Z" />
  </g>
  <rect class="cls-10" x="61.93" y="79.96" width="36" height="69.8" transform="translate(-43.55 180.68) rotate(-83.22)"
    vector-effect="non-scaling-stroke" />
  <g>
    <path class="cls-6"
      d="m49.4,116.29l.96-8.47,1.73.2-.38,3.37,3.67.41.38-3.37,1.73.2-.96,8.47-1.73-.2.39-3.45-3.67-.41-.39,3.45-1.73-.2Z" />
    <path class="cls-6"
      d="m57.48,117.2l4.6-8.05,1.54.17,2.7,8.88-1.81-.2-.6-2.02-3.61-.41-1.03,1.84-1.79-.2Zm5.11-5.69l-1.48,2.61,2.33.26-.85-2.87Z" />
    <path class="cls-6"
      d="m67.27,118.31l.96-8.47,3.24.37c.77.09,1.37.4,1.8.93.43.53.6,1.15.52,1.87-.13,1.11-.79,1.78-1.99,2.01l2.62,4.1-2.09-.24-2.51-3.89-.42-.05-.4,3.57-1.73-.2Zm2.3-4.85l1.31.15c.33.04.61-.01.82-.16.21-.14.34-.35.37-.64s-.04-.52-.22-.71c-.18-.18-.43-.3-.77-.33l-1.31-.15-.21,1.84Z" />
    <path class="cls-6" d="m75.1,119.19l.96-8.47,1.73.2-.96,8.47-1.73-.2Z" />
    <path class="cls-6"
      d="m82.64,120.19c-1.27-.14-2.28-.68-3.03-1.62-.75-.94-1.05-2.02-.91-3.25s.68-2.22,1.61-2.97,2.04-1.05,3.31-.91c.96.11,1.79.49,2.5,1.13.7.65,1.12,1.43,1.26,2.36l-1.87-.21c-.12-.43-.38-.8-.76-1.09s-.83-.47-1.31-.52c-.79-.09-1.47.1-2.03.56-.56.46-.88,1.08-.97,1.85s.09,1.44.53,2.02c.44.57,1.06.91,1.86.99.49.05.95-.02,1.4-.22s.77-.5.99-.89l1.87.21c-.34.87-.93,1.54-1.76,2.02-.83.47-1.73.66-2.69.55Z" />
    <path class="cls-6"
      d="m95.11,120.29c-.95.76-2.03,1.07-3.24.93s-2.19-.68-2.95-1.63c-.76-.95-1.07-2.03-.93-3.24s.68-2.19,1.63-2.95,2.03-1.07,3.24-.93,2.19.68,2.95,1.63c.76.95,1.07,2.03.93,3.24s-.68,2.19-1.63,2.95Zm-4.83-1.74c.45.59,1.05.92,1.78,1s1.38-.11,1.96-.58c.57-.47.9-1.08.99-1.83s-.1-1.41-.55-2c-.45-.59-1.04-.92-1.78-1s-1.38.11-1.96.58c-.57.47-.9,1.08-.98,1.83s.1,1.41.55,2Z" />
    <path class="cls-6" d="m98.86,121.87l.77-6.82-2.25-.25.19-1.64,6.27.71-.19,1.64-2.28-.26-.77,6.82-1.74-.2Z" />
    <path class="cls-6"
      d="m106.67,122.9c-.96-.11-1.71-.47-2.23-1.09-.53-.62-.76-1.3-.71-2.04l1.73.2c.02.38.16.69.41.92.26.23.58.37.98.42.36.04.66,0,.9-.13.24-.13.38-.33.41-.59.05-.47-.29-.85-1.02-1.15l-.86-.36c-.67-.28-1.17-.65-1.52-1.11-.34-.47-.48-1.01-.42-1.64.09-.77.41-1.35.98-1.74.57-.39,1.28-.54,2.14-.44s1.54.44,2.02,1.02.7,1.21.66,1.89l-1.72-.19c-.05-.34-.18-.61-.39-.79-.21-.18-.46-.29-.75-.33-.32-.04-.59,0-.8.12-.22.12-.35.3-.38.54-.04.25.02.47.18.65s.41.34.77.48l.96.39c1.42.57,2.05,1.51,1.9,2.81-.08.73-.42,1.3-1.02,1.71-.6.41-1.33.57-2.21.47Z" />
  </g>
</svg>