<svg width="100" height="100" viewBox="0 0 100 100" fill="none" xmlns="http://www.w3.org/2000/svg">
<g clip-path="url(#clip0_32_293686)">
<path fill-rule="evenodd" clip-rule="evenodd" d="M48.5022 100H69.9371C72.5022 100 73.7466 97.5619 73.6895 92.7492V35.7524C73.6895 34.127 70.5657 27.6889 64.3117 16.5016V10.4381H32.3117V16.5016C26.1212 27.6889 22.9974 34.127 22.9339 35.7524V92.7492C22.8704 97.5619 24.1212 100 26.6863 100H48.1212C48.1212 100 48.2482 100 48.4958 100H48.5022Z" fill="#271F24"/>
<path fill-rule="evenodd" clip-rule="evenodd" d="M48.4387 93.6254H63.4356C65.2451 93.6254 66.1213 91.4349 66.0578 87.1238V35.9365C66.0578 34.4381 63.8673 28.6857 59.4927 18.6222V13.1238H34.4959V18.6222C29.1181 28.6857 26.4324 34.4317 26.4324 35.9365V87.1238C26.3689 91.4349 27.4292 93.6254 29.6832 93.6254H48.4324H48.4387Z" fill="#3C2223"/>
<path d="M32.75 0H63.6897C64.877 0 65.8167 0.939682 65.8167 2.12698V11.0032C65.8167 12.1905 64.877 13.1302 63.6897 13.1302H32.75C31.5627 13.1302 30.623 12.1905 30.623 11.0032V2.12698C30.623 1.00317 31.5627 0 32.75 0Z" fill="#CC1C19"/>
<path d="M33.3723 1.25079H60.3755C61.2517 1.25079 61.9374 1.93651 61.9374 2.8127V8.12698C61.9374 9.00317 61.2517 9.68889 60.3755 9.68889H33.3723C32.4961 9.68889 31.8104 9.00317 31.8104 8.12698V2.8127C31.7469 1.93651 32.4961 1.25079 33.3723 1.25079Z" fill="#F4000B"/>
<path d="M73.6891 47.873H35.1875V83.3079H73.6256V47.873H73.6891Z" fill="#F4000B"/>
<path d="M73.6883 47.873H64.3105V83.3079H73.6883V47.873Z" fill="#CC1C19"/>
<path d="M37.3145 16.6222V21.1238L29.1875 37.6889L29.6891 87.1238" stroke="black"/>
<path d="M75.3713 56.2476C75.3713 56.7492 74.8062 57.5619 73.6824 58.5587C71.6189 60.4952 69.4919 61.4349 67.4348 61.4349C66.8697 61.4349 66.3744 61.3714 65.9998 61.3079C65.5617 61.2444 64.8125 60.8698 63.7522 60.2476C60.4379 58.3111 58.3173 57.3079 57.3141 57.3079C56.8125 57.3079 56.5649 57.4349 56.5649 57.619C56.5649 57.746 56.5649 57.8667 56.6284 58.0571C56.6919 58.2476 56.6919 58.4317 56.6919 58.4952C56.6919 59.746 56.2538 60.8698 55.4411 61.9937C54.5014 63.181 53.4411 63.746 52.2538 63.746L51.257 63.5556L50.8824 62.6794C50.8824 61.6825 51.384 60.5524 52.3173 59.3651C53.257 58.2413 54.1903 57.4921 55.1935 57.1175C54.8824 56.9905 54.6284 56.927 54.5078 56.927C53.0094 56.927 51.257 57.9873 49.384 60.1143C48.0062 61.6762 46.7617 63.4286 45.7586 65.3016C44.5713 67.5492 43.949 69.3016 43.949 70.6159C43.949 72.3048 44.5713 73.181 45.8855 73.181C47.1998 73.181 48.3236 72.4952 49.4474 71.1175C50.5078 69.8032 51.0094 68.4952 51.0094 67.181C51.0094 66.9905 50.9459 66.8063 50.7617 66.6159C50.6348 66.4254 50.4506 66.3048 50.2602 66.3048C50.0125 66.3048 49.5744 66.6159 49.0094 67.181H48.9459C48.7554 67.4921 48.4443 68.1778 48.1332 69.3079C47.6951 69.4984 47.3205 69.746 46.8824 70.0571L45.6951 70.8698H45.6316C45.5681 70.6794 45.5681 70.5587 45.5681 70.4952C45.5681 69.181 45.9427 67.9937 46.6284 66.9333C47.4411 65.746 48.4379 65.181 49.6887 65.181C50.9395 65.181 51.6252 65.8032 51.6252 66.9905C51.6252 68.8635 50.9395 70.5524 49.4982 72.1778C47.9998 73.8667 46.3744 74.6794 44.5586 74.6794C41.9363 74.6794 40.6855 73.5556 40.6855 71.2444C40.6855 69.181 41.4982 66.8064 43.1236 64.2476C44.5586 62 46.184 60.1206 48.0633 58.6222C50.2538 56.8127 52.3744 55.9365 54.2538 55.9365C54.9395 55.9365 55.5681 56.1841 56.0633 56.6222C57.003 56.1841 57.9998 56 59.0665 56C60.0633 56.0635 61.13 56.3746 62.3173 56.9397C62.6284 57.1302 63.5681 57.6254 65.0665 58.5651C66.0062 59.1302 66.7554 59.4413 67.1935 59.4413H67.6316C69.13 59.4413 70.4443 59.1302 71.6316 58.5016C72.2538 58.1905 73.384 57.3778 75.0094 56.0635H75.1363L75.384 56.254L75.3713 56.2476ZM55.7459 58.6222C55.7459 58.5587 55.7459 58.3746 55.6824 58.1841C55.6189 57.9937 55.6189 57.8095 55.6824 57.746C53.9935 58.4317 52.7427 59.8095 51.9935 61.8095C51.8665 62.1206 51.803 62.3111 51.803 62.4952C51.803 62.8698 51.9935 63.0603 52.4252 63.0603C53.3014 63.0603 54.0506 62.4952 54.7363 61.4349C55.4221 60.4952 55.7395 59.5619 55.7395 58.6222H55.7459Z" fill="white"/>
<path d="M60.0639 69.1238C60.0639 69.3143 59.8162 69.4984 59.3781 69.5619C59.0035 69.6889 58.6924 69.6889 58.3813 69.6889H57.8162C57.194 70.8762 56.4385 71.9365 55.6258 72.8762C54.4385 74.1905 53.3781 74.8127 52.4385 74.8127C51.1242 74.8127 50.502 74.2476 50.502 73.0603C50.502 71.6254 51.1877 70 52.6289 68.1841C54.0702 66.3683 55.5686 65.4349 57.0035 65.4349C58.1273 65.4349 58.6924 65.9365 58.6924 66.9968C58.6924 67.3079 58.502 67.9937 58.1274 68.9968C58.3178 69.0603 58.4385 69.0603 58.5654 69.0603C58.6924 69.0603 58.8766 69.0603 59.1305 68.9968C59.3845 68.9333 59.5686 68.9333 59.6956 68.9333C60.0067 68.9968 60.0702 69.0603 60.0702 69.1238H60.0639ZM57.1242 69.5619C56.248 69.4349 55.5623 68.9968 55.1877 68.2476C54.94 68.5587 54.502 69.2444 53.9369 70.3746C53.8734 70.5651 53.7464 70.8762 53.5623 71.3714C53.3718 71.8095 53.2512 72.1841 53.2512 72.4317C53.2512 72.7429 53.4416 72.9333 53.7527 72.9333C54.8766 72.9333 56.0004 71.8095 57.1305 69.5556L57.1242 69.5619ZM58.0004 67.1873C58.0004 66.6222 57.8099 66.3746 57.3781 66.3746C57.067 66.3746 56.6924 66.5016 56.3178 66.8127C55.9432 67.1238 55.7527 67.4349 55.7527 67.6889C55.7527 68 55.9432 68.3111 56.2543 68.5651C56.5654 68.819 56.94 68.9397 57.2512 68.9397H57.3781C57.5051 68.9397 57.6893 68.6921 57.8162 68.127C57.9432 67.8159 58.0067 67.4413 58.0067 67.1873H58.0004Z" fill="white"/>
<path d="M66.8131 66.7492C66.8131 67.2508 66.6226 67.6889 66.3115 68.1841C65.9369 68.7492 65.4988 68.9968 65.0607 68.9968C64.9972 68.9968 64.8131 68.9333 64.6226 68.7492C64.5591 68.5587 64.4956 68.4381 64.4956 68.3111C64.4956 67.9365 64.6861 67.5619 64.9972 67.2508C65.3718 66.9397 65.6829 66.8127 66.0575 66.8762C66.0575 66.6286 65.8099 66.4381 65.3718 66.4381C64.5591 66.4381 63.6829 67.3143 62.5591 69.1238C61.5623 70.8127 61.0607 72.0635 61.0607 72.9333C61.0607 73.3079 61.1877 73.4984 61.4988 73.4984C62.1845 73.4984 62.8766 73.1873 63.5623 72.6222C63.8734 72.3746 64.375 71.8095 65.1242 70.9968C65.6258 70.4317 66.0004 70.1206 66.1845 70.1206C66.248 70.1206 66.3115 70.1841 66.3115 70.2476C66.3115 70.4381 65.8099 71.1238 64.8131 72.3746C63.4353 74.127 62.0004 74.9968 60.5654 74.9968C59.1305 74.9968 58.502 74.3746 58.502 73.0603C58.502 72.6222 58.6289 72 58.8766 71.1873C59.1242 70.4381 59.3781 69.873 59.6258 69.4349C61.3147 66.7492 63.1877 65.3714 65.1877 65.3714C65.5623 65.3714 65.8734 65.4984 66.1845 65.746C66.6861 66.0571 66.8067 66.3683 66.8067 66.7429L66.8131 66.7492Z" fill="white"/>
<path d="M76.2467 65.4349C75.9991 66.3746 75.434 67.5619 74.4371 68.9968C73.4403 70.5587 72.7483 71.746 72.5006 72.4952L72.7483 72.6222C73.3705 72.4317 73.9356 71.9365 74.5006 71.1873C75.0657 70.3746 75.3768 70 75.4403 70H75.5673C75.6308 70.0635 75.6943 70.1905 75.6943 70.2476C75.6943 70.9333 75.1292 71.873 74.0054 72.9968C72.8816 74.1841 71.9419 74.7492 71.2562 74.7492C70.7546 74.7492 70.38 74.6222 70.1959 74.3746C70.1324 74.3111 70.0054 73.9365 69.7578 73.3143C69.1927 74.3111 68.4435 74.7492 67.5102 74.7492C67.0721 74.7492 66.6975 74.5587 66.3864 74.1841C66.0752 73.8095 65.8848 73.3714 65.8848 72.9333C65.8848 71.6825 66.6975 70.0571 68.3229 68.1841C69.9483 66.3111 71.3832 65.3079 72.634 65.3079C72.761 65.3079 73.0086 65.3714 73.3197 65.5556C73.6308 65.7397 73.8848 65.8032 74.0054 65.8032C74.1324 65.7397 74.1324 65.6762 74.1959 65.4921C74.3864 65.3651 74.6975 65.3016 75.1927 65.3016C75.6308 65.3651 76.0054 65.3651 76.253 65.4286L76.2467 65.4349ZM73.434 66.6222C73.3705 66.4317 73.2435 66.3111 72.9959 66.3111C72.7483 66.3111 72.4943 66.4381 72.2467 66.6222C71.434 67.3079 70.6848 68.1841 69.9356 69.2444C69.0594 70.4952 68.6848 71.5556 68.6848 72.4318C68.6848 72.7429 68.8118 72.9333 69.1229 72.9333C69.4975 72.9333 70.3102 71.9937 71.4975 70.1841C72.5578 68.4952 73.1864 67.3079 73.434 66.6222Z" fill="white"/>
</g>
<defs>
<clipPath id="clip0_32_293686">
<rect width="100" height="100" fill="white"/>
</clipPath>
</defs>
</svg>
