<svg width="100" height="100" viewBox="0 0 100 100" fill="none" xmlns="http://www.w3.org/2000/svg">
<g clip-path="url(#clip0_32_293829)">
<path fill-rule="evenodd" clip-rule="evenodd" d="M49.7532 100H71.1881C73.7532 100 74.9976 97.5619 74.9405 92.7492V35.7524C74.9405 34.127 71.8167 27.6889 65.5627 16.5016V10.4381H33.4992V16.5016C27.3087 27.6889 24.1849 34.127 24.1214 35.7524V92.7492C24.0579 97.5619 25.3087 100 27.8738 100H49.7468H49.7532Z" fill="#BF303B"/>
<path fill-rule="evenodd" clip-rule="evenodd" d="M49.6951 93.5619H64.6919C66.5014 93.5619 67.3776 91.3714 67.3141 87.0603V35.873C67.3141 34.3746 65.1236 28.6222 60.749 18.5587V13.1238H35.7459V18.6222C30.3681 28.6857 27.6824 34.4317 27.6824 35.9365V87.1238C27.6189 91.4349 28.6855 93.6254 30.9332 93.6254H49.3713C49.4347 93.5619 49.4982 93.5619 49.6824 93.5619H49.6951Z" fill="#CE3340"/>
<path d="M34.0059 0H64.9456C66.1329 0 67.0726 0.939682 67.0726 2.12698V11.0032C67.0726 12.1905 66.1329 13.1302 64.9456 13.1302H34.0059C32.8186 13.1302 31.8789 12.1905 31.8789 11.0032V2.12698C31.8789 0.939682 32.8186 0 34.0059 0Z" fill="#37832E"/>
<path d="M34.5658 1.1873H61.569C62.4452 1.1873 63.1309 1.87302 63.1309 2.74921V8.12698C63.1309 9.00318 62.4452 9.68889 61.569 9.68889H34.5658C33.6896 9.68889 33.0039 9.00318 33.0039 8.12698V2.74921C33.0039 1.87302 33.6896 1.1873 34.5658 1.1873Z" fill="#3D9624"/>
<path d="M74.8834 47.8095H36.4453V83.3079H74.8834V47.8095Z" fill="#3D9624"/>
<path d="M74.8817 47.8095H65.5039V83.3079H74.8817V47.8095Z" fill="#37832E"/>
<path d="M38.5645 16.6222V21.1238L30.4375 37.6889L30.9391 87.1238" stroke="black"/>
<path d="M43.752 72V61.6254C43.752 61.1873 43.9424 60.4381 44.8758 60.5016C46.3107 60.5651 47.752 60.5016 49.1869 60.5016C49.8726 60.5016 50.19 61.3143 49.752 61.7524C49.625 61.8794 49.4408 61.9429 49.2504 61.9429H45.2504V65.8159H48.19C48.8123 65.8159 49.1932 66.6286 48.6916 67.0667C48.5647 67.1937 48.3805 67.3143 48.19 67.3143H45.2504V72C45.2504 73.0032 43.752 73.0032 43.752 72Z" fill="white"/>
<path d="M50.4434 71.8095V63.3714C50.4434 62.3746 51.9418 62.3746 51.9418 63.3714V64.1841C52.564 63.6825 53.3196 63.3714 54.1323 63.3079C54.818 63.2444 55.6307 63.4984 56.1957 63.9302C56.9449 64.5524 57.3196 65.619 57.1354 66.6159C56.9449 67.4921 55.7005 67.3651 55.7005 66.4889C55.7005 66.4254 55.7005 66.2413 55.764 66.1778C55.764 65.7397 55.5735 65.2381 55.2624 64.9905C55.0719 64.8635 54.7608 64.7429 54.5132 64.7429C54.2021 64.7429 53.8275 64.8063 53.51 64.9333C52.9449 65.181 52.3862 65.6825 52.1323 66.3111C52.0688 66.3746 52.0053 66.6222 52.0053 66.6857V71.8095C51.9418 72.8064 50.4434 72.8064 50.4434 71.8095Z" fill="white"/>
<path d="M58.9447 71.5619C58.5701 71.4984 58.259 71.3143 58.005 71.1238C57.6304 70.7492 57.3828 70.2476 57.3193 69.6889C57.2558 69.3143 57.3193 68.8762 57.3828 68.5016C57.5732 67.5048 58.0685 66.5651 58.697 65.8159C59.3828 64.8762 60.3224 64.0635 61.4463 63.6254C61.9478 63.4349 62.5066 63.3143 63.0716 63.3778C63.5732 63.4413 64.0113 63.6889 64.3224 64.0635C64.3859 64.127 64.4494 64.254 64.5129 64.254C64.5764 64.254 64.951 64.381 65.0145 64.4444C65.3891 64.6349 65.5161 65.0667 65.2621 65.4413C65.2621 65.5048 65.1986 65.5683 65.1986 65.5683C65.3256 66.3809 65.3891 67.1937 65.5732 67.9429C65.6367 68.254 66.0748 69.7524 66.1955 70.0698C66.259 70.1968 66.4431 70.2603 66.5701 70.4444C67.0717 71.0095 66.4431 71.8794 65.7574 71.6317C65.6304 71.5683 65.1923 71.2571 65.1351 71.1302C64.8875 70.7556 64.7605 70.3175 64.6336 69.9429C64.4431 69.4413 64.259 68.8825 64.1955 68.3809C63.6304 69.3206 62.8812 70.254 62.005 70.8825C61.5669 71.1936 61.1288 71.4476 60.6272 71.6317C59.9415 71.6317 59.3764 71.6952 58.9383 71.5683L58.9447 71.5619ZM59.6304 70.127C60.1955 70 60.6907 69.6889 61.1288 69.3778C61.751 68.8762 62.2526 68.254 62.6907 67.5683C62.9383 67.1302 63.1288 66.7556 63.1923 66.254C63.2558 66.0063 63.3193 65.6889 63.2558 65.4413C63.2558 65.2508 63.1923 65.1302 63.0653 65.0032C62.8177 64.7556 62.1891 64.8762 61.878 65.0032C61.4399 65.1936 61.0018 65.5048 60.6272 65.8159C59.878 66.4381 59.3129 67.3143 58.9383 68.1905C58.7478 68.6921 58.5637 69.6254 58.9383 69.9429C59.1288 70.1333 59.3764 70.1905 59.624 70.1333L59.6304 70.127Z" fill="white"/>
<path d="M67.1289 72.0635V64.5651C67.1289 63.8794 67.9416 63.5683 68.3797 64C68.5067 64.127 68.5702 64.3111 68.5702 64.5016V72C68.6337 73.0603 67.1353 73.0603 67.1353 72.0635H67.1289ZM67.8146 62.127C67.7511 62.127 67.6241 61.9365 67.567 61.8794C67.1289 61.3143 67.694 60.4444 68.3797 60.6921C68.6908 60.8191 69.0019 61.2572 69.0019 61.5683C69.0019 62.1905 68.3162 62.5079 67.8146 62.1333V62.127Z" fill="white"/>
<path d="M72.7556 72.3746C71.8159 72.3746 70.9461 72 70.1334 71.6254C69.9429 71.4984 69.7588 71.4349 69.6953 71.2508C69.2572 70.5016 70.2604 69.7524 70.8826 70.3111C70.9461 70.3111 71.0096 70.4381 71.0096 70.4381C71.5112 70.6857 72.0699 70.8762 72.635 70.9397C73.1366 71.0032 73.6953 70.8762 74.0699 70.5651C74.1334 70.5016 74.2604 70.3746 74.1969 70.3175C74.0064 70.0698 73.8223 69.9429 73.5747 69.7524C73.0096 69.3143 72.3874 68.9397 71.8858 68.5016C71.2636 67.9365 70.6985 67.3143 70.3874 66.5016C69.9493 65.4413 69.9493 64.127 70.4509 63.1873C71.2001 61.6889 73.6382 61.3143 74.8255 62.6857C75.2001 63.1238 75.3906 63.746 75.7652 64.6222C75.8286 64.7492 75.8286 64.8127 75.8921 64.8698C76.1398 65.5556 75.3271 66.1841 74.7048 65.6825C74.5779 65.5556 74.4572 65.3714 74.3937 65.181C74.2667 64.8698 74.2033 64.5587 74.0826 64.2413C73.4604 62.7429 71.8921 62.6794 71.581 64.4889C71.5175 64.7365 71.581 65.054 71.581 65.3016C71.6445 65.8032 71.8286 66.2413 72.0826 66.6159C72.7683 67.4921 73.7715 68.0508 74.6477 68.7429C74.9588 68.9905 75.2128 69.2444 75.4604 69.5556C75.6509 69.8667 75.708 70.2413 75.6509 70.6159C75.4604 71.7397 73.8985 72.3683 72.7747 72.3683L72.7556 72.3746Z" fill="white"/>
</g>
<defs>
<clipPath id="clip0_32_293829">
<rect width="100" height="100" fill="white"/>
</clipPath>
</defs>
</svg>
