<svg width="1134" height="1854" viewBox="0 0 1134 1854" fill="none" xmlns="http://www.w3.org/2000/svg">
<g filter="url(#filter0_d_1356_90689)">
<path d="M979.013 409.051C976.61 490.141 986.756 570.696 985.421 651.785C983.685 756.52 981.149 861.122 978.345 965.991C975.275 1083.42 971.803 1200.71 967.932 1318.27C964.861 1412.85 963.526 1507.7 953.647 1602.02C951.377 1622.86 947.238 1643.7 942.165 1664C934.822 1693.66 915.998 1709.02 885.292 1711.29C802.518 1717.71 720.545 1709.42 638.706 1697.27C614.008 1693.53 589.309 1690.72 564.611 1686.71C540.313 1682.84 533.904 1675.22 532.035 1650.38C527.229 1589.86 534.839 1529.74 539.244 1469.63C546.32 1373.04 554.331 1276.59 562.475 1180.14C572.487 1064.31 583.168 948.49 593.314 832.667C598.388 773.754 603.461 714.573 608 655.526C609.202 641.232 610.403 626.804 611.471 612.376C612.806 593.673 612.272 574.837 612.139 555.867C612.005 548.386 613.741 539.436 604.662 535.428C594.649 531.153 587.841 538.1 581.699 544.245C566.48 559.608 551.661 575.371 536.441 590.734C461.277 666.881 388.516 745.299 320.562 827.991C300.403 852.572 289.455 854.042 263.421 835.606C208.417 796.731 160.355 749.974 114.562 700.947C95.7382 680.641 91.0655 658.331 104.55 632.415C125.643 591.002 154.748 555.466 183.852 519.931C238.456 453.804 293.327 387.543 349.399 322.618C407.341 255.689 464.748 188.226 533.103 130.915C554.464 113.014 577.427 101.926 601.859 96.0481C621.217 91.506 641.777 90.0365 663.004 91.506C736.7 96.1817 809.594 107.27 882.354 118.759C898.776 121.297 914.796 125.304 931.218 128.778C951.11 132.786 960.989 145.076 963.393 165.382C972.738 246.338 982.083 327.294 978.746 409.051H979.013Z" fill="#FDC74D"/>
<path d="M1064.46 656.194C1063.52 576.574 1060.72 496.82 1058.58 416.933C1056.98 354.546 1056.98 291.892 1052.57 229.372C1048.3 169.256 994.365 92.5747 919.201 83.2234C839.766 73.6048 760.597 60.9137 680.226 56.5052C650.187 54.9021 621.617 57.0396 594.382 63.9863C565.812 71.3338 538.71 84.1585 513.077 103.396C449.795 150.553 398.529 209.333 347.263 267.979C301.337 320.614 257.28 374.718 211.22 427.086C163.292 481.724 118.3 538.5 82.12 602.09C48.2095 661.805 57.5549 718.714 92.934 772.818C128.847 827.991 181.982 865.13 237.521 897.859C289.722 928.585 311.616 924.577 355.406 882.764C413.882 826.789 466.617 765.204 520.687 705.088C538.042 685.851 554.998 666.079 575.023 643.102C575.023 648.312 575.157 651.117 575.157 652.988C575.157 653.923 575.157 654.591 575.023 655.392C563.809 774.021 552.327 892.649 541.113 1011.14C526.294 1169.58 511.608 1327.89 499.726 1486.59C496.255 1534.55 491.716 1582.78 493.585 1631.01C494.786 1661.6 496.656 1693.12 519.085 1716.77C547.788 1746.69 583.034 1764.73 625.355 1769.94C668.878 1775.15 712.668 1775.02 756.324 1778.22C802.117 1781.43 848.176 1783.7 893.702 1774.48C930.549 1767 959.654 1749.77 977.544 1715.7C993.297 1685.51 1003.84 1653.45 1009.32 1619.78C1037.62 1443.84 1046.03 1265.9 1054.98 1088.23C1058.98 1009.14 1051.51 929.921 1061.39 850.835C1069.4 786.311 1065.12 721.252 1064.46 656.461V656.194ZM985.287 651.785C983.551 756.52 981.015 861.122 978.211 965.991C975.14 1083.42 971.669 1200.71 967.798 1318.27C964.727 1412.85 963.392 1507.7 953.512 1602.02C951.243 1622.86 947.104 1643.7 942.031 1664C934.688 1693.66 915.864 1709.02 885.158 1711.29C802.384 1717.71 720.411 1709.42 638.572 1697.27C613.874 1693.53 589.175 1690.72 564.477 1686.71C540.178 1682.84 533.77 1675.22 531.901 1650.38C527.095 1589.86 534.705 1529.74 539.11 1469.63C546.186 1373.04 554.197 1276.59 562.34 1180.14C572.353 1064.31 583.034 948.49 593.18 832.667C598.253 773.754 603.327 714.573 607.866 655.526C609.067 641.232 610.269 626.804 611.337 612.376C612.672 593.673 612.138 574.837 612.005 555.867C611.871 548.386 613.607 539.436 604.528 535.428C594.515 531.153 587.707 538.1 581.565 544.245C566.346 559.608 551.526 575.371 536.307 590.734C461.143 666.881 388.382 745.299 320.428 827.991C300.269 852.572 289.321 854.042 263.287 835.606C208.283 796.731 160.221 749.974 114.428 700.947C95.6041 680.641 90.9314 658.331 104.415 632.415C125.509 591.002 154.614 555.466 183.718 519.931C238.322 453.804 293.193 387.543 349.265 322.618C407.207 255.689 464.614 188.226 532.969 130.915C554.33 113.014 577.293 101.926 601.725 96.0481C621.083 91.506 641.643 90.0365 662.87 91.506C736.566 96.1816 809.46 107.27 882.22 118.758C898.642 121.297 914.662 125.304 931.083 128.778C950.976 132.785 960.855 145.076 963.258 165.382C972.604 246.338 981.949 327.294 978.612 409.051C976.208 490.141 986.355 570.696 985.02 651.785H985.287Z" fill="#231333"/>
</g>
<defs>
<filter id="filter0_d_1356_90689" x="0" y="0" width="1133.19" height="1853.03" filterUnits="userSpaceOnUse" color-interpolation-filters="sRGB">
<feFlood flood-opacity="0" result="BackgroundImageFix"/>
<feColorMatrix in="SourceAlpha" type="matrix" values="0 0 0 0 0 0 0 0 0 0 0 0 0 0 0 0 0 0 127 0" result="hardAlpha"/>
<feOffset dx="3" dy="8"/>
<feGaussianBlur stdDeviation="32"/>
<feComposite in2="hardAlpha" operator="out"/>
<feColorMatrix type="matrix" values="0 0 0 0 0 0 0 0 0 0 0 0 0 0 0 0 0 0 0.75 0"/>
<feBlend mode="normal" in2="BackgroundImageFix" result="effect1_dropShadow_1356_90689"/>
<feBlend mode="normal" in="SourceGraphic" in2="effect1_dropShadow_1356_90689" result="shape"/>
</filter>
</defs>
</svg>
