<svg width="101" height="101" viewBox="0 0 101 101" fill="none" xmlns="http://www.w3.org/2000/svg">
<g clip-path="url(#clip0_280_2808)">
<ellipse cx="50.6997" cy="53" rx="30" ry="10" fill="url(#paint0_linear_280_2808)"/>
<path d="M100.192 58.9198C100.516 59.2055 100.44 59.5864 100.44 59.942C100.427 64.742 100.528 69.542 100.357 74.3293C100.186 79.2436 98.484 83.7007 95.5252 87.6245C91.5633 92.888 86.2681 95.9864 79.83 97.288C76.2173 98.0182 72.5919 98.6848 68.9347 99.1293C66.5284 99.4214 64.0966 99.5928 61.6712 99.7642C56.6046 100.126 51.5379 100.285 46.4649 100.132C43.1887 100.037 39.9125 99.8721 36.6427 99.5356C33.7411 99.2372 30.8395 98.9642 27.9633 98.4817C23.7665 97.7833 19.5443 97.0975 15.576 95.5102C10.249 93.3769 6.25537 89.7071 3.56331 84.6277C1.68395 81.0848 0.795057 77.3071 0.8522 73.2817C0.890295 70.596 0.864898 67.9166 0.8522 65.2309C0.8522 64.4245 0.756962 63.6118 0.712517 62.8118C0.623628 60.9896 0.8522 59.1801 1.79823 57.542C2.10299 57.8214 2.48395 57.7261 2.8395 57.7388C4.28077 57.8087 5.41093 58.4626 6.19823 59.6436C6.68712 60.3864 7.06172 61.1991 7.25855 62.088C7.6649 63.942 7.46807 65.8087 7.46172 67.6753C7.46172 69.015 7.17601 70.3356 7.2522 71.6817C7.29664 72.4753 7.38553 72.5198 8.12204 72.1388C8.77601 71.8023 9.32839 71.3198 9.89982 70.8626C10.6617 70.2531 11.3728 69.5801 12.1792 69.0404C14.0585 67.7896 15.7601 68.0055 17.3093 69.6245C18.2808 70.6404 18.8649 71.8975 19.43 73.161C20.2554 75.015 21.0109 76.9007 22.122 78.615C22.7506 79.5864 23.5316 80.3991 24.6109 80.8753C26.7189 81.8087 28.376 81.142 29.2014 79.0023C29.7284 77.6436 30.1728 76.2468 30.649 74.869C31.049 73.7134 31.5697 72.6214 32.2935 71.6245C35.0046 67.9166 40.503 67.9102 43.1506 70.6214C44.2046 71.6944 44.8205 72.996 45.2585 74.4118C45.7411 75.961 46.0776 77.5547 46.7062 79.0531C47.0681 79.9102 47.6141 80.5706 48.5093 80.9261C51.1633 81.9801 54.4078 80.8309 55.7157 78.2912C56.2744 77.2118 56.7125 76.069 57.1887 74.9515C57.722 73.7134 58.3189 72.5261 59.322 71.5864C61.2522 69.7769 64.8839 69.2309 67.0554 72.3864C67.7601 73.4087 68.1728 74.5515 68.4459 75.7388C68.8839 77.6372 69.2522 79.5483 69.6776 81.4404C69.9697 82.742 70.2427 84.0626 70.8712 85.2626C71.322 86.1198 71.957 86.615 72.9982 86.596C74.0078 86.5769 74.5665 86.0372 74.9474 85.2055C75.1633 84.7293 75.3601 84.2341 75.5125 83.7325C76.2046 81.4404 76.522 79.0595 76.9792 76.7166C77.4554 74.2912 77.9697 71.8785 79.1189 69.6372C80.3316 67.2817 82.1538 65.7515 84.7379 65.1991C86.8078 64.7547 88.6681 65.161 90.2109 66.7293C91.2839 67.8214 91.7982 69.1674 92.1284 70.6023C92.376 71.6944 92.5474 72.7991 92.7697 73.9991C93.9633 73.3642 94.3252 72.3483 94.5601 71.2817C94.8522 69.9356 94.922 68.5515 95.0046 67.1801C95.1062 65.3769 95.3982 63.6372 96.3379 62.0563C96.4586 61.8595 96.6681 61.6753 96.522 61.4023H96.5157C96.8332 61.4785 96.9093 61.1928 97.0554 61.0341C97.9062 60.1007 98.9157 59.3896 100.071 58.8817L100.173 58.9071L100.192 58.9198Z" fill="#F2C87B"/>
<path fill-rule="evenodd" clip-rule="evenodd" d="M97.3427 62.8909C97.415 62.7552 97.4915 62.6117 97.6398 62.4299C97.7348 62.3854 97.797 62.2939 97.8578 62.2044C97.8897 62.1575 97.9212 62.1112 97.9569 62.0724C98.8076 61.139 99.8172 60.4216 100.973 59.92C100.957 59.7924 100.95 59.6372 100.942 59.4746C100.916 58.9144 100.885 58.2653 100.514 58.344C100.599 58.2877 100.679 58.2221 100.751 58.1422C99.5251 53.6279 96.8394 50.2375 92.6489 48.193C86.9664 45.4248 80.8902 43.8629 74.668 42.8724C74.7017 42.9969 74.7094 43.1069 74.6972 43.2056L74.0326 43.1274C74.1677 43.0663 74.1381 42.9779 74.1092 42.8913C74.0895 42.8324 74.07 42.7743 74.1029 42.7263C70.268 42.1359 66.414 41.7041 62.541 41.3994C60.084 41.2085 57.6245 41.1605 55.164 41.1125C53.7777 41.0854 52.3911 41.0583 51.0045 41.0057C50.435 40.9847 49.8579 41.0253 49.2784 41.066C48.8047 41.0993 48.3293 41.1327 47.8553 41.1327C43.76 41.12 39.6711 41.2597 35.5822 41.5962C31.0172 41.9708 26.4838 42.5486 22.033 43.6343C17.9569 44.6311 14.0013 46.0025 10.4521 48.2882C6.62987 50.7517 3.03304 53.4248 1.69971 57.793C2.00447 58.0724 2.69971 58.5 3.74098 58.7581C5.18225 58.8216 6.31241 59.4819 7.09971 60.6629C7.5886 61.4057 7.9632 62.2184 8.16002 63.1073C8.46881 64.5161 8.42929 65.9323 8.38973 67.3502C8.37723 67.7982 8.36472 68.2464 8.3632 68.6946C8.36012 69.3434 8.04436 69.9758 7.72885 70.6076C7.39285 71.2806 7.05714 71.9529 7.09971 72.6438C7.14415 73.4311 8.28701 73.539 9.02352 73.1581C9.58735 72.8625 10.0757 72.4678 10.5658 72.0716C10.6441 72.0083 10.7225 71.9449 10.8013 71.8819C11.0545 71.6793 11.3021 71.4698 11.5494 71.2604C12.0463 70.8398 12.5423 70.42 13.0807 70.0597C14.9537 68.8089 16.6616 69.0311 18.2108 70.6438C19.1886 71.6597 19.7664 72.9168 20.3315 74.1803C20.4771 74.505 20.6204 74.8306 20.7637 75.1562C21.4385 76.6895 22.1122 78.2202 23.0235 79.6343C23.6521 80.6057 24.4394 81.4184 25.5124 81.8946C27.614 82.8279 29.2775 82.1613 30.1029 80.0216C30.4788 79.0405 30.8183 78.0395 31.1573 77.0402C31.2878 76.6556 31.4182 76.2712 31.5505 75.8882C31.9442 74.7263 32.4648 73.6406 33.1949 72.6438C35.9061 68.9359 41.3981 68.9295 44.0521 71.6406C45.1061 72.7136 45.7219 74.0216 46.16 75.4311C46.3821 76.1412 46.4159 76.8702 46.4496 77.597C46.4891 78.4492 46.5285 79.2983 46.8711 80.1105C47.233 80.974 48.5156 81.5898 49.4108 81.9454C52.0648 82.9994 55.3092 81.8438 56.6172 79.3105C57.0143 78.5345 57.3523 77.7257 57.6903 76.9171C57.8224 76.601 57.9545 76.2849 58.0902 75.9708C58.6172 74.7327 59.2203 73.5454 60.2235 72.6057C62.1537 70.7962 65.7854 70.2502 67.9568 73.4057C68.6616 74.4279 69.0743 75.5708 69.3473 76.7581C69.5654 77.7136 69.7672 78.6739 69.9692 79.635C70.1672 80.5771 70.3654 81.5199 70.5791 82.4597C70.5977 82.543 70.6162 82.6264 70.6347 82.7098C70.9066 83.9347 71.1783 85.1584 71.7727 86.2819C72.2235 87.139 72.8584 87.6343 73.8997 87.6152C74.9092 87.5898 75.468 87.0502 75.8489 86.2248C76.0648 85.7486 76.2616 85.2533 76.414 84.7517C76.9175 83.0795 77.2228 81.3669 77.5278 79.6555C77.642 79.0147 77.7561 78.3741 77.8807 77.7359C78.3568 75.3041 78.8711 72.8914 80.0203 70.6565C81.233 68.3009 83.0553 66.7771 85.6394 66.2184C87.7092 65.774 89.5696 66.1803 91.1124 67.7486C92.1854 68.8406 92.6997 70.1867 93.0299 71.6216C93.1525 72.1622 92.9896 72.4564 92.8208 72.7612C92.6486 73.0721 92.4703 73.3941 92.5825 74C94.0047 74 94.6997 73.4057 94.9664 72.6057C95.057 72.197 95.1722 71.7567 95.2908 71.3032C95.5629 70.2633 95.853 69.1544 95.9061 68.1994C96.0076 66.3962 96.2997 64.6565 97.2394 63.0756C97.2773 63.0137 97.3096 62.9531 97.3427 62.8909ZM82.1713 45.1572L80.4651 44.5885C80.5068 44.5485 80.5677 44.5194 80.6307 44.4892C80.6668 44.472 80.7036 44.4544 80.7378 44.4343V44.4279C80.8507 44.484 80.9637 44.5393 81.0764 44.5946C81.4472 44.7763 81.8158 44.9569 82.1713 45.1572ZM100.358 58.4355C100.355 58.4372 100.351 58.4389 100.348 58.4406C100.348 58.4419 100.349 58.4432 100.349 58.4445C100.352 58.4414 100.355 58.4384 100.358 58.4355ZM99.9248 58.986C99.7652 59.1559 99.6342 59.297 99.6902 59.2914C99.7797 59.1757 99.8572 59.0745 99.9248 58.986ZM99.5462 58.8145C99.5392 58.8189 99.5321 58.8234 99.5251 58.8279C99.5155 58.8343 99.5157 58.8342 99.5239 58.8289C99.5287 58.8258 99.5363 58.8209 99.5462 58.8145ZM56.3378 58.5613C54.3124 58.7263 52.287 58.7771 50.2616 58.7835V58.7771C45.5442 58.8343 40.8711 58.4406 36.2807 57.3041C34.1473 56.7771 32.0521 56.1549 30.3188 54.6882C29.2866 53.8119 29.7741 53.5893 30.6569 53.186C31.2133 52.932 31.9266 52.6062 32.5156 52C33.1133 51.3854 33.3055 50.5058 33.4884 49.6685C33.7193 48.6114 33.9356 47.6215 34.9346 47.3168C36.6125 46.8077 37.8576 47.6151 39.2298 48.5049C40.1164 49.0798 41.056 49.6892 42.1997 50C44.0394 50.5 46.587 50.627 48.1997 50.5C49.4057 50.4042 50.7636 49.5845 52.1275 48.7611C53.6576 47.8374 55.1953 46.9091 56.5346 46.993C57.1048 47.0291 57.5626 47.5304 58.0972 48.1158C58.3693 48.4138 58.6613 48.7335 58.9981 49.0248C60.3124 50.1613 61.1013 50.4343 62.5473 50.4216C63.8248 50.4104 64.709 49.7113 65.506 49.0811C66.3731 48.3955 67.1369 47.7915 68.1918 48.2438C69.2076 48.6819 70.141 49.2533 70.8394 50.1359C71.8934 51.4565 71.8489 52.9549 70.7315 54.2248C69.4997 55.6343 67.8235 56.2692 66.1156 56.7962C62.9283 57.7803 59.6648 58.2946 56.3378 58.5613Z" fill="#EC90C8"/>
<path d="M96.5407 61.4216C96.6867 61.6946 96.4772 61.8787 96.3566 62.0756C95.4169 63.6565 95.1248 65.3962 95.0232 67.1994C94.9471 68.5708 94.8772 69.9549 94.5788 71.3009C94.3439 72.3676 93.9947 73.9831 92.6997 74C92.4821 74.0028 91.9473 71.5921 91.6997 70.5C91.3695 69.0651 91.3026 67.8406 90.2296 66.7486C88.6867 65.1803 86.8264 64.774 84.7566 65.2184C82.1725 65.7771 80.3502 67.3009 79.1375 69.6565C77.9883 71.8914 77.474 74.3041 76.9978 76.7359C76.5407 79.0787 76.2232 81.4533 75.5312 83.7517C75.3788 84.2533 75.182 84.7486 74.9661 85.2248C74.5852 86.0502 74.0264 86.5898 73.0169 86.6152C71.9756 86.6343 71.3407 86.139 70.8899 85.2819C70.255 84.0819 69.9883 82.7676 69.6963 81.4597C69.2645 79.5613 68.8963 77.6502 68.4645 75.7581C68.1915 74.5708 67.7788 73.4279 67.074 72.4057C64.9026 69.2502 61.2709 69.7962 59.3407 71.6057C58.3375 72.5454 57.7344 73.7327 57.2074 74.9708C56.7248 76.0882 56.2867 77.2311 55.7344 78.3105C54.4264 80.8438 51.182 81.9994 48.528 80.9454C47.6328 80.5898 47.0867 79.9359 46.7248 79.0724C46.0899 77.5676 45.7597 75.974 45.2772 74.4311C44.8391 73.0216 44.2232 71.7136 43.1693 70.6406C40.5153 67.9295 35.0232 67.9359 32.3121 71.6438C31.582 72.6406 31.0613 73.7263 30.6677 74.8882C30.1915 76.266 29.7407 77.6629 29.2201 79.0216C28.3947 81.1613 26.7312 81.8279 24.6296 80.8946C23.5566 80.4184 22.7693 79.6057 22.1407 78.6343C21.0359 76.92 20.2804 75.0343 19.4486 73.1803C18.8836 71.9168 18.3058 70.6597 17.328 69.6438C15.7788 68.0311 14.0709 67.8089 12.1978 69.0597C11.3915 69.5994 10.6804 70.2724 9.91848 70.8819C9.34705 71.339 8.79467 71.8152 8.1407 72.1581C7.4042 72.539 7.31531 72.4882 7.27086 71.7009C7.18832 70.3613 7.47404 69.0343 7.48039 67.6946C7.48674 65.8279 7.68356 63.9613 7.27721 62.1073C7.08039 61.2184 6.70578 60.4057 6.21689 59.6629C5.42959 58.4819 4.29943 57.8216 2.85816 57.7581C2.50261 57.739 2.12166 57.8406 1.81689 57.5613C3.15023 53.193 5.74705 49.7517 9.56928 47.2882C13.1185 45.0025 17.074 43.6311 21.1502 42.6343C25.601 41.5486 30.1344 40.9708 34.6994 40.5962C38.7883 40.2597 42.8772 40.12 46.9725 40.1327C48.0264 40.1327 49.0867 39.9676 50.1217 40.0057C53.9693 40.1517 57.8169 40.1009 61.6582 40.3994C65.5312 40.7041 69.3851 41.1359 73.2201 41.7263C73.1375 41.847 73.3851 42.0311 73.1375 42.1327C72.909 42.2279 72.7058 42.3676 72.6232 42.6152C72.5725 42.7676 72.5407 42.9327 72.6804 43.066C72.8264 43.1994 72.9915 43.1422 73.1185 43.0406C73.4931 42.7422 73.9502 42.4819 73.7851 41.8724C80.0074 42.8629 86.0836 44.4248 91.7661 47.193C95.9566 49.2375 98.6423 52.6279 99.8677 57.1422C99.5375 57.5105 99.0359 57.574 98.6423 57.8279C98.5471 57.8914 98.4772 58.0057 98.528 58.1327C98.5788 58.2533 98.6804 58.3041 98.8074 58.2914C98.9661 58.2787 99.1185 58.2533 99.2709 58.2216C99.7492 58.12 100.022 58.3528 100.09 58.92C98.9344 59.4216 97.9248 60.139 97.074 61.0724C96.928 61.2311 96.8518 61.5168 96.5344 61.447C96.3947 61.2248 96.5979 60.8438 96.2296 60.7232C95.728 60.5581 95.2391 60.3422 94.6931 60.4311C94.5344 60.4565 94.3629 60.4882 94.3566 60.7041C94.3502 60.9136 94.5026 60.9581 94.6613 60.9962C95.2899 61.1422 95.9121 61.2946 96.5407 61.447V61.4216ZM49.3788 57.7835C51.4042 57.7771 53.4296 57.7263 55.455 57.5613C58.782 57.2946 62.0455 56.7803 65.2328 55.7962C66.9407 55.2692 68.6169 54.6343 69.8486 53.2248C70.9661 51.9549 71.0105 50.4565 69.9566 49.1359C69.2582 48.2533 68.3248 47.6819 67.309 47.2438C66.0351 46.6976 64.2765 49.6987 62.6296 49.6121C60.964 49.5244 60.4817 49.0495 59.3407 48.0248C58.1997 47 57.6142 46.4729 56.1534 46.3803C52.909 46.4248 50.4137 49.4089 47.855 49.6121C46.2423 49.739 44.001 49.4244 42.1997 48.7867C39.7026 47.9025 36.8137 45.4787 34.0518 46.3168C32.2613 46.8629 33.0521 50.1095 31.6997 51.5C30.1759 53.0683 27.7534 52.2597 29.4359 53.6882C31.1693 55.1549 33.2645 55.7771 35.3979 56.3041C39.9883 57.4406 44.6613 57.8343 49.3788 57.7771V57.7835ZM69.8359 67.4279C69.9248 67.3581 70.0074 67.3263 70.0455 67.2629C70.1407 67.0978 70.0772 66.92 69.9502 66.8248C69.0296 66.1644 68.1724 65.4152 67.0994 65.0025C66.9026 64.9263 66.6931 64.8438 66.5598 65.0597C66.4328 65.2692 66.5598 65.447 66.7629 65.5486C67.7407 66.0502 68.6296 66.6787 69.5312 67.3073C69.6201 67.3708 69.7407 67.3962 69.8359 67.4279ZM79.855 43.4343C79.7471 43.4978 79.6137 43.5359 79.5566 43.6184C79.4486 43.7835 79.5693 43.9422 79.6963 44.0248C80.5026 44.539 81.3852 44.939 82.1471 45.5295C82.2042 45.574 82.3947 45.5359 82.4645 45.4787C82.6613 45.3136 82.5852 45.0787 82.4391 44.9517C81.6772 44.2851 80.7629 43.8787 79.855 43.4279V43.4343ZM89.455 48.3295C89.3788 47.8152 87.7153 46.247 87.2137 46.2089C87.1121 46.2025 86.9725 46.266 86.9026 46.3422C86.8074 46.4438 86.8772 46.5835 86.9598 46.666C87.6264 47.3136 88.2931 47.9549 88.9725 48.5771C89.0359 48.6343 89.2137 48.647 89.2963 48.5962C89.3788 48.5454 89.4105 48.4057 89.455 48.3295ZM36.3756 62.1009C37.2645 61.6882 38.1344 61.2946 38.9978 60.8755C39.1312 60.8121 39.2455 60.6597 39.1629 60.4755C39.0867 60.3041 38.9407 60.2533 38.7693 60.3105C37.9312 60.5898 37.1185 60.939 36.382 61.4279C36.2042 61.5422 36.1915 61.7644 36.382 62.1009H36.3756ZM78.7566 58.7041C79.1947 58.7041 79.6391 58.7041 80.0772 58.7041C80.2423 58.7041 80.3947 58.6216 80.4074 58.4375C80.4201 58.2597 80.2931 58.1136 80.1407 58.0946C79.309 57.9803 78.4709 57.9676 77.6391 58.1009C77.4867 58.1263 77.3471 58.2597 77.3534 58.4375C77.3534 58.6216 77.5058 58.7041 77.6772 58.7041C78.0391 58.7105 78.3947 58.7041 78.7566 58.7041ZM72.7312 73.5549C71.9756 73.6946 71.1947 74.1263 70.3629 74.4184C70.2232 74.4692 70.1217 74.6343 70.1852 74.8184C70.2804 75.0914 70.4772 75.0216 70.674 74.9517C71.4677 74.6724 72.2677 74.393 73.055 74.1073C73.2201 74.0502 73.3217 73.9232 73.2518 73.739C73.182 73.5676 73.0296 73.5295 72.7312 73.5486V73.5549ZM60.8582 61.3962C61.0232 61.3644 61.2645 61.447 61.3471 61.1994C61.4359 60.9327 61.201 60.8438 61.0296 60.7803C60.3502 60.5517 59.6264 60.4375 59.0105 60.0438C58.8264 59.9295 58.6042 59.8914 58.4963 60.1136C58.3947 60.3168 58.5471 60.4819 58.7121 60.6152C59.3344 61.1168 60.1217 61.1549 60.8582 61.3962ZM20.2931 44.3676C20.1978 44.1771 20.0074 44.0502 19.8232 44.1771C19.1058 44.6533 18.5978 45.32 18.274 46.1136C18.2423 46.1962 18.3058 46.3549 18.3756 46.4248C18.509 46.5581 18.6804 46.5136 18.7883 46.3803C19.2709 45.7962 19.7471 45.2057 20.2232 44.6152C20.2677 44.5581 20.2677 44.4692 20.2931 44.3613V44.3676ZM87.1248 59.7581C87.8105 59.6502 88.4836 59.5486 89.1566 59.4343C89.3598 59.3962 89.5439 59.2946 89.4931 59.047C89.455 58.8756 89.2963 58.7613 89.1375 58.7803C88.2677 58.9136 87.3852 58.9644 86.5471 59.2438C86.4455 59.2755 86.3502 59.3771 86.401 59.5295C86.4391 59.6629 86.5407 59.7136 86.6613 59.7327C86.8201 59.7517 86.9788 59.7517 87.1312 59.7581H87.1248ZM87.5058 54.374C87.4867 54.6851 87.4042 54.9708 87.7471 55.0089C87.9947 55.0406 88.0836 54.793 88.1217 54.6152C88.2677 53.9105 88.401 53.2057 88.7121 52.5454C88.7947 52.3676 88.782 52.1073 88.5915 52.0121C88.382 51.9105 88.2233 52.0882 88.1217 52.2787C87.7534 52.9581 87.6518 53.72 87.4994 54.374H87.5058ZM84.1026 60.3041C84.0518 60.0692 83.9248 59.9803 83.6772 60.0692C82.8709 60.3613 82.3502 60.9327 82.0137 61.7073C81.9248 61.9105 81.8994 62.12 82.0899 62.247C82.382 62.4311 82.5344 62.1771 82.6296 61.9676C82.8836 61.3962 83.2518 60.9454 83.8296 60.6851C83.9883 60.6152 84.0645 60.4819 84.0963 60.3105L84.1026 60.3041ZM33.5756 60.12C33.5502 59.8787 33.4169 59.7517 33.182 59.7898C32.5344 59.8851 31.5312 61.0025 31.4994 61.6819C31.4994 61.7835 31.5566 61.9232 31.6328 61.993C31.7852 62.1327 31.9756 62.0248 32.0328 61.8978C32.3502 61.2248 32.8264 60.7041 33.4677 60.3232C33.5248 60.2914 33.5439 60.1898 33.582 60.12H33.5756ZM73.3344 70.5136C73.074 69.9613 73.1947 69.2184 73.0804 68.4946C73.0486 68.2851 73.0042 68.0311 72.7756 68.0438C72.4899 68.0565 72.3566 68.3295 72.4137 68.5771C72.5915 69.2946 72.5217 70.0311 72.655 70.7486C72.6994 70.9962 72.8137 71.2438 73.1312 71.1676C73.3915 71.1105 73.328 70.8629 73.3344 70.5136ZM51.6709 70.3867C51.7661 70.3295 51.8804 70.2787 51.9629 70.2025C52.4264 69.7517 52.8772 69.2946 53.3344 68.8375C53.455 68.7168 53.5502 68.5517 53.4486 68.4057C53.3217 68.2216 53.0677 68.1771 52.909 68.3232C52.382 68.8121 51.8804 69.3327 51.3915 69.8597C51.2899 69.9676 51.3217 70.1771 51.4423 70.3041C51.4867 70.3549 51.582 70.3613 51.6645 70.393L51.6709 70.3867ZM85.2074 53.3136C85.1502 52.939 84.8963 52.8502 84.6677 52.9136C84.0201 53.0914 83.3788 53.3073 82.7375 53.5359C82.5979 53.5867 82.4709 53.7454 82.5217 53.9232C82.5978 54.1835 82.8328 54.1581 83.0105 54.1073C83.6645 53.9232 84.3058 53.7136 84.9534 53.5041C85.0613 53.466 85.1439 53.3644 85.201 53.3136H85.2074ZM74.3439 76.7486C74.3439 77.0533 74.3312 77.3136 74.6105 77.4279C74.8074 77.5105 74.9407 77.3644 74.9788 77.2248C75.1629 76.4819 75.3344 75.7327 75.4867 74.9835C75.5185 74.8248 75.4359 74.666 75.2518 74.6152C75.0613 74.5581 74.9153 74.6724 74.8709 74.8184C74.674 75.4724 74.509 76.139 74.3439 76.7422V76.7486ZM71.7344 57.0279C72.2042 56.9327 72.7566 56.8311 73.2899 56.6978C73.4423 56.6597 73.5439 56.5136 73.5185 56.3295C73.4867 56.1263 73.309 56.0692 73.1629 56.0882C72.4963 56.1708 71.8296 56.266 71.1629 56.3867C71.0232 56.4121 70.8772 56.5581 70.9407 56.7422C70.9725 56.8375 71.0804 56.939 71.182 56.9708C71.328 57.0216 71.4931 57.0089 71.7344 57.0343V57.0279ZM71.2645 79.047C71.0359 79.0914 70.8645 79.2565 70.9788 79.4597C71.328 80.0502 71.874 80.4629 72.382 80.9009C72.5534 81.047 72.782 80.8883 72.7883 80.647C72.801 80.2978 71.6264 79.0978 71.2582 79.047H71.2645ZM22.2042 56.2597C22.8137 55.9676 23.4994 55.6502 24.1725 55.3073C24.2423 55.2692 24.2931 55.0978 24.2804 54.9962C24.255 54.793 24.0582 54.774 23.9121 54.8057C23.1502 54.9581 22.4963 55.3454 21.855 55.7517C21.7534 55.8152 21.6836 55.9232 21.728 56.0565C21.7915 56.247 21.9566 56.247 22.2105 56.266L22.2042 56.2597ZM49.0296 40.6533C48.9598 40.6914 48.8709 40.7105 48.8264 40.7676C48.6994 40.9136 48.7375 41.0851 48.8518 41.2057C49.3598 41.7263 49.8804 42.2406 50.401 42.7486C50.5217 42.8692 50.6867 42.92 50.8264 42.793C50.9788 42.666 50.928 42.4819 50.8582 42.3422C50.5026 41.6248 49.874 41.1676 49.2582 40.7041C49.201 40.6597 49.1058 40.666 49.0296 40.647V40.6533ZM68.5534 57.4406C67.3598 57.2057 66.0772 57.6311 65.2772 58.5009C66.528 58.5009 67.4613 58.0882 68.5534 57.4406ZM94.8455 54.2978C95.036 54.2597 95.1566 54.0819 95.055 53.8787C94.7185 53.2375 94.4137 52.5898 94.2677 51.8787C94.2359 51.72 94.0899 51.6121 93.9058 51.6438C93.6455 51.6882 93.5947 51.8978 93.6518 52.0946C93.855 52.7422 94.0772 53.3835 94.3058 54.0184C94.382 54.2279 94.5598 54.3168 94.8391 54.2914L94.8455 54.2978ZM17.2264 56.7994C17.2074 56.6406 17.1121 56.4755 16.9344 56.5327C16.3058 56.7549 15.6328 56.92 15.1756 57.4406C15.0105 57.6311 15.0169 57.8978 15.3344 57.9994C15.8931 58.1708 17.1439 57.3835 17.2264 56.793V56.7994ZM14.6931 48.7295C15.1058 48.5771 15.9185 48.9581 15.9312 48.4502C15.9502 47.7009 15.1248 48.0375 14.6613 48.0248C14.2486 48.0121 13.4804 47.7517 13.5058 48.4248C13.5248 48.9327 14.2677 48.5962 14.6867 48.7295H14.6931ZM11.0867 51.9295C11.0867 51.9295 11.0867 51.9041 11.0931 51.8914C11.1756 51.8978 11.2518 51.9105 11.3344 51.9105C11.5439 51.9105 11.7598 51.8787 11.7661 51.6184C11.7661 51.4406 11.5883 51.3771 11.4359 51.32C10.7947 51.0787 10.0772 51.193 9.43594 50.9263C9.26451 50.8565 9.01689 50.8946 8.97245 51.1549C8.92801 51.4089 9.14388 51.5105 9.32801 51.5549C9.91213 51.6946 10.5026 51.8025 11.0867 51.9232V51.9295ZM88.2423 63.3263C88.2423 63.2882 88.2613 63.2438 88.2423 63.2121C88.001 62.7232 87.4994 62.6406 87.055 62.4819C86.5661 62.3041 86.0963 62.374 85.709 62.7422C85.5566 62.8882 85.6328 63.1041 85.7979 63.1041C86.528 63.1041 87.2391 63.1168 87.8804 63.5486C87.9947 63.6248 88.1915 63.5232 88.2359 63.3263H88.2423ZM25.4613 50.139C25.5121 49.7327 24.5217 48.2851 24.1217 48.2279C23.8613 48.1898 23.7153 48.4121 23.8359 48.6025C24.1915 49.1803 24.5788 49.7454 25.0042 50.2787C25.1375 50.4502 25.3725 50.393 25.4613 50.1327V50.139ZM19.2963 60.5898C19.8613 60.4248 20.4328 60.266 21.0042 60.0882C21.1566 60.0438 21.2963 59.9295 21.2645 59.7454C21.2328 59.5613 21.0677 59.4914 20.909 59.4787C20.2423 59.4406 19.709 59.8914 19.074 59.9803C18.9153 59.9994 18.7693 60.139 18.8137 60.3168C18.8709 60.539 19.0677 60.5962 19.2963 60.5898ZM78.2105 56.0311C78.6359 55.9613 79.1121 55.8851 79.5883 55.8025C79.7661 55.7708 79.9121 55.6565 79.8931 55.4851C79.8677 55.2565 79.6518 55.1422 79.455 55.1549C79.0169 55.1803 78.5788 55.2692 78.1344 55.3263C77.8613 55.3581 77.5058 55.3073 77.5693 55.7454C77.6137 56.0692 77.9248 56.0057 78.2105 56.0375V56.0311ZM61.9502 64.774C62.0264 64.7359 62.1852 64.7041 62.2169 64.6279C62.4201 64.1009 62.6867 63.6121 63.055 63.1803C63.1566 63.066 63.1566 62.8755 63.0105 62.7486C62.8645 62.6216 62.6867 62.647 62.5724 62.7486C62.1344 63.174 61.7851 63.6629 61.6645 64.2724C61.6264 64.4629 61.6645 64.6787 61.9502 64.7676V64.774ZM84.2613 58.1898C84.4137 57.066 83.8423 56.4121 83.4931 55.6882C83.4423 55.5803 83.3026 55.5168 83.1883 55.593C83.0994 55.6502 82.9725 55.7898 82.9978 55.8533C83.2582 56.6406 83.4613 57.4787 84.2677 58.1962L84.2613 58.1898ZM67.7217 43.0914C67.4486 43.1359 67.309 43.2946 67.3788 43.5105C67.5756 44.1263 67.7978 44.7295 68.0328 45.3263C68.0899 45.466 68.2296 45.593 68.4201 45.4978C68.5788 45.4216 68.6804 45.2692 68.6296 45.1105C68.4264 44.5009 68.1978 43.8978 67.9629 43.2946C67.9248 43.1994 67.7915 43.1486 67.7217 43.0851V43.0914ZM91.2645 58.9517C91.1947 58.9771 91.1058 58.9898 91.0487 59.0343C90.8899 59.1549 90.9217 59.3327 90.9979 59.466C91.2709 59.9549 91.6328 60.3803 92.0264 60.774C92.1471 60.8946 92.3121 60.9581 92.4518 60.8628C92.6423 60.7359 92.674 60.52 92.5344 60.3422C92.1979 59.9041 91.8359 59.4787 91.4804 59.0597C91.4359 59.0089 91.3407 58.9962 91.2645 58.9644V58.9517ZM58.5788 68.539C59.2137 68.5136 59.8232 68.3041 60.4201 68.0502C60.5915 67.9803 60.6804 67.847 60.6169 67.6692C60.5534 67.4851 60.3756 67.4597 60.2169 67.4978C59.6328 67.6375 59.0486 67.8025 58.4645 67.9422C58.2677 67.993 58.0137 67.9994 58.0137 68.247C58.0137 68.6089 58.3439 68.4946 58.5725 68.539H58.5788ZM40.9344 42.8565C40.8645 42.2406 40.2677 41.9676 39.874 41.5486C39.7407 41.4025 39.5312 41.32 39.3471 41.4914C39.1502 41.6692 39.2455 41.8724 39.3788 42.0184C39.728 42.393 40.0899 42.7676 40.4772 43.1041C40.655 43.2565 40.8455 43.1676 40.9407 42.8565H40.9344ZM55.0867 43.0914C55.3153 43.047 55.6455 43.1613 55.6518 42.8121C55.6518 42.5454 55.4042 42.4438 55.1502 42.3994C54.6804 42.3232 54.2169 42.2216 53.7471 42.1581C53.5947 42.139 53.4296 42.2025 53.3788 42.3867C53.3217 42.5835 53.4613 42.7168 53.5947 42.7549C54.0899 42.8946 54.5725 43.0851 55.0867 43.0914ZM30.1471 44.9898C30.1471 44.6279 29.1312 43.4724 28.7375 43.4216C28.4709 43.3898 28.3312 43.6184 28.4518 43.7962C28.801 44.3295 29.1566 44.8756 29.709 45.2248C29.9185 45.3581 30.0836 45.2121 30.1407 44.9898H30.1471ZM64.0518 68.3549C63.8994 67.8724 63.728 67.2946 63.5248 66.7295C63.474 66.5835 63.3153 66.4819 63.1248 66.5581C62.9471 66.6279 62.9026 66.774 62.9471 66.9454C63.0994 67.4851 63.2455 68.0311 63.4169 68.5708C63.4804 68.7613 63.601 68.9581 63.855 68.8628C64.0264 68.7994 64.0328 68.6216 64.0455 68.3549H64.0518ZM81.874 47.9422C81.855 47.866 81.8613 47.739 81.8169 47.7263C81.2772 47.4914 80.7312 47.2565 80.1724 47.0533C80.0963 47.0279 79.9312 47.1168 79.8677 47.193C79.7534 47.3454 79.8359 47.5041 79.9756 47.5994C80.4074 47.8978 80.8836 48.0946 81.3979 48.1962C81.5947 48.2343 81.7978 48.1708 81.874 47.9422ZM56.1534 71.8025C55.309 71.6248 54.5661 71.8787 53.9185 72.4184C53.855 72.4756 53.8296 72.666 53.874 72.7422C53.9185 72.8184 54.1026 72.9073 54.1661 72.8756C54.8328 72.5517 55.5883 72.4121 56.1534 71.8025ZM76.3439 45.1105C76.2169 44.8565 76.0709 44.774 75.8486 44.8756C75.4867 45.0406 74.8391 46.0882 74.8899 46.4565C74.928 46.7168 75.2137 46.8121 75.3217 46.6724C75.7026 46.1835 76.0074 45.6375 76.3439 45.1105ZM76.5026 62.139C76.6486 62.1136 76.8709 62.139 77.0359 62.0438C77.3661 61.866 78.0328 61.8787 77.9121 61.4152C77.7661 60.8565 77.2582 61.3136 76.909 61.3581C76.7502 61.3771 76.5915 61.4089 76.4328 61.4279C76.1534 61.4597 75.8105 61.466 75.8613 61.8597C75.8994 62.1771 76.2232 62.1009 76.509 62.139H76.5026ZM27.6201 66.0565C27.9439 65.9486 28.5788 66.2152 28.5851 65.6882C28.5851 65.1676 27.9566 65.3263 27.5947 65.3517C27.2201 65.3771 26.5407 65.0787 26.5661 65.7327C26.5852 66.2343 27.2264 65.9549 27.6264 66.0502L27.6201 66.0565ZM77.1375 69.7835C77.4105 69.7517 77.8486 69.72 78.274 69.6375C78.4074 69.6121 78.5598 69.4914 78.509 69.2882C78.4645 69.1105 78.3121 68.9898 78.1598 69.0279C77.455 69.2248 76.7312 69.1041 76.0264 69.2184C75.9185 69.2375 75.8296 69.32 75.8169 69.466C75.7978 69.6311 75.9185 69.7009 76.0137 69.7136C76.3312 69.7517 76.6486 69.7517 77.1375 69.7771V69.7835ZM74.0772 59.8152C73.9629 59.4914 74.3121 58.8565 73.7471 58.8502C73.2709 58.8502 73.3471 59.4597 73.3725 59.8406C73.3978 60.1962 73.1375 60.8184 73.6963 60.8184C74.2169 60.8184 74.0074 60.1962 74.0709 59.8152H74.0772ZM30.2677 68.7867C30.8201 68.774 31.309 68.5581 31.8169 68.4121C31.9566 68.374 32.0899 68.2279 32.0328 68.0311C31.9756 67.8406 31.8169 67.7835 31.6582 67.8152C31.0677 67.9486 30.4772 68.1009 29.8867 68.247C29.7661 68.2787 29.709 68.3803 29.6963 68.5136C29.6836 68.6851 29.8169 68.7168 29.9185 68.7486C30.0328 68.7803 30.1598 68.774 30.2677 68.7803V68.7867ZM23.9058 45.066C23.4613 45.174 23.0359 45.2692 22.6232 45.3962C22.4772 45.4406 22.3502 45.5676 22.3756 45.7517C22.401 45.9549 22.5661 46.0121 22.7185 45.993C23.2645 45.9168 23.8105 45.8279 24.3502 45.72C24.4328 45.7009 24.5407 45.5486 24.5407 45.466C24.5407 45.3708 24.4391 45.2438 24.3439 45.193C24.2105 45.1232 24.0455 45.1041 23.9058 45.066ZM23.6328 74.5644C23.5693 74.5962 23.4169 74.6279 23.3788 74.7105C23.3407 74.793 23.3788 74.9771 23.455 75.0343C23.6772 75.2057 23.9121 75.3835 24.1661 75.4787C24.5725 75.6375 25.1058 76.1771 25.3852 75.5867C25.582 75.1803 24.8518 75.1549 24.5471 74.9517C24.2804 74.7803 24.0201 74.5835 23.6264 74.5644H23.6328ZM79.1502 51.3136C78.0518 51.1549 77.855 51.2819 77.3915 52.1898C77.2836 52.3994 77.1185 52.6533 77.3597 52.8311C77.601 53.0025 77.8169 52.7994 77.9439 52.6025C78.2233 52.1771 78.4518 51.72 79.1439 51.32L79.1502 51.3136ZM90.7566 55.4152C90.3566 55.574 89.8359 55.7708 89.3217 55.9994C89.2264 56.0375 89.1693 56.1898 89.2455 56.3168C89.2836 56.3803 89.3598 56.4819 89.4042 56.4756C89.9947 56.3994 90.6106 56.3676 91.0804 55.9295C91.1502 55.866 91.1629 55.7073 91.1439 55.5994C91.1248 55.4851 91.036 55.3898 90.7502 55.4152H90.7566ZM45.6963 42.6597C45.9312 42.6343 46.3756 42.7803 46.4074 42.3422C46.4328 41.9803 45.9947 42.0755 45.7471 42.0057C45.5947 41.9613 45.4359 41.9232 45.2772 41.9168C44.9597 41.9105 44.5217 41.847 44.4709 42.2279C44.4074 42.6978 44.8772 42.5708 45.1629 42.6089C45.3217 42.6343 45.4804 42.6406 45.7026 42.6597H45.6963ZM49.8931 67.2819C49.8169 67.0978 49.7598 66.8502 49.6137 66.6724C49.3407 66.3422 49.4867 65.447 48.8645 65.7073C48.3947 65.9041 48.8772 66.5644 49.0105 67.0025C49.074 67.2184 49.1756 67.466 49.4232 67.5676C49.6582 67.6629 49.7979 67.5486 49.8931 67.2755V67.2819ZM67.1629 62.666C67.2582 62.6152 67.3852 62.5771 67.4613 62.4946C67.855 62.0819 68.001 61.5295 68.2296 61.0279C68.2613 60.9517 68.1915 60.7676 68.1153 60.7232C68.0391 60.6787 67.855 60.6914 67.7915 60.7549C67.309 61.1994 67.1693 61.847 66.8582 62.393C66.7566 62.5771 67.0042 62.6216 67.1629 62.666ZM21.5629 62.8565C21.3978 62.8628 21.2328 62.8946 21.1629 63.0597C21.0613 63.2882 21.201 63.4343 21.3978 63.5295C21.5756 63.6184 21.7598 63.6946 21.9375 63.7708C22.2042 63.8851 22.4836 64.3041 22.7439 63.8851C22.9661 63.5232 22.5471 63.339 22.3312 63.1295C22.1217 62.9263 21.8486 62.8565 21.5629 62.8629V62.8565ZM43.4042 63.1867C43.201 63.2248 43.0994 63.3771 43.1566 63.5295C43.3598 64.0565 43.7153 64.4819 44.1978 64.7676C44.3312 64.8502 44.509 64.7295 44.5407 64.5454C44.6042 64.1644 43.7471 63.1613 43.4042 63.1867ZM91.7788 48.6914C91.7407 48.6279 91.7153 48.5327 91.6582 48.5073C91.5058 48.4375 91.3153 48.4311 91.2264 48.5835C90.9661 49.0343 90.6359 49.4279 90.2613 49.7962C90.1661 49.8914 90.1661 50.0311 90.2613 50.1073C90.3375 50.1771 90.4836 50.2152 90.5852 50.2025C91.0423 50.1327 91.8105 49.1359 91.7788 48.6851V48.6914ZM38.1852 67.847C37.7153 67.32 37.2518 66.7994 36.782 66.2787C36.6677 66.1581 36.5026 66.0692 36.3693 66.1771C36.1915 66.3168 36.1788 66.5581 36.3185 66.7168C36.7185 67.1613 37.1375 67.5867 37.5756 67.9867C37.7344 68.1263 37.9566 68.0438 38.1852 67.847ZM9.83594 56.3232C9.83594 56.3232 9.83594 56.3232 9.83594 56.3295C10.1153 56.3295 10.3947 56.3422 10.674 56.3295C10.8645 56.3168 11.0994 56.3041 11.0867 56.0248C11.0804 55.8343 10.9026 55.7771 10.7502 55.7708C10.274 55.7517 9.79785 55.72 9.32801 55.6248C9.05499 55.5676 8.68039 55.6375 8.64229 55.9486C8.5915 56.3359 8.9788 56.2978 9.24547 56.3232C9.44229 56.3422 9.64547 56.3232 9.84229 56.3232H9.83594ZM72.0328 48.3994C72.2169 48.3867 72.3566 48.2914 72.3439 48.1073C72.2994 47.5168 72.0137 47.047 71.601 46.647C71.4994 46.5517 71.3598 46.5771 71.2836 46.6724C71.2137 46.7549 71.1502 46.9136 71.1883 46.9898C71.3851 47.4279 71.6137 47.8533 71.8423 48.2724C71.874 48.3359 71.9693 48.3613 72.0328 48.3994ZM51.2836 64.1454C51.4994 64.1327 51.7598 64.1898 51.8232 63.9676C51.9121 63.6438 51.6264 63.5994 51.3915 63.5549C51.2772 63.5295 51.1629 63.4533 51.0486 63.4533C50.5915 63.4533 49.9883 62.666 49.7661 63.3898C49.6137 63.8787 50.5153 63.8914 50.9598 64.1009C51.0613 64.1517 51.1947 64.139 51.2899 64.1517L51.2836 64.1454ZM38.9978 65.3136C39.0677 65.2565 39.201 65.2057 39.2391 65.1168C39.455 64.647 39.6518 64.1708 39.8296 63.6819C39.855 63.6057 39.7788 63.4343 39.7026 63.3898C39.5629 63.3136 39.3661 63.3073 39.2772 63.466C39.0042 63.9486 38.7502 64.4502 38.6804 65.0152C38.6613 65.1994 38.7693 65.3009 38.9978 65.3136ZM23.7725 70.1835C23.9756 70.1835 24.0582 70.1835 24.1344 70.1835C24.4645 70.1644 24.9153 70.1263 24.9217 69.7771C24.9217 69.3009 24.4455 69.4978 24.1534 69.4851C23.9121 69.4724 23.6645 69.4851 23.4296 69.5359C23.2709 69.5676 23.1312 69.6946 23.182 69.8787C23.2074 69.9803 23.3153 70.0882 23.4169 70.1263C23.5629 70.1835 23.7344 70.1771 23.7725 70.1835ZM49.9693 78.4502C49.5058 78.4882 49.1883 78.5009 48.8709 78.539C48.6994 78.5581 48.5661 78.6787 48.5725 78.8438C48.5725 78.939 48.6867 79.0597 48.7756 79.1105C49.1375 79.3073 50.1852 79.1549 50.4772 78.8692C50.6105 78.7359 50.5978 78.5644 50.4074 78.5009C50.2232 78.4438 50.0201 78.4502 49.9693 78.4438V78.4502ZM28.4645 55.7581C28.4391 55.3962 27.728 54.5962 27.3661 54.5644C27.2709 54.5581 27.074 54.6597 27.074 54.7168C27.055 55.2248 27.455 55.4914 27.7661 55.7962C27.874 55.9041 28.0264 55.9994 28.1725 56.0375C28.3566 56.0755 28.4645 55.9549 28.4645 55.7581ZM9.16928 63.6565C9.63912 63.6311 10.0899 63.4533 10.528 63.2692C10.655 63.2184 10.782 63.0597 10.6867 62.8756C10.6042 62.7168 10.4645 62.6279 10.2931 62.6787C9.87404 62.7994 9.44864 62.9263 9.03594 63.0787C8.88991 63.1295 8.74388 63.2311 8.78197 63.4279C8.82007 63.6375 8.99785 63.6184 9.16293 63.6565H9.16928ZM74.9026 49.4216C74.5026 49.5422 73.982 49.2946 73.7217 49.8089C73.6963 49.8533 73.7471 49.9867 73.7978 50.0184C74.2105 50.2914 74.6359 50.1644 75.0677 50.0565C75.182 50.0248 75.3026 49.9994 75.4105 49.9549C75.5629 49.8978 75.7217 49.8089 75.6455 49.6121C75.6137 49.5295 75.4804 49.447 75.3788 49.4279C75.2264 49.3962 75.0613 49.4216 74.9026 49.4216ZM19.8359 67.1994C19.728 66.9771 19.5312 66.9708 19.3344 67.0089C18.9598 67.0851 18.7947 67.4597 18.4963 67.6438C18.3693 67.7263 18.255 67.8787 18.3629 68.0438C18.4899 68.2279 18.7058 68.2914 18.8836 68.1708C19.2074 67.9486 19.4994 67.6819 19.7915 67.4216C19.8359 67.3835 19.8232 67.2755 19.8359 67.1994ZM58.2931 64.3994C58.2931 64.1517 58.1407 64.0502 57.982 64.0756C57.474 64.1708 56.9344 64.2216 56.5534 64.6406C56.4645 64.7359 56.5026 64.9073 56.6232 64.9454C57.1756 65.1549 57.6264 64.7994 58.1153 64.647C58.2042 64.6216 58.255 64.4692 58.2994 64.3994H58.2931ZM70.5598 63.8724C71.4825 64.2576 72.2211 64.3507 72.7756 64.1517C72.0582 63.5168 71.6518 63.447 70.5598 63.8724ZM93.2074 64.7994C93.6836 64.3803 94.0391 64.0692 94.3883 63.7581C94.4201 63.7327 94.4455 63.7009 94.4709 63.6755C94.5915 63.5486 94.6423 63.3898 94.5598 63.2438C94.5153 63.1676 94.3566 63.1041 94.2613 63.1168C93.6074 63.2311 93.1502 63.9041 93.2074 64.7994ZM36.0328 42.8629C36.0201 42.7295 35.9566 42.6343 35.8232 42.6216C35.455 42.5771 34.4772 43.6755 34.5598 44.0565C34.5852 44.1708 34.6613 44.2724 34.8137 44.247C35.1693 44.1835 36.0518 43.193 36.0328 42.8692V42.8629ZM21.2137 48.7867C21.055 48.7105 20.9471 48.6597 20.8455 48.6025C20.7121 48.5263 20.6105 48.6025 20.528 48.6787C20.0709 49.0914 20.0709 49.6692 20.0328 50.2152C20.0201 50.4438 20.3693 50.5263 20.4772 50.3803C20.8074 49.9422 20.7629 49.3327 21.2074 48.7867H21.2137ZM30.3693 72.9898C30.3248 72.7613 30.1598 72.6533 30.0264 72.7041C29.6264 72.8629 29.2391 73.066 28.8518 73.2756C28.6931 73.3581 28.6486 73.5359 28.7375 73.6819C28.7883 73.7581 28.9534 73.8343 29.0423 73.8089C29.4613 73.7009 29.8867 73.574 30.2105 73.2565C30.2867 73.1803 30.3248 73.066 30.3693 72.9898ZM6.06451 54.9708C6.2042 54.9517 7.19467 54.1327 7.22642 53.9994C7.26451 53.8279 7.22007 53.6692 7.03594 53.6311C6.62959 53.5486 5.7407 54.2851 5.75975 54.6787C5.77245 54.8565 5.87404 54.9644 6.06451 54.9708ZM76.2486 65.847C76.2677 65.6184 76.1471 65.574 76.0391 65.5549C75.6518 65.4851 74.5471 65.9232 74.4455 66.1898C74.4074 66.2978 74.401 66.4628 74.5471 66.4882C75.1248 66.5898 75.6137 66.3168 76.109 66.0819C76.1915 66.0438 76.2296 65.8978 76.255 65.8533L76.2486 65.847ZM44.001 59.3327C43.9375 59.3835 43.8042 59.4279 43.7661 59.5168C43.6455 59.8152 44.1724 60.793 44.4582 60.8057C44.5471 60.8057 44.6867 60.7041 44.7248 60.6152C44.8709 60.2343 44.4201 59.4152 44.001 59.339V59.3327ZM50.401 61.1168C50.7058 60.4502 50.9344 59.9994 51.3407 59.6692C51.3915 59.6248 51.3788 59.4406 51.3407 59.3454C51.2899 59.2184 51.1439 59.2248 51.0296 59.2565C50.2931 59.447 50.0518 59.9994 50.4074 61.1168H50.401ZM68.8137 70.4946C68.9851 70.4756 69.3026 70.5708 69.3851 70.2978C69.5248 69.847 69.074 69.9676 68.8645 69.8533C68.8328 69.8343 68.7883 69.8152 68.7502 69.8152C68.3693 69.8152 67.8613 69.1549 67.6709 69.7962C67.5439 70.2089 68.255 70.3041 68.6423 70.4755C68.6804 70.4882 68.7185 70.4883 68.8137 70.4946ZM63.4296 44.3549C63.1312 44.4121 62.5978 44.2406 62.6296 44.7549C62.6613 45.2311 63.1629 45.0724 63.5058 45.066C63.6264 45.066 63.7407 45.0533 63.8613 45.047C64.0709 45.0279 64.2867 44.9644 64.2994 44.7359C64.3185 44.4184 64.0518 44.3803 63.8105 44.3613C63.6899 44.3549 63.5756 44.3613 63.4359 44.3613L63.4296 44.3549ZM91.2201 63.9359C91.0677 63.5613 91.4232 62.7994 90.9534 62.8121C90.3375 62.8248 90.6486 63.5867 90.6296 64.0121C90.6169 64.3549 90.3629 65.0089 90.928 64.9898C91.4169 64.9708 91.1121 64.3232 91.2201 63.9359ZM44.782 68.5581C45.0994 68.52 45.3788 68.4946 45.6518 68.4502C45.8613 68.4184 46.0201 68.3105 45.9883 68.0565C45.9629 67.8597 45.8042 67.7835 45.6455 67.8025C45.1756 67.8597 44.7058 67.9295 44.2423 68.0248C44.1471 68.0438 44.0391 68.1644 44.1026 68.3041C44.128 68.3676 44.1852 68.4502 44.2423 68.4692C44.4328 68.5136 44.6296 68.5327 44.782 68.5581ZM9.3534 58.5771C9.20737 58.2597 9.21372 57.8597 8.92801 57.6057C8.73118 57.4279 8.47086 57.4216 8.28674 57.6248C8.1661 57.7581 8.76293 58.8692 8.9661 58.9136C9.22007 58.9708 9.32166 58.8057 9.3534 58.5771ZM50.7756 74.1581C50.255 74.4311 49.8042 74.774 49.7026 75.0216C49.6582 75.1232 49.6455 75.2629 49.6836 75.3644C49.7217 75.4787 49.8486 75.5295 49.9756 75.5041C50.509 75.3962 50.8201 74.8692 50.7756 74.1581ZM73.8296 52.1581C73.8677 52.4629 73.7852 52.939 74.2423 53.2121C74.2804 53.2311 74.401 53.1676 74.4455 53.1105C74.7185 52.7359 74.528 52.3359 74.4645 51.9549C74.4264 51.7454 74.3693 51.4216 74.0582 51.466C73.7471 51.5105 73.7915 51.8025 73.8296 52.1581ZM27.1185 78.7867C27.5629 78.647 28.0201 78.4121 28.3883 78.0692C28.5471 77.9232 28.3693 77.6502 28.1534 77.6565C27.6201 77.6756 27.1693 77.9295 26.8518 78.3613C26.6994 78.5708 26.8201 78.7232 27.1185 78.7867ZM10.5534 67.1994C10.4645 67.0914 10.401 66.9898 10.3185 66.92C10.2042 66.8248 10.0899 66.9136 10.0137 66.9898C9.90578 67.1041 9.81055 67.2311 9.71531 67.3517C9.55023 67.5613 9.25182 67.8025 9.56293 68.0438C9.89943 68.3041 10.1344 67.974 10.3121 67.7327C10.4264 67.5803 10.4709 67.3835 10.5534 67.1994ZM26.2296 60.9644C26.0137 60.9581 25.9566 61.1232 25.9693 61.2755C26.001 61.6755 26.1725 62.0375 26.3756 62.374C26.4582 62.5136 26.6042 62.6216 26.7693 62.5327C26.9153 62.4502 26.9598 62.2851 26.909 62.12C26.8137 61.8216 26.7121 61.5168 26.5915 61.2311C26.528 61.0851 26.4074 60.9771 26.2296 60.9708V60.9644ZM54.4455 60.5644C54.5534 60.9898 54.3756 61.4152 54.6486 61.7644C54.7121 61.8406 54.8455 61.8787 54.9534 61.8978C55.0867 61.9168 55.1947 61.8025 55.182 61.6882C55.1248 61.1803 55.0486 60.666 54.9598 60.1581C54.9407 60.0375 54.801 59.9994 54.674 60.0121C54.528 60.0248 54.4709 60.139 54.4518 60.2533C54.4264 60.3676 54.4518 60.4882 54.4518 60.5644H54.4455ZM12.7312 59.4089C12.5534 59.0216 12.4137 58.5898 11.9439 58.4311C11.8613 58.3994 11.6582 58.4629 11.6391 58.5263C11.4804 59.0025 11.9375 59.2184 12.1153 59.5549C12.1471 59.6184 12.2359 59.6629 12.3058 59.6882C12.5407 59.7644 12.6804 59.6629 12.7312 59.4152V59.4089ZM94.0836 67.3962C94.0709 67.2692 94.001 67.174 93.8677 67.1549C93.5185 67.1168 92.9026 67.5867 92.9026 67.9105C92.9026 67.9994 93.0042 68.1454 93.0867 68.1771C93.4486 68.3168 94.1217 67.7708 94.0836 67.3898V67.3962ZM95.5248 56.5835C95.7915 56.4438 96.2042 56.647 96.4645 56.2978C96.5471 56.1835 96.5153 56.0438 96.4328 55.974C96.0963 55.7073 95.7534 55.8787 95.4042 55.9803C95.2137 56.0375 94.9725 56.0311 94.9979 56.3105C95.0233 56.5835 95.2645 56.5581 95.5185 56.5835H95.5248ZM85.2455 49.9994C85.0169 49.6184 84.801 49.2438 84.5725 48.8756C84.5471 48.8375 84.4074 48.8184 84.3693 48.8502C84.2804 48.9136 84.1534 49.0343 84.1661 49.1041C84.2423 49.5295 84.3121 49.974 84.7121 50.2533C84.8074 50.3168 84.9217 50.393 85.0296 50.2978C85.1121 50.2216 85.1629 50.1136 85.2455 49.9994ZM53.728 75.6565C53.3217 76.4946 54.001 76.9327 54.0264 77.5041C54.0328 77.6819 54.1598 77.7898 54.3502 77.7454C54.5407 77.7009 54.5851 77.5295 54.5724 77.3708C54.5344 76.7486 54.2296 76.2597 53.7217 75.6502L53.728 75.6565ZM73.3217 84.4248C73.5058 84.393 73.7471 84.3676 73.9756 84.2978C74.1217 84.2533 74.2486 84.1327 74.2296 83.9422C74.2105 83.739 74.0455 83.6629 73.8931 83.6819C73.5375 83.72 73.1883 83.8025 72.8391 83.8597C72.6931 83.8787 72.6296 83.9867 72.6232 84.0946C72.6105 84.2851 72.7439 84.374 72.9153 84.393C73.0359 84.4057 73.1566 84.4121 73.328 84.4248H73.3217ZM71.2899 59.7263C71.0994 59.3962 71.3407 58.92 70.9725 58.6343C70.928 58.6025 70.7883 58.6089 70.7566 58.647C70.4963 59.0025 70.5978 59.4089 70.6486 59.7962C70.674 59.993 70.7185 60.2152 70.9915 60.1771C71.2264 60.1454 71.2963 59.9549 71.2899 59.7263ZM47.9439 72.1517C47.9185 71.9867 47.5058 71.7644 46.9534 71.5867C46.7947 71.5359 46.6359 71.4787 46.5407 71.6502C46.4899 71.7454 46.4582 71.8914 46.4963 71.9803C46.6486 72.3549 47.5439 72.5898 47.855 72.3486C47.9058 72.3105 47.9121 72.2152 47.9375 72.1454L47.9439 72.1517ZM78.9725 65.3263C78.8455 65.3835 78.7248 65.447 78.7629 65.5867C78.8772 66.0311 79.1121 66.393 79.5693 66.5327C79.6518 66.5581 79.8359 66.4692 79.8677 66.3867C79.982 66.1136 79.7534 65.9486 79.5947 65.7771C79.4169 65.5867 79.328 65.2565 78.9725 65.32V65.3263ZM16.0074 52.4375C15.9693 52.374 15.9439 52.2724 15.8931 52.247C15.6328 52.12 15.4359 52.2851 15.2772 52.4565C15.0677 52.6724 14.7375 52.8375 14.8074 53.2248C14.8201 53.2819 14.9026 53.3517 14.9725 53.3708C15.3344 53.4787 16.0518 52.8438 16.0201 52.4438L16.0074 52.4375ZM59.9693 41.193C59.474 40.7676 59.0804 40.4629 58.5217 40.7549C58.4772 40.774 58.4518 40.9327 58.4836 40.9644C58.8645 41.3517 59.2899 41.6057 59.9756 41.193H59.9693ZM14.8137 64.3041C14.8074 63.8533 14.3312 63.3136 14.0137 63.4025C13.8994 63.4343 13.7915 63.5486 13.8296 63.6692C13.9439 64.0565 14.109 64.4311 14.5217 64.5708C14.6994 64.6343 14.7947 64.4692 14.8074 64.3041H14.8137ZM93.5756 70.4438C93.3725 70.4819 93.1121 70.4946 93.1312 70.8248C93.1439 71.0089 93.3153 71.1105 93.455 71.1041C93.6899 71.1041 93.9566 71.0089 93.9947 70.7486C94.0264 70.52 93.8169 70.4375 93.5756 70.4375V70.4438Z" fill="#F2A8D5"/>
<path d="M100.083 58.9008C100.016 58.3336 99.7426 58.1008 99.2643 58.2024C99.1119 58.2342 98.9532 58.2596 98.8008 58.2723C98.6802 58.285 98.5723 58.2342 98.5215 58.1135C98.4707 57.9865 98.5405 57.8723 98.6357 57.8088C99.0294 57.5548 99.531 57.4913 99.8611 57.123C100.077 57.7072 100.179 58.304 100.185 58.9262L100.083 58.9008Z" fill="#4D2505"/>
<path d="M73.7788 41.8536C73.9439 42.4631 73.4868 42.7234 73.1122 43.0218C72.9852 43.1234 72.8264 43.1805 72.6741 43.0472C72.5344 42.9202 72.5661 42.7488 72.6169 42.5964C72.6931 42.3488 72.9026 42.2091 73.1312 42.1139C73.3725 42.0123 73.1312 41.8345 73.2137 41.7075C73.4042 41.7583 73.5947 41.8028 73.7788 41.8536Z" fill="#4D2505"/>
<path d="M69.8362 67.4216C69.741 67.3835 69.6267 67.3644 69.5315 67.301C68.6299 66.6787 67.741 66.0438 66.7632 65.5422C66.5664 65.4406 66.4331 65.2692 66.5601 65.0533C66.687 64.8375 66.9029 64.92 67.0997 64.9962C68.1728 65.4152 69.0362 66.1645 69.9505 66.8184C70.0775 66.9073 70.141 67.0914 70.0458 67.2565C70.0077 67.32 69.9251 67.3581 69.8362 67.4216Z" fill="#4D2505"/>
<path d="M79.8554 43.4277C80.7633 43.8722 81.6776 44.2849 82.4395 44.9515C82.5855 45.0785 82.6617 45.3071 82.4649 45.4785C82.3887 45.542 82.2046 45.5801 82.1474 45.5293C81.3855 44.9325 80.503 44.5388 79.6966 44.0246C79.5697 43.942 79.449 43.7833 79.557 43.6182C79.6141 43.5357 79.7474 43.4976 79.8554 43.4341V43.4277Z" fill="#4D2505"/>
<path d="M89.4551 48.3232C89.417 48.3994 89.3852 48.5391 89.2964 48.5899C89.2138 48.6343 89.036 48.628 88.9725 48.5708C88.2932 47.9423 87.6265 47.301 86.9599 46.6597C86.8773 46.5772 86.8011 46.4375 86.9027 46.3359C86.9789 46.2597 87.1122 46.1962 87.2138 46.2026C87.7154 46.247 89.3789 47.8153 89.4551 48.3232Z" fill="#4D2505"/>
<path d="M36.3759 62.0883C36.1855 61.7518 36.1982 61.5296 36.3759 61.4153C37.1188 60.9264 37.9251 60.5772 38.7632 60.2979C38.9347 60.2407 39.0743 60.2852 39.1569 60.4629C39.2394 60.6471 39.1315 60.7994 38.9918 60.8629C38.1283 61.282 37.2585 61.6756 36.3696 62.0883H36.3759Z" fill="#4D2505"/>
<path d="M78.7572 58.6978C78.3953 58.6978 78.0397 58.6978 77.6778 58.6978C77.5064 58.6978 77.354 58.6152 77.354 58.4311C77.354 58.2597 77.4873 58.12 77.6397 58.0946C78.4715 57.9612 79.3096 57.9739 80.1413 58.0882C80.2937 58.1073 80.4207 58.2533 80.408 58.4311C80.3953 58.6152 80.2429 58.6978 80.0778 58.6978C79.6397 58.7041 79.2016 58.6978 78.7572 58.6978Z" fill="#4D2505"/>
<path d="M72.725 73.5421C73.0235 73.523 73.1758 73.5611 73.2457 73.7325C73.3155 73.9167 73.2139 74.0436 73.0488 74.1008C72.2552 74.3865 71.4615 74.6659 70.6679 74.9452C70.4711 75.0151 70.2742 75.0786 70.179 74.8119C70.1155 74.6278 70.2171 74.4627 70.3568 74.4119C71.1885 74.1198 71.9695 73.6881 72.725 73.5484V73.5421Z" fill="#4D2505"/>
<path d="M60.858 61.3834C60.1215 61.1421 59.3342 61.104 58.712 60.6024C58.5469 60.4691 58.3945 60.304 58.4961 60.1008C58.6041 59.8786 58.8263 59.9167 59.0104 60.031C59.6326 60.4247 60.3501 60.5453 61.0295 60.7675C61.2072 60.8247 61.4358 60.9199 61.3469 61.1866C61.2644 61.4342 61.0231 61.3516 60.858 61.3834Z" fill="#4D2505"/>
<path d="M20.2936 44.355C20.2682 44.463 20.2682 44.5519 20.2237 44.609C19.7475 45.1995 19.2713 45.79 18.7888 46.3741C18.6745 46.5074 18.5094 46.5519 18.3761 46.4185C18.3063 46.3487 18.2428 46.1836 18.2745 46.1074C18.6047 45.3138 19.1126 44.6471 19.8237 44.1709C20.0079 44.0503 20.1983 44.1709 20.2936 44.3614V44.355Z" fill="#4D2505"/>
<path d="M87.1252 59.7455C86.9792 59.7391 86.8141 59.7455 86.6554 59.7201C86.5411 59.7074 86.4395 59.6502 86.395 59.5169C86.3506 59.3645 86.4395 59.2693 86.5411 59.2312C87.3792 58.9518 88.2617 58.901 89.1316 58.7677C89.2903 58.7423 89.4554 58.8566 89.4871 59.0344C89.5379 59.2883 89.3538 59.3899 89.1506 59.4217C88.4776 59.5359 87.8046 59.6375 87.1189 59.7455H87.1252Z" fill="#4D2505"/>
<path d="M87.5059 54.3611C87.6582 53.7008 87.7598 52.9452 88.1281 52.2658C88.2297 52.0817 88.3884 51.8976 88.5979 51.9992C88.7884 52.0944 88.8011 52.3547 88.7186 52.5325C88.4074 53.1928 88.2741 53.8976 88.1281 54.6023C88.09 54.7801 88.0011 55.0277 87.7535 54.996C87.4106 54.9516 87.4932 54.6722 87.5122 54.3611H87.5059Z" fill="#4D2505"/>
<path d="M84.1027 60.2912C84.071 60.4627 83.9948 60.596 83.8361 60.6658C83.2583 60.9262 82.89 61.3833 82.6361 61.9484C82.5408 62.1579 82.3884 62.4119 82.0964 62.2277C81.9059 62.1071 81.9313 61.8976 82.0202 61.6881C82.3567 60.9198 82.871 60.342 83.6837 60.05C83.9313 59.9611 84.0583 60.05 84.1091 60.2849L84.1027 60.2912Z" fill="#4D2505"/>
<path d="M33.5757 60.1073C33.5376 60.1772 33.5185 60.2724 33.4614 60.3105C32.8201 60.6915 32.3503 61.2121 32.0264 61.8851C31.9693 62.0121 31.7788 62.12 31.6264 61.9804C31.5503 61.9105 31.4868 61.7708 31.4931 61.6692C31.5312 60.9899 32.528 59.8724 33.1757 59.7772C33.4106 59.7391 33.5439 59.8661 33.5693 60.1073H33.5757Z" fill="#4D2505"/>
<path d="M73.3347 70.5007C73.3283 70.8499 73.3918 71.0975 73.1315 71.1547C72.814 71.2245 72.7061 70.9833 72.6553 70.7356C72.522 70.0182 72.5982 69.2817 72.414 68.5642C72.3505 68.3166 72.4902 68.0436 72.7759 68.0309C73.0045 68.0245 73.049 68.2785 73.0807 68.4817C73.1886 69.2055 73.0744 69.9483 73.3347 70.5007Z" fill="#4D2505"/>
<path d="M51.6712 70.3737C51.5887 70.342 51.4934 70.3356 51.449 70.2848C51.3283 70.1515 51.2966 69.9483 51.3982 69.8404C51.8871 69.3134 52.3887 68.7991 52.9156 68.3039C53.0744 68.1578 53.322 68.2023 53.4553 68.3864C53.5569 68.5261 53.4553 68.6975 53.341 68.8182C52.8902 69.2753 52.4331 69.7324 51.9696 70.1832C51.8871 70.2658 51.7728 70.3102 51.6775 70.3674L51.6712 70.3737Z" fill="#4D2505"/>
<path d="M85.2073 53.3012C85.1438 53.352 85.0613 53.4536 84.9597 53.4917C84.3184 53.7075 83.6708 53.9107 83.0168 54.0948C82.839 54.1456 82.6041 54.171 82.5279 53.9107C82.4771 53.7329 82.5978 53.5742 82.7438 53.5234C83.3787 53.2948 84.02 53.079 84.674 52.9012C84.9025 52.8377 85.1565 52.9202 85.2136 53.3012H85.2073Z" fill="#4D2505"/>
<path d="M74.3442 76.7421C74.5093 76.1389 74.6744 75.4722 74.8712 74.8183C74.9157 74.6722 75.0617 74.558 75.2522 74.6151C75.4363 74.6659 75.5188 74.8246 75.4871 74.9834C75.3347 75.7326 75.1633 76.4818 74.9792 77.2246C74.9411 77.3643 74.8077 77.5103 74.6109 77.4278C74.3315 77.3135 74.3506 77.0532 74.3442 76.7484V76.7421Z" fill="#4D2505"/>
<path d="M71.7342 57.0217C71.4993 56.9963 71.3279 57.009 71.1819 56.9583C71.0866 56.9265 70.9787 56.8249 70.9406 56.7297C70.8771 56.5519 71.0231 56.3995 71.1628 56.3741C71.8231 56.2535 72.4898 56.1583 73.1628 56.0757C73.3088 56.0567 73.4866 56.1138 73.5184 56.317C73.5438 56.5011 73.4422 56.6471 73.2898 56.6852C72.7501 56.8186 72.2041 56.9202 71.7342 57.0154V57.0217Z" fill="#4D2505"/>
<path d="M71.2648 79.0342C71.6331 79.085 72.8014 80.2786 72.795 80.6342C72.7887 80.8754 72.5601 81.0342 72.3887 80.8881C71.8807 80.4501 71.3283 80.0374 70.9855 79.4469C70.8648 79.2437 71.0363 79.0786 71.2712 79.0342H71.2648Z" fill="#4D2505"/>
<path d="M22.2047 56.2597C21.9571 56.2406 21.792 56.2406 21.7221 56.0501C21.6777 55.9168 21.7475 55.8089 21.8491 55.7454C22.4904 55.339 23.1507 54.9517 23.9063 54.7993C24.0586 54.7676 24.2491 54.7867 24.2745 54.9898C24.2872 55.0914 24.2428 55.2628 24.1666 55.3009C23.4936 55.6438 22.8079 55.9613 22.1983 56.2533L22.2047 56.2597Z" fill="#4D2505"/>
<path d="M49.0301 40.6533C49.1062 40.6724 49.2015 40.666 49.2586 40.7105C49.8745 41.174 50.5031 41.6311 50.8586 42.3486C50.9285 42.4882 50.9729 42.6724 50.8269 42.7994C50.6808 42.9263 50.5221 42.8692 50.4015 42.7549C49.8808 42.247 49.3602 41.7327 48.8523 41.2121C48.738 41.0914 48.6999 40.92 48.8269 40.774C48.8713 40.7168 48.9602 40.6978 49.0301 40.6597V40.6533Z" fill="#4D2505"/>
<path d="M68.5472 57.4404C67.4551 58.0817 66.5218 58.5007 65.271 58.5007C66.071 57.6372 67.3535 57.2055 68.5472 57.4404Z" fill="#4D2505"/>
<path d="M94.8395 54.2977C94.5601 54.3231 94.3823 54.2342 94.3061 54.0247C94.0775 53.3834 93.849 52.7485 93.6521 52.1009C93.5887 51.904 93.6458 51.6945 93.9061 51.6501C94.0902 51.6183 94.2363 51.7263 94.268 51.885C94.4141 52.6025 94.7125 53.2501 95.0553 53.885C95.1633 54.0818 95.0363 54.266 94.8458 54.304L94.8395 54.2977Z" fill="#4D2505"/>
<path d="M17.2207 56.7993C17.1382 57.3897 15.8874 58.177 15.3287 58.0056C15.0048 57.904 15.0048 57.6374 15.1699 57.4469C15.6271 56.9199 16.3001 56.7548 16.9287 56.5389C17.1064 56.4755 17.2017 56.6469 17.2207 56.8056V56.7993Z" fill="#4D2505"/>
<path d="M14.6869 48.7293C14.2679 48.5959 13.525 48.9324 13.506 48.4245C13.4806 47.7451 14.2425 48.0118 14.6615 48.0245C15.1187 48.0372 15.9441 47.7007 15.9314 48.4499C15.9187 48.9642 15.106 48.5769 14.6933 48.7293H14.6869Z" fill="#4D2505"/>
<path d="M11.0806 51.9293C10.4965 51.8087 9.90602 51.7007 9.32189 51.561C9.13776 51.5166 8.92189 51.415 8.96634 51.161C9.01078 50.9007 9.2584 50.8563 9.42983 50.9325C10.0711 51.1991 10.7886 51.0785 11.4298 51.3261C11.5822 51.3833 11.76 51.4404 11.76 51.6245C11.76 51.8912 11.5378 51.9166 11.3282 51.9166C11.2457 51.9166 11.1695 51.9039 11.087 51.8975C11.087 51.9102 11.087 51.9229 11.0806 51.9356V51.9293Z" fill="#4D2505"/>
<path d="M88.2358 63.3325C88.1914 63.5293 87.9945 63.6309 87.8803 63.5547C87.239 63.123 86.5279 63.1039 85.7977 63.1102C85.6326 63.1102 85.5565 62.8944 85.7088 62.7483C86.0961 62.3801 86.566 62.3103 87.0549 62.488C87.493 62.6468 88.0009 62.7229 88.2422 63.2182C88.2549 63.2499 88.2422 63.2944 88.2422 63.3325H88.2358Z" fill="#4D2505"/>
<path d="M25.4549 50.1454C25.366 50.4057 25.1247 50.4565 24.9978 50.285C24.5787 49.7517 24.1851 49.1866 23.8295 48.6089C23.7089 48.412 23.8549 48.1898 24.1152 48.2343C24.5152 48.2977 25.5057 49.739 25.4549 50.1517V50.1454Z" fill="#4D2505"/>
<path d="M19.2902 60.5963C19.0616 60.6026 18.8585 60.5455 18.8077 60.3233C18.7632 60.1518 18.9029 60.0121 19.068 59.9867C19.7029 59.9042 20.2426 59.4471 20.9029 59.4852C21.0616 59.4979 21.2267 59.5677 21.2585 59.7518C21.2902 59.936 21.1505 60.0502 20.9981 60.0947C20.4267 60.2725 19.8489 60.4312 19.2902 60.5963Z" fill="#4D2505"/>
<path d="M78.2106 56.031C77.9249 55.9929 77.6138 56.0627 77.5694 55.7389C77.5059 55.3071 77.8678 55.3579 78.1344 55.3198C78.5725 55.2627 79.0106 55.1802 79.4551 55.1484C79.6519 55.1357 79.8678 55.25 79.8932 55.4786C79.9122 55.65 79.7662 55.7643 79.5884 55.796C79.1122 55.8786 78.636 55.9548 78.2106 56.0246V56.031Z" fill="#4D2505"/>
<path d="M61.9509 64.7738C61.6652 64.6849 61.6271 64.4691 61.6652 64.2786C61.7858 63.6691 62.135 63.1802 62.5731 62.7548C62.6874 62.6469 62.8652 62.6215 63.0112 62.7548C63.1572 62.8818 63.1572 63.0722 63.0557 63.1865C62.6811 63.6183 62.4144 64.1008 62.2176 64.6342C62.1858 64.7103 62.0271 64.7421 61.9509 64.7802V64.7738Z" fill="#4D2505"/>
<path d="M84.2615 58.1898C83.4552 57.4724 83.2583 56.6406 82.9917 55.847C82.9726 55.7835 83.0996 55.6438 83.1821 55.5867C83.2964 55.5105 83.4361 55.574 83.4869 55.6819C83.8361 56.4057 84.4139 57.0597 84.2552 58.1835L84.2615 58.1898Z" fill="#4D2505"/>
<path d="M67.7215 43.0913C67.7914 43.1485 67.9247 43.2056 67.9628 43.3008C68.1977 43.8977 68.4199 44.5072 68.6295 45.1167C68.6866 45.2754 68.5787 45.4278 68.4199 45.504C68.2295 45.5992 68.0834 45.4723 68.0326 45.3326C67.7977 44.7358 67.5755 44.1262 67.3787 43.5167C67.3088 43.3008 67.4485 43.1421 67.7215 43.0977V43.0913Z" fill="#4D2505"/>
<path d="M91.2646 58.9517C91.3344 58.9834 91.4296 58.9961 91.4804 59.0469C91.8423 59.4723 92.1979 59.8913 92.5344 60.3294C92.6741 60.5072 92.6423 60.7231 92.4519 60.8501C92.3122 60.9453 92.1471 60.8882 92.0265 60.7612C91.6328 60.3675 91.2709 59.9421 90.9979 59.4533C90.9217 59.3199 90.89 59.1421 91.0487 59.0215C91.1058 58.9771 91.1884 58.9644 91.2646 58.939V58.9517Z" fill="#4D2505"/>
<path d="M58.5788 68.5452C58.3438 68.5008 58.02 68.6214 58.02 68.2532C58.02 68.0055 58.274 67.9992 58.4708 67.9484C59.0549 67.8024 59.6391 67.6436 60.2232 67.5039C60.3756 67.4659 60.5597 67.4913 60.6232 67.6754C60.6803 67.8532 60.5914 67.9801 60.4264 68.0563C59.8295 68.3103 59.2264 68.5198 58.5851 68.5452H58.5788Z" fill="#4D2505"/>
<path d="M40.9408 42.8629C40.8519 43.1741 40.6551 43.2629 40.4773 43.1106C40.09 42.7741 39.7281 42.3994 39.3789 42.0248C39.2456 41.8788 39.1503 41.682 39.3472 41.4979C39.5377 41.3264 39.7408 41.409 39.8742 41.555C40.2678 41.9741 40.8646 42.2471 40.9345 42.8629H40.9408Z" fill="#4D2505"/>
<path d="M55.0867 43.0914C54.5724 43.0914 54.0898 42.8945 53.5946 42.7549C53.4613 42.7168 53.3279 42.5771 53.3787 42.3866C53.4295 42.2025 53.5946 42.139 53.747 42.158C54.2168 42.2215 54.6803 42.3168 55.1502 42.3993C55.4041 42.4437 55.6517 42.5453 55.6517 42.812C55.6517 43.1612 55.3152 43.0469 55.0867 43.0914Z" fill="#4D2505"/>
<path d="M30.1472 44.996C30.0837 45.2119 29.925 45.3643 29.7154 45.231C29.1631 44.8818 28.8075 44.3357 28.4583 43.8024C28.3377 43.6246 28.4774 43.396 28.744 43.4278C29.1377 43.4786 30.1535 44.6341 30.1535 44.996H30.1472Z" fill="#4D2505"/>
<path d="M64.0521 68.355C64.0458 68.6217 64.0394 68.7995 63.8617 68.863C63.6077 68.9519 63.4807 68.755 63.4236 68.5709C63.2521 68.0376 63.1061 67.4916 62.9537 66.9455C62.9029 66.7677 62.9537 66.6281 63.1315 66.5582C63.3156 66.482 63.4807 66.5836 63.5315 66.7296C63.7347 67.2947 63.9061 67.8725 64.0585 68.355H64.0521Z" fill="#4D2505"/>
<path d="M81.8748 47.9424C81.7986 48.1709 81.5954 48.2344 81.3986 48.1963C80.8906 48.0947 80.4081 47.8916 79.9764 47.5995C79.843 47.5043 79.7541 47.3455 79.8684 47.1931C79.9319 47.1106 80.097 47.0217 80.1732 47.0535C80.7256 47.2566 81.2716 47.4916 81.8176 47.7265C81.8621 47.7455 81.8557 47.8662 81.8748 47.9424Z" fill="#4D2505"/>
<path d="M56.1475 71.8028C55.5824 72.4123 54.8269 72.552 54.1602 72.8758C54.0904 72.9075 53.9062 72.825 53.8681 72.7424C53.8237 72.6599 53.8427 72.4694 53.9126 72.4186C54.5602 71.879 55.3031 71.6313 56.1475 71.8028Z" fill="#4D2505"/>
<path d="M76.3381 45.1103C76.0016 45.6373 75.6905 46.177 75.3159 46.6722C75.208 46.8119 74.9159 46.7167 74.8841 46.4564C74.8333 46.0881 75.4873 45.0405 75.8429 44.8754C76.0651 44.7738 76.2111 44.85 76.3381 45.1103Z" fill="#4D2505"/>
<path d="M76.5027 62.1388C76.217 62.1007 75.8932 62.1769 75.8551 61.8594C75.8106 61.4658 76.1471 61.4594 76.4265 61.4277C76.5852 61.4086 76.7439 61.3769 76.9027 61.3578C77.2519 61.3134 77.7662 60.8563 77.9058 61.415C78.0265 61.8785 77.3598 61.8658 77.0297 62.0436C76.8646 62.1325 76.6424 62.1134 76.4963 62.1388H76.5027Z" fill="#4D2505"/>
<path d="M27.6142 66.0565C27.2206 65.9549 26.573 66.2343 26.5539 65.739C26.5285 65.0787 27.2079 65.3835 27.5825 65.3581C27.9444 65.3327 28.573 65.174 28.573 65.6946C28.573 66.2216 27.9317 65.9549 27.6079 66.0628L27.6142 66.0565Z" fill="#4D2505"/>
<path d="M77.1317 69.7835C76.6492 69.7581 76.3254 69.7581 76.0079 69.72C75.9127 69.7073 75.792 69.6375 75.8111 69.4724C75.8238 69.3264 75.919 69.2438 76.0206 69.2248C76.7254 69.1105 77.4492 69.2248 78.1539 69.0343C78.3063 68.9899 78.4587 69.1169 78.5031 69.2946C78.5539 69.4978 78.4016 69.6184 78.2682 69.6438C77.8365 69.72 77.4047 69.7581 77.1317 69.7899V69.7835Z" fill="#4D2505"/>
<path d="M74.0707 59.8152C74.0073 60.2025 74.2168 60.8184 73.6961 60.8184C73.1374 60.8184 73.3977 60.1962 73.3723 59.8406C73.3469 59.4597 73.2707 58.8438 73.7469 58.8501C74.3057 58.8565 73.9628 59.4914 74.0771 59.8152H74.0707Z" fill="#4D2505"/>
<path d="M30.2612 68.7867C30.1533 68.7803 30.0263 68.7867 29.912 68.7549C29.8041 68.7232 29.6708 68.6914 29.6898 68.52C29.7025 68.3867 29.7533 68.2851 29.8803 68.2533C30.4708 68.101 31.0549 67.9486 31.6517 67.8216C31.8168 67.7835 31.9755 67.847 32.0263 68.0375C32.0835 68.2343 31.9501 68.3803 31.8105 68.4184C31.3089 68.5644 30.82 68.7803 30.2612 68.793V68.7867Z" fill="#4D2505"/>
<path d="M23.8998 45.0596C24.0459 45.0977 24.2046 45.1104 24.3379 45.1866C24.4332 45.2373 24.5284 45.3643 24.5347 45.4596C24.5347 45.5421 24.4268 45.6945 24.3443 45.7135C23.8046 45.8215 23.2585 45.9104 22.7125 45.9866C22.5538 46.0056 22.3887 45.9485 22.3697 45.7453C22.3506 45.5612 22.4712 45.4342 22.6173 45.3897C23.0363 45.2627 23.4617 45.1739 23.8998 45.0596Z" fill="#4D2505"/>
<path d="M23.6205 74.5581C24.0078 74.5708 24.2745 74.774 24.5411 74.9454C24.8522 75.1486 25.5761 75.174 25.3792 75.5803C25.0935 76.1708 24.5602 75.6311 24.1602 75.4724C23.8999 75.3708 23.6649 75.1994 23.4491 75.028C23.3792 74.9708 23.3348 74.793 23.3729 74.7041C23.4046 74.6216 23.557 74.5899 23.6268 74.5581H23.6205Z" fill="#4D2505"/>
<path d="M79.1376 51.3072C78.4455 51.7072 78.2106 52.1643 77.9376 52.5897C77.8106 52.7865 77.5884 52.9961 77.3535 52.8183C77.1122 52.6405 77.2773 52.3929 77.3852 52.177C77.8423 51.2691 78.0455 51.1421 79.1439 51.3008L79.1376 51.3072Z" fill="#4D2505"/>
<path d="M90.7437 55.4089C91.0231 55.3835 91.1183 55.4788 91.1373 55.593C91.1564 55.701 91.1373 55.8534 91.0738 55.9232C90.604 56.3677 89.9881 56.3994 89.3976 56.4692C89.3532 56.4692 89.277 56.374 89.2389 56.3105C89.1627 56.1835 89.2199 56.0375 89.3151 55.993C89.8294 55.7645 90.35 55.5677 90.75 55.4089H90.7437Z" fill="#4D2505"/>
<path d="M45.6834 42.6535C45.4675 42.6344 45.3024 42.6281 45.1437 42.6027C44.858 42.5582 44.3881 42.6916 44.4516 42.2217C44.5024 41.8408 44.9469 41.9043 45.258 41.9106C45.4167 41.9106 45.5754 41.955 45.7278 41.9995C45.9754 42.0693 46.4135 41.9741 46.3881 42.336C46.3564 42.7741 45.9119 42.6281 45.677 42.6535H45.6834Z" fill="#4D2505"/>
<path d="M49.8872 67.2755C49.7856 67.5421 49.6522 67.6628 49.4173 67.5675C49.1697 67.466 49.0681 67.2183 49.0046 67.0025C48.8776 66.5644 48.3888 65.9041 48.8586 65.7072C49.4872 65.4469 49.3348 66.3358 49.6078 66.6723C49.7538 66.8501 49.8046 67.0977 49.8872 67.2818V67.2755Z" fill="#4D2505"/>
<path d="M67.1564 62.6596C66.9976 62.6088 66.7437 62.5644 66.8516 62.3866C67.1627 61.8406 67.3024 61.1929 67.7849 60.7485C67.8548 60.685 68.0326 60.6723 68.1087 60.7167C68.1849 60.7612 68.2548 60.9453 68.223 61.0215C67.9945 61.5231 67.8484 62.0755 67.4548 62.4882C67.3786 62.5707 67.2516 62.6088 67.1564 62.6596Z" fill="#4D2505"/>
<path d="M21.5566 62.8501C21.8487 62.8501 22.1153 62.9136 22.3249 63.1231C22.5407 63.3326 22.9598 63.5168 22.7376 63.8787C22.4772 64.2977 22.1915 63.8787 21.9312 63.7644C21.7471 63.6882 21.5693 63.612 21.3915 63.5231C21.1947 63.4279 21.055 63.2882 21.1566 63.0533C21.2264 62.8882 21.3915 62.8628 21.5566 62.8501Z" fill="#4D2505"/>
<path d="M43.3977 63.1802C43.7405 63.1548 44.5977 64.1643 44.5342 64.5389C44.5024 64.723 44.3247 64.8436 44.1913 64.7611C43.7088 64.469 43.3532 64.05 43.1501 63.523C43.0929 63.377 43.1945 63.2183 43.3977 63.1802Z" fill="#4D2505"/>
<path d="M91.7663 48.6849C91.798 49.1356 91.0234 50.1325 90.5726 50.2023C90.471 50.2214 90.3313 50.1769 90.2488 50.1071C90.1599 50.0309 90.1599 49.8849 90.2488 49.796C90.617 49.4277 90.9472 49.0341 91.2139 48.5833C91.3028 48.4309 91.4869 48.4309 91.6456 48.5071C91.7028 48.5325 91.7282 48.6277 91.7663 48.6912V48.6849Z" fill="#4D2505"/>
<path d="M38.1788 67.8405C37.9439 68.0373 37.7217 68.1198 37.5693 67.9802C37.1248 67.5802 36.7121 67.1484 36.3121 66.7103C36.1724 66.5516 36.1851 66.3103 36.3629 66.1706C36.5026 66.0627 36.6677 66.1516 36.7756 66.2722C37.2455 66.7929 37.7153 67.3198 38.1788 67.8405Z" fill="#4D2505"/>
<path d="M9.83582 56.3234C9.63899 56.3234 9.43582 56.3361 9.23899 56.3234C8.97867 56.298 8.58502 56.3297 8.63582 55.9488C8.68026 55.644 9.04851 55.5678 9.32153 55.6249C9.79137 55.7202 10.2676 55.7519 10.7438 55.771C10.9025 55.771 11.0739 55.8345 11.0803 56.0249C11.093 56.3043 10.858 56.317 10.6676 56.3297C10.3882 56.3488 10.1088 56.3297 9.82947 56.3297C9.82947 56.3297 9.82947 56.3297 9.82947 56.3234H9.83582Z" fill="#4D2505"/>
<path d="M72.0335 48.3992C71.97 48.3611 71.8748 48.3294 71.843 48.2722C71.6144 47.8532 71.3859 47.4278 71.189 46.9897C71.1509 46.9135 71.2208 46.7548 71.2843 46.6722C71.3605 46.5834 71.5002 46.5516 71.6017 46.6468C72.0144 47.0468 72.3065 47.523 72.3446 48.1072C72.3573 48.2913 72.2176 48.3865 72.0335 48.3992Z" fill="#4D2505"/>
<path d="M51.2843 64.1454C51.189 64.1327 51.0557 64.1454 50.9541 64.0946C50.516 63.885 49.6144 63.8723 49.7605 63.3835C49.9827 62.666 50.5922 63.4533 51.043 63.4469C51.1573 63.4469 51.2652 63.5231 51.3859 63.5485C51.6208 63.5993 51.9128 63.6374 51.8176 63.9612C51.7605 64.1771 51.4938 64.1263 51.2779 64.139L51.2843 64.1454Z" fill="#4D2505"/>
<path d="M38.9977 65.3137C38.7755 65.301 38.6612 65.1994 38.6803 65.0153C38.7501 64.4502 38.9977 63.955 39.2771 63.4661C39.366 63.3073 39.5692 63.3137 39.7025 63.3899C39.7787 63.4343 39.8612 63.6058 39.8295 63.6819C39.6517 64.1645 39.4485 64.647 39.239 65.1169C39.1946 65.2121 39.0676 65.2629 38.9977 65.3137Z" fill="#4D2505"/>
<path d="M23.7725 70.1832C23.7344 70.1832 23.5629 70.1832 23.4169 70.1261C23.3217 70.088 23.2074 69.9801 23.182 69.8785C23.1312 69.6944 23.2709 69.5674 23.4296 69.5356C23.6645 69.4912 23.9122 69.4785 24.1534 69.4848C24.4455 69.4975 24.9217 69.3007 24.9217 69.7769C24.9217 70.1198 24.4645 70.1578 24.1344 70.1832C24.0518 70.1832 23.9756 70.1832 23.7725 70.1832Z" fill="#4D2505"/>
<path d="M49.9696 78.4502C50.0204 78.4502 50.2235 78.4502 50.4077 78.5073C50.5982 78.5708 50.6108 78.7359 50.4775 78.8756C50.1918 79.1613 49.1378 79.3073 48.7759 79.1169C48.6807 79.0661 48.5728 78.9391 48.5728 78.8502C48.5728 78.6851 48.6997 78.5645 48.8712 78.5454C49.1886 78.5073 49.5061 78.4946 49.9696 78.4565V78.4502Z" fill="#4D2505"/>
<path d="M28.4645 55.7582C28.4645 55.955 28.3502 56.0756 28.1724 56.0375C28.0264 56.0058 27.874 55.9105 27.7661 55.7963C27.455 55.4851 27.0613 55.2248 27.074 54.7169C27.074 54.6597 27.2709 54.5518 27.3661 54.5645C27.7216 54.5963 28.4391 55.4026 28.4645 55.7582Z" fill="#4D2505"/>
<path d="M96.5408 61.4214C95.9122 61.269 95.29 61.1166 94.6614 60.9706C94.5027 60.9325 94.344 60.8944 94.3567 60.6785C94.363 60.4626 94.5344 60.4309 94.6932 60.4055C95.2392 60.3166 95.7345 60.5325 96.2297 60.6976C96.5979 60.8182 96.3948 61.1991 96.5345 61.4214H96.5408Z" fill="#4D2505"/>
<path d="M9.16919 63.6566C9.00411 63.6185 8.81999 63.6312 8.78824 63.4281C8.7565 63.2312 8.89618 63.1297 9.04221 63.0789C9.45491 62.9328 9.87396 62.7995 10.2994 62.6789C10.4708 62.6281 10.6105 62.717 10.693 62.8757C10.7882 63.0662 10.6613 63.2185 10.5343 63.2693C10.0962 63.4535 9.64538 63.6312 9.17554 63.6566H9.16919Z" fill="#4D2505"/>
<path d="M74.903 49.4217C75.0618 49.4217 75.2268 49.3963 75.3792 49.4281C75.4808 49.4471 75.6078 49.5297 75.6459 49.6122C75.7221 49.8027 75.5634 49.8916 75.411 49.9551C75.2967 49.9995 75.1824 50.0313 75.0681 50.0566C74.6427 50.1646 74.211 50.2852 73.7983 50.0186C73.7475 49.9868 73.6967 49.8598 73.7221 49.809C73.9824 49.2947 74.503 49.5424 74.903 49.4217Z" fill="#4D2505"/>
<path d="M19.8301 67.1995C19.8174 67.2757 19.8301 67.3772 19.7857 67.4217C19.4936 67.682 19.2015 67.9487 18.8777 68.1709C18.7063 68.2915 18.4841 68.2344 18.3571 68.0439C18.2491 67.8788 18.3571 67.7265 18.4904 67.6439C18.7888 67.4534 18.9539 67.0788 19.3285 67.009C19.519 66.9709 19.7222 66.9773 19.8301 67.1995Z" fill="#4D2505"/>
<path d="M58.2938 64.3995C58.243 64.4694 58.1922 64.6218 58.1097 64.6471C57.6208 64.7995 57.17 65.1551 56.6176 64.9456C56.5033 64.9011 56.4652 64.736 56.5477 64.6408C56.9287 64.2218 57.4684 64.171 57.9763 64.0757C58.135 64.044 58.2874 64.1519 58.2874 64.3995H58.2938Z" fill="#4D2505"/>
<path d="M70.5601 63.8723C71.6521 63.4469 72.0521 63.5167 72.7759 64.1516C72.2214 64.3506 71.4828 64.2575 70.5601 63.8723Z" fill="#4D2505"/>
<path d="M93.2075 64.7995C93.1504 63.9042 93.6012 63.2312 94.2615 63.1169C94.3567 63.0979 94.5155 63.1677 94.5599 63.2439C94.6424 63.3836 94.598 63.5487 94.471 63.6757C94.4456 63.7011 94.4139 63.7328 94.3885 63.7582C94.0393 64.0693 93.6837 64.3804 93.2075 64.7995Z" fill="#4D2505"/>
<path d="M36.0334 42.8628C36.0461 43.1867 35.1699 44.1835 34.8144 44.2406C34.662 44.266 34.5858 44.1644 34.5604 44.0501C34.4842 43.6692 35.4556 42.5771 35.8239 42.6152C35.9572 42.6279 36.0207 42.7232 36.0334 42.8565V42.8628Z" fill="#4D2505"/>
<path d="M21.2135 48.7865C20.7627 49.3389 20.8135 49.942 20.4834 50.3801C20.3754 50.5262 20.0262 50.4436 20.0389 50.2151C20.0707 49.6754 20.077 49.0912 20.5342 48.6785C20.6167 48.6024 20.7183 48.5262 20.8516 48.6024C20.9532 48.6595 21.0611 48.7103 21.2199 48.7865H21.2135Z" fill="#4D2505"/>
<path d="M30.3698 72.99C30.3253 73.0661 30.2873 73.1804 30.2111 73.2566C29.8873 73.5677 29.4619 73.6947 29.0428 73.809C28.9539 73.8344 28.7888 73.7582 28.738 73.682C28.6492 73.536 28.6936 73.3646 28.8523 73.2757C29.2333 73.0725 29.6206 72.8693 30.0269 72.7042C30.1603 72.6535 30.3317 72.7614 30.3698 72.99Z" fill="#4D2505"/>
<path d="M6.06434 54.9706C5.87386 54.9642 5.77228 54.85 5.75958 54.6785C5.74053 54.2849 6.62942 53.5484 7.03577 53.6309C7.2199 53.669 7.26434 53.8277 7.22625 53.9992C7.1945 54.1325 6.20402 54.9452 6.06434 54.9706Z" fill="#4D2505"/>
<path d="M76.2487 65.8405C76.2233 65.885 76.1852 66.0246 76.1026 66.0691C75.6074 66.304 75.1185 66.5834 74.5407 66.4754C74.401 66.45 74.401 66.285 74.4391 66.177C74.5344 65.9104 75.6455 65.4723 76.0328 65.5421C76.1407 65.5612 76.2677 65.6119 76.2423 65.8342L76.2487 65.8405Z" fill="#4D2505"/>
<path d="M44.0079 59.3262C44.4206 59.4024 44.8778 60.2278 44.7318 60.6024C44.7 60.6913 44.554 60.7992 44.4651 60.7928C44.1794 60.7801 43.6524 59.8024 43.773 59.5039C43.8111 59.4151 43.9381 59.3706 44.0079 59.3198V59.3262Z" fill="#4D2505"/>
<path d="M50.4073 61.1106C50.0517 59.9932 50.293 59.4408 51.0295 59.2503C51.1438 59.2186 51.2898 59.2186 51.3406 59.3392C51.3787 59.4344 51.3977 59.6186 51.3406 59.663C50.9342 59.9868 50.7057 60.4376 50.4009 61.1106H50.4073Z" fill="#4D2505"/>
<path d="M68.82 70.482C68.7248 70.4693 68.6804 70.482 68.6486 70.4629C68.2677 70.2979 67.5565 70.1963 67.6772 69.7836C67.8677 69.1423 68.3819 69.8026 68.7565 69.8026C68.7946 69.8026 68.8327 69.8217 68.8708 69.8407C69.0804 69.955 69.5311 69.8407 69.3915 70.2852C69.3089 70.5518 68.9915 70.4629 68.82 70.482Z" fill="#4D2505"/>
<path d="M63.4367 44.3486C63.5764 44.3486 63.697 44.3423 63.8113 44.3486C64.0589 44.3677 64.3192 44.4058 64.3002 44.7232C64.2875 44.9518 64.0716 45.0153 63.8621 45.0343C63.7414 45.047 63.6272 45.0534 63.5065 45.0534C63.17 45.0597 62.6684 45.2185 62.6303 44.7423C62.5922 44.228 63.1319 44.4058 63.4303 44.3423L63.4367 44.3486Z" fill="#4D2505"/>
<path d="M91.2326 63.9296C91.1184 64.3106 91.4231 64.9645 90.9406 64.9836C90.3819 65.0026 90.6295 64.3487 90.6422 64.0058C90.6612 63.5804 90.3501 62.8185 90.966 62.8058C91.4358 62.7931 91.0803 63.5614 91.2326 63.9296Z" fill="#4D2505"/>
<path d="M44.7946 68.5518C44.6422 68.5264 44.4454 68.5137 44.2549 68.463C44.1978 68.4503 44.147 68.3614 44.1152 68.2979C44.0517 68.1582 44.1597 68.0376 44.2549 68.0185C44.7184 67.9233 45.1882 67.8534 45.6581 67.7963C45.8168 67.7772 45.9755 67.8534 46.0009 68.0503C46.0327 68.2979 45.8739 68.4058 45.6644 68.4439C45.3914 68.4884 45.112 68.5137 44.7946 68.5518Z" fill="#4D2505"/>
<path d="M9.37231 58.571C9.34056 58.8059 9.23897 58.9646 8.98501 58.9075C8.77548 58.8631 8.18501 57.7456 8.30564 57.6186C8.48977 57.4091 8.75009 57.4154 8.94691 57.5996C9.23263 57.8535 9.22628 58.2535 9.37231 58.571Z" fill="#4D2505"/>
<path d="M50.7951 74.1519C50.8396 74.863 50.5221 75.39 49.9951 75.4979C49.8681 75.5233 49.7411 75.4725 49.7031 75.3582C49.6713 75.2566 49.684 75.1169 49.7221 75.0153C49.8237 74.7741 50.2745 74.4312 50.7951 74.1519Z" fill="#4D2505"/>
<path d="M73.8491 52.1454C73.811 51.7899 73.7602 51.4978 74.0777 51.4534C74.3952 51.4089 74.4523 51.7327 74.4841 51.9422C74.5475 52.3232 74.7317 52.7232 74.465 53.0978C74.4269 53.1549 74.2999 53.2184 74.2618 53.1994C73.811 52.9264 73.8872 52.4502 73.8491 52.1454Z" fill="#4D2505"/>
<path d="M27.1377 78.7802C26.8393 78.7167 26.7123 78.5643 26.8711 78.3548C27.1885 77.9294 27.6393 77.6691 28.1727 77.65C28.3949 77.6437 28.5663 77.9103 28.4076 78.0627C28.0393 78.4056 27.5822 78.6405 27.1377 78.7802Z" fill="#4D2505"/>
<path d="M10.5729 67.1867C10.4904 67.3709 10.4459 67.5677 10.3317 67.7201C10.1475 67.9677 9.91895 68.2915 9.58244 68.0312C9.26498 67.7899 9.56975 67.5487 9.73482 67.3391C9.83006 67.2121 9.9253 67.0852 10.0332 66.9772C10.1158 66.8947 10.2237 66.8121 10.338 66.9074C10.4269 66.9772 10.484 67.0788 10.5729 67.1867Z" fill="#4D2505"/>
<path d="M26.2487 60.9582C26.4265 60.9645 26.5534 61.0725 26.6106 61.2185C26.7312 61.5106 26.8328 61.809 26.928 62.1074C26.9788 62.2661 26.9344 62.4376 26.7884 62.5201C26.6233 62.609 26.4773 62.501 26.3947 62.3614C26.1915 62.0185 26.0201 61.663 25.9884 61.263C25.9757 61.1106 26.0392 60.9455 26.2487 60.9518V60.9582Z" fill="#4D2505"/>
<path d="M54.465 60.5581C54.465 60.4819 54.446 60.3613 54.465 60.247C54.4904 60.1327 54.5475 60.0184 54.6872 60.0057C54.8142 59.993 54.9539 60.0311 54.9729 60.1518C55.0618 60.6597 55.138 61.1676 55.1952 61.6819C55.2079 61.7962 55.0999 61.9105 54.9666 61.8915C54.8587 61.8788 54.7253 61.8407 54.6618 61.7581C54.3825 61.4089 54.5666 60.9835 54.4587 60.5581H54.465Z" fill="#4D2505"/>
<path d="M12.7504 59.4027C12.6996 59.6567 12.56 59.7583 12.325 59.6757C12.2552 59.6503 12.1663 59.6059 12.1346 59.5424C11.9568 59.2059 11.506 58.99 11.6584 58.5138C11.6774 58.4503 11.8806 58.3869 11.9631 58.4186C12.4266 58.5773 12.5727 59.0091 12.7504 59.3964V59.4027Z" fill="#4D2505"/>
<path d="M94.1033 67.3897C94.1414 67.7706 93.4684 68.3167 93.1065 68.177C93.0176 68.1452 92.9224 67.9992 92.9224 67.9103C92.9224 67.5865 93.5382 67.1103 93.8874 67.1548C94.0144 67.1675 94.0843 67.2627 94.1033 67.3897Z" fill="#4D2505"/>
<path d="M95.5445 56.577C95.2905 56.5516 95.0492 56.577 95.0238 56.3039C94.9984 56.0246 95.2397 56.0309 95.4302 55.9738C95.773 55.8722 96.1222 55.7008 96.4587 55.9674C96.5476 56.0373 96.5794 56.177 96.4905 56.2912C96.2302 56.6468 95.8111 56.4373 95.5508 56.577H95.5445Z" fill="#4D2505"/>
<path d="M85.2643 49.9929C85.1818 50.1135 85.131 50.2214 85.0485 50.2913C84.9405 50.3865 84.8262 50.3103 84.731 50.2468C84.331 49.9675 84.2612 49.5294 84.185 49.0976C84.1723 49.0214 84.2992 48.9072 84.3881 48.8437C84.4326 48.8119 84.5659 48.831 84.5913 48.8691C84.8199 49.2373 85.0421 49.6119 85.2643 49.9929Z" fill="#4D2505"/>
<path d="M53.7474 75.6436C54.2553 76.2531 54.5601 76.742 54.5982 77.3642C54.6046 77.5229 54.5601 77.6944 54.376 77.7388C54.1855 77.7832 54.0585 77.6753 54.0522 77.4975C54.0268 76.9197 53.3474 76.488 53.7538 75.6499L53.7474 75.6436Z" fill="#4D2505"/>
<path d="M73.335 84.4123C73.1636 84.3996 73.0429 84.3932 72.9223 84.3805C72.7509 84.3551 72.6175 84.2662 72.6302 84.0821C72.6366 83.9742 72.7001 83.8662 72.8461 83.8472C73.2017 83.7964 73.5509 83.7075 73.9001 83.6694C74.0525 83.6567 74.2175 83.7266 74.2366 83.9297C74.2556 84.1202 74.1286 84.2345 73.9826 84.2853C73.754 84.3551 73.5128 84.3805 73.3286 84.4123H73.335Z" fill="#4D2505"/>
<path d="M71.309 59.7137C71.309 59.9486 71.2455 60.1327 71.0105 60.1645C70.7375 60.2026 70.6931 59.9804 70.6677 59.7835C70.6169 59.3899 70.5153 58.9899 70.7756 58.6343C70.801 58.5962 70.9471 58.5835 70.9915 58.6216C71.3661 58.9073 71.1185 59.3835 71.309 59.7137Z" fill="#4D2505"/>
<path d="M47.9635 72.1391C47.9381 72.209 47.9317 72.3042 47.8809 72.3423C47.5698 72.5836 46.6746 72.3487 46.5222 71.9741C46.4841 71.8852 46.5158 71.7328 46.5666 71.6439C46.6619 71.4725 46.8142 71.5296 46.9793 71.5804C47.5317 71.7582 47.9444 71.9804 47.9698 72.1455L47.9635 72.1391Z" fill="#4D2505"/>
<path d="M78.9916 65.32C79.3408 65.2565 79.4297 65.5867 79.6138 65.7771C79.7725 65.9486 80.0011 66.1073 79.8868 66.3867C79.8551 66.4692 79.6709 66.5581 79.5884 66.5327C79.1313 66.3867 78.8963 66.0248 78.782 65.5867C78.744 65.447 78.8646 65.3835 78.9916 65.3263V65.32Z" fill="#4D2505"/>
<path d="M16.0079 52.4374C16.0397 52.8374 15.3285 53.4723 14.9666 53.3643C14.9032 53.3453 14.8143 53.2754 14.8016 53.2183C14.7381 52.831 15.0619 52.6723 15.2714 52.45C15.4365 52.2786 15.627 52.1199 15.8873 52.2405C15.9444 52.2659 15.9635 52.3675 16.0016 52.431L16.0079 52.4374Z" fill="#4D2505"/>
<path d="M59.9694 41.1932C59.2837 41.6059 58.8583 41.3519 58.4774 40.9646C58.4456 40.9329 58.4773 40.7741 58.5154 40.7551C59.0805 40.463 59.4678 40.7678 59.9631 41.1932H59.9694Z" fill="#4D2505"/>
<path d="M14.8135 64.3042C14.8008 64.4692 14.7056 64.6343 14.5278 64.5708C14.1151 64.4248 13.9501 64.0502 13.8358 63.6692C13.7977 63.5486 13.8993 63.4343 14.0199 63.4026C14.331 63.32 14.8072 63.8534 14.8199 64.3042H14.8135Z" fill="#4D2505"/>
<path d="M93.5756 70.4438C93.8168 70.4438 94.0264 70.5264 93.9946 70.755C93.9565 71.0153 93.6898 71.1042 93.4549 71.1105C93.3152 71.1105 93.1438 71.0089 93.1311 70.8311C93.1057 70.501 93.366 70.4819 93.5756 70.4502V70.4438Z" fill="#4D2505"/>
</g>
<defs>
<linearGradient id="paint0_linear_280_2808" x1="50.6997" y1="43" x2="50.6997" y2="63" gradientUnits="userSpaceOnUse">
<stop stop-color="#F4C061"/>
<stop offset="1" stop-color="#BC882E"/>
</linearGradient>
<clipPath id="clip0_280_2808">
<rect width="100" height="100" fill="white" transform="translate(0.83374 0.189941)"/>
</clipPath>
</defs>
</svg>
