<svg width="100" height="100" viewBox="0 0 100 100" fill="none" xmlns="http://www.w3.org/2000/svg">
<g id="Gateau-2" clip-path="url(#clip0_27_285571)">
<path id="Vector" d="M98.1269 83.7395C97.3523 85.5808 96.5079 87.3078 95.0222 88.7808C93.6317 90.1586 92.3047 91.7395 90.5968 92.5332C88.5333 93.4919 86.4698 94.4887 84.3745 95.3966C81.7269 96.5395 78.946 97.3903 76.2095 97.9935C73.6761 98.5585 71.0031 98.8697 68.3745 99.2125C59.2444 100.393 50.0698 100.298 40.9142 100.019C31.4031 99.7332 21.9428 98.5966 13.0539 94.8697C7.29518 92.457 2.45073 88.9776 0.577718 82.5713C0.463432 82.1776 0.3174 81.803 0.418988 81.3839C0.996765 81.7903 1.26978 82.5712 2.05708 82.7173C3.28883 83.6633 4.66661 83.4284 5.99994 83.1236C8.36819 82.5776 10.419 81.3205 12.4698 80.0887C15.219 78.4316 17.8158 76.5332 20.6857 75.0855C25.0285 72.8951 26.9904 73.9109 27.7333 78.6792C27.9047 79.8157 27.7714 81.003 28.2603 82.0887C28.2349 82.3871 28.2349 82.6728 28.5206 82.8697L28.5079 82.9839C28.9269 84.9014 30.2349 85.9808 32.0444 86.349C37.638 87.5046 42.1523 85.6316 45.6888 81.2506C47.1047 79.5046 48.1396 77.5109 49.3333 75.6189C50.4825 73.7903 50.546 73.7776 52.4063 74.876C53.1872 75.657 53.9745 76.4443 54.7555 77.2252C57.092 80.0443 59.5364 82.7681 62.3936 85.0855C65.3841 87.5173 68.546 88.9712 72.6285 87.8855C75.9999 86.9903 77.7904 85.2379 77.8222 81.7903C77.8539 80.9395 77.8857 80.0887 77.911 79.2379C77.9682 77.0474 77.5365 74.8379 78.1904 72.6728C79.092 71.4792 80.3365 71.0919 81.7841 71.0093C84.8825 70.8316 87.2571 72.2792 89.4349 74.222C91.6888 76.2347 93.4031 78.7046 95.2634 81.0538C96.0825 82.0824 96.8317 83.1935 98.1079 83.7459L98.1269 83.7395Z" fill="#E9D5B7"/>
<path id="Vector_2" d="M2.06312 82.7173C1.27581 82.5713 0.99645 81.7903 0.425021 81.384C0.399624 81.2062 0.380577 81.0348 0.35518 80.857C0.266291 80.6538 0.177402 80.4507 0.0885132 80.2475C-0.000375685 80.1967 -0.0194233 80.1269 0.0250211 80.0316C0.0948624 77.9618 -0.0384709 75.8792 0.367878 73.8284C1.47264 70.0443 3.62502 66.9903 6.78693 64.6348C7.80915 67.1046 9.39645 68.9269 12.1838 69.4665C14.6599 69.9427 18.1266 68.9015 19.0853 66.8189C19.3139 66.6792 19.3838 66.457 19.3901 66.2094C19.4853 66.1015 19.5806 65.9935 19.6822 65.8919C20.0377 65.6697 19.9806 65.3142 19.9869 64.9776C20.0758 64.8634 20.2091 64.7554 20.2536 64.6221C21.0853 62.184 19.9933 60.311 18.4504 58.5713C21.8853 57.3078 25.4409 56.5078 29.0218 55.8094C29.4663 55.7205 29.9044 55.5935 30.3425 55.4856C32.4822 55.238 34.6409 55.0983 36.7552 54.711C37.9933 54.4824 39.2949 54.9142 40.4695 54.2729C41.3139 54.3872 42.1266 54.2411 42.9266 53.9618C43.2568 53.9554 43.5806 53.9427 43.9107 53.9364C48.6345 53.2062 53.3647 53.238 58.0949 53.8856C58.7425 53.9745 59.4091 54.1205 60.0695 53.9237C63.2949 54.8761 66.6472 55.0348 69.9552 55.4856C70.7933 55.9872 71.7076 55.7967 72.6028 55.784C72.9266 55.9808 73.2441 56.1713 73.5679 56.3681C75.7965 56.6094 77.9107 57.2824 80.0314 57.9554C79.8663 58.2729 79.7012 58.584 79.5425 58.9015C77.9234 62.184 78.9393 65.5364 82.1076 67.3776C84.5901 68.8189 87.0663 68.438 89.5361 67.3205C89.5488 67.4221 89.5361 67.53 89.5679 67.6253C90.8758 71.8665 93.6822 75.2189 96.2028 78.7427C96.3933 79.0094 96.6853 79.3396 97.0917 79.111C97.4409 78.9142 97.4663 78.5269 97.4536 78.1649C97.3203 73.0729 95.2949 68.9903 90.952 66.1586C91.4155 65.3268 91.879 64.4888 92.3425 63.657C94.7996 65.1872 96.7869 67.1935 98.3298 69.6253C99.4345 71.3713 100.133 73.2189 99.9615 75.3586C99.8346 76.9205 99.9171 78.5015 99.9488 80.0761C99.9615 80.7999 99.879 81.4856 99.4726 82.1015C98.0123 82.2475 97.0472 81.3903 96.279 80.3681C94.5393 78.0507 92.5139 76.0062 90.4504 73.9872C87.7711 71.3586 84.5965 70.0126 80.8123 70.4951C79.5869 70.6538 78.2218 70.9332 78.2028 72.6665C77.5425 74.8316 77.9806 77.0411 77.9234 79.2316C77.898 80.0824 77.8663 80.9332 77.8345 81.784C77.2314 83.1808 76.6409 84.6983 75.079 85.2316C71.6187 86.4126 68.152 87.0538 64.6917 85.0284C61.5425 83.1872 58.9139 80.7618 56.3742 78.2157C55.9234 77.7649 55.5679 77.1237 54.7615 77.2189C53.9806 76.438 53.1933 75.6507 52.4123 74.8697C52.425 73.6697 51.3711 73.5554 50.6282 73.3142C49.8726 73.0729 49.479 73.8348 49.1234 74.3681C47.1044 77.3459 45.2949 80.4761 42.2536 82.6348C39.1933 84.8062 31.7203 86.2284 28.5139 82.9776L28.5266 82.8634C28.5203 82.5776 28.5457 82.2792 28.2663 82.0824C27.7774 80.9967 27.9107 79.8094 27.7393 78.6729C28.1012 77.8411 27.9996 76.9713 27.8282 76.1332C27.225 73.2253 25.9361 72.4697 23.0028 73.1491C22.3933 73.2888 21.8472 73.5173 21.2949 73.7713C18.3171 75.1173 15.6504 76.9903 12.8377 78.6284C9.47899 80.5776 6.28534 83.0348 2.05677 82.711L2.06312 82.7173ZM30.9964 68.0126C30.8949 68.1142 30.7933 68.2157 30.6917 68.3173C30.133 68.5967 29.9742 69.1491 29.7901 69.6697C28.0758 74.4507 32.1266 79.0919 37.4409 78.3872C39.7203 78.0824 42.7171 76.0888 43.2123 72.3364C43.4853 70.2665 41.9933 67.5173 39.9171 66.4761C39.498 66.0253 38.9774 65.8475 38.3742 65.8792C36.3425 64.6348 32.7615 65.4348 31.5996 67.3967C31.498 67.4983 31.4028 67.6062 31.3012 67.7078C31.1996 67.8094 31.098 67.911 30.9964 68.0126ZM70.2155 67.4157V67.4284C69.2568 65.9681 66.5711 64.9713 64.7298 65.4602C64.3107 65.5681 63.6123 65.3396 63.5298 66.1205C63.0917 66.184 62.6536 66.2221 62.2853 66.5142C62.0187 66.5015 61.7774 66.5395 61.6504 66.8189H61.6822C57.8409 68.8507 57.5996 74.4634 61.2377 77.1046C64.0568 79.1491 67.0219 78.9142 69.9171 77.1173C70.5774 79.0221 70.5647 81.0919 71.333 82.9713C71.479 83.3269 71.5996 83.8094 72.1203 83.7776C72.5012 83.7522 72.7171 83.403 72.8758 83.0919C73.2695 82.3237 73.5171 81.5173 73.5806 80.6348C73.7457 78.3554 73.3711 76.203 72.2726 74.1903C72.3044 73.1427 72.4504 72.0824 72.3425 71.0538C72.2028 69.7332 71.898 68.4062 70.5076 67.7269H70.5266C70.4187 67.6253 70.3171 67.5237 70.2092 67.4157H70.2155ZM51.8091 65.8729C54.2091 66.0507 57.0663 65.8856 59.8917 65.5364C62.9012 65.1681 65.9552 64.8824 68.7615 63.5554C69.498 63.2062 70.4758 62.8888 70.3869 61.9554C70.3044 61.0729 69.4345 60.584 68.6345 60.2094C68.4504 60.1205 68.2472 60.0888 68.0504 60.0253C63.5361 58.4507 58.7996 58.2284 54.1012 57.9745C49.1742 57.7078 44.2472 58.1205 39.3647 58.8761C37.3584 59.1872 35.352 59.5618 33.5615 60.6348C32.2536 61.4157 32.1838 62.3173 33.4282 63.2126C34.2663 63.8094 35.2377 64.1142 36.2345 64.3618C41.1996 65.5872 46.2472 65.9681 51.8028 65.8665L51.8091 65.8729Z" fill="#903F1C"/>
<path id="Vector_3" d="M89.5356 67.3205C87.0658 68.4443 84.596 68.8252 82.1071 67.3776C78.9388 65.5364 77.9229 62.184 79.542 58.9014C79.7007 58.584 79.8658 58.2729 80.0309 57.9554C80.6658 57.5364 80.9896 56.6983 81.8658 56.6157C81.2817 57.7903 81.7325 58.5395 82.8626 58.9903C84.9452 59.8094 87.0785 60.0189 89.2499 59.3713C90.1388 59.1046 90.7928 58.603 90.7547 57.5491C92.3737 58.6284 92.6023 60.2792 92.5833 62.0189C92.5833 62.5649 92.4309 63.1046 92.342 63.6506C91.8785 64.4824 91.415 65.3205 90.9515 66.1522C90.3293 66.3554 89.942 66.8506 89.5293 67.3141L89.5356 67.3205ZM91.669 62.2221C91.669 61.8983 91.6626 61.7459 91.669 61.5935C91.7198 60.6983 91.4468 59.803 90.5515 59.6887C89.688 59.5745 89.3071 60.4633 89.1737 61.2252C88.9452 62.5649 88.7547 63.911 88.6404 65.2633C88.5579 66.1903 89.0277 66.3554 89.7388 65.7967C90.9452 64.8379 91.796 63.6951 91.6753 62.2221H91.669Z" fill="#A90202"/>
<path id="Vector_4" d="M19.085 66.8252C18.1199 68.9078 14.6596 69.949 12.1834 69.4728C9.38974 68.9332 7.80879 67.1109 6.78657 64.6411C6.75482 63.2824 6.60244 61.9046 7.28815 60.6347C7.54847 60.1586 7.6945 59.5744 8.32942 59.422C8.19609 60.8189 8.91355 61.3585 10.2405 61.3078C11.0532 61.276 11.8723 61.3395 12.685 61.2633C15.5167 61.0157 17.1358 59.7332 17.212 57.7395C17.6247 58.0189 18.0437 58.2982 18.4564 58.5776C19.9993 60.3173 21.0913 62.1903 20.2596 64.6284C20.2151 64.7617 20.0818 64.8633 19.9929 64.9839L19.9485 64.9459C20.0374 63.5236 20.1072 62.0951 19.0596 60.9395C18.6532 60.4887 18.1834 60.0824 17.4786 60.3109C16.7485 60.5459 16.285 61.1871 16.4247 61.7966C16.7802 63.3014 16.7929 64.8824 17.4659 66.3173C17.8278 67.0919 18.304 67.0665 18.9072 66.6474C18.9707 66.7109 19.0342 66.7681 19.0977 66.8316L19.085 66.8252Z" fill="#A90202"/>
<path id="Vector_5" d="M73.5673 56.3744C73.2435 56.1776 72.926 55.9871 72.6022 55.7903C72.6276 55.1363 72.6657 54.4824 72.6784 53.8284C72.6911 53.276 72.4752 52.7808 71.9482 52.6157C71.326 52.4189 70.8816 52.8506 70.5958 53.3459C70.2149 53.9998 69.9673 54.7173 69.9482 55.4919C66.6403 55.0411 63.2942 54.8824 60.0625 53.93C60.145 51.1617 61.4784 49.0411 63.4847 48.4824C62.9704 49.7395 63.7895 50.3808 64.6974 50.8887C66.4244 51.8538 68.3038 52.2538 70.2847 52.1141C71.8339 52.0062 72.272 51.4855 72.1577 49.93C73.6752 51.1617 73.8212 52.857 73.7387 54.6157C73.7133 55.2062 73.3831 55.7649 73.5609 56.3808L73.5673 56.3744Z" fill="#A90202"/>
<path id="Vector_6" d="M40.4712 54.2728C39.2966 54.9078 37.995 54.4824 36.7569 54.7109C34.6426 55.0982 32.4839 55.2379 30.3442 55.4855C29.6458 53.2125 30.3759 50.6982 32.141 49.3141C32.2997 50.4633 32.9474 51.0474 34.1029 51.2887C35.8362 51.6506 37.5442 51.6189 39.2204 51.13C40.414 50.7871 41.5696 50.2855 41.4743 48.7046C43.4616 49.9046 43.8172 51.8601 43.9061 53.9363C43.5759 53.9427 43.2521 53.949 42.922 53.9617C42.8966 53.4094 42.9537 52.8379 42.8204 52.3173C42.6553 51.6887 42.3632 50.9776 41.5759 50.9776C40.7632 50.9776 40.6426 51.7332 40.3886 52.349C40.1093 53.0284 40.414 53.6379 40.4648 54.2792L40.4712 54.2728Z" fill="#A90202"/>
<path id="Vector_7" d="M78.2173 72.6665C78.2363 70.9332 79.6014 70.6538 80.8268 70.4951C84.6109 70.0125 87.7855 71.3649 90.4649 73.9871C92.5284 76.0062 94.5538 78.0506 96.2935 80.3681C97.0617 81.3966 98.0268 82.2474 99.4871 82.1014C99.2776 82.8443 99.0744 83.5935 98.1284 83.7332C96.8522 83.1808 96.0967 82.0697 95.284 81.0411C93.4236 78.6919 91.7093 76.222 89.4554 74.2093C87.2776 72.2665 84.8966 70.8189 81.8046 70.9966C80.357 71.0792 79.1125 71.4728 78.2109 72.6601L78.2173 72.6665Z" fill="#773417"/>
<path id="Vector_8" d="M90.7621 57.5554C90.8065 58.6093 90.1525 59.1109 89.2573 59.3776C87.0859 60.0252 84.9525 59.8157 82.87 58.9966C81.7335 58.5522 81.2827 57.803 81.8732 56.622C82.3875 56.3427 82.9017 56.0633 83.4097 55.7839C83.8414 55.9617 83.6637 56.3871 83.7843 56.6919C84.1589 57.6633 85.6192 58.1522 86.9017 57.8411C88.2097 57.5236 87.9494 56.6665 87.7335 55.7776C89.0097 55.9173 90.0065 56.5268 90.7621 57.549V57.5554Z" fill="#EC5D41"/>
<path id="Vector_9" d="M17.2056 57.7332C17.1294 59.7268 15.5103 61.0093 12.6786 61.257C11.8722 61.3268 11.0532 61.2697 10.2341 61.3014C8.9135 61.3522 8.19604 60.8125 8.32302 59.4157C8.77381 58.5014 9.72619 58.203 10.4754 57.6443C10.85 58.5966 10.9579 59.7776 12.5389 59.4792C13.8087 59.2379 14.8691 58.8824 15.0214 57.384C15.7706 57.3586 16.5643 57.0601 17.1992 57.7395L17.2056 57.7332Z" fill="#EC5D41"/>
<path id="Vector_10" d="M41.4798 48.7046C41.5751 50.2919 40.4195 50.7872 39.2258 51.13C37.5497 51.6125 35.8417 51.6506 34.1084 51.2887C32.9528 51.0475 32.3052 50.457 32.1465 49.3141L32.1846 49.3649C32.4068 49.3649 32.5084 49.2506 32.5147 49.0348L32.4893 49.0602C32.6989 49.0538 32.8132 48.9459 32.8258 48.7364L32.8068 48.7681C33.0608 48.711 33.0925 48.4951 33.1497 48.2983C33.283 48.0633 33.4735 47.911 33.7528 47.9046C34.0258 48.1586 34.3052 48.33 34.4449 48.7745C34.8322 49.9808 35.9497 49.7268 36.8703 49.6887C37.6322 49.657 38.5909 49.4729 38.5655 48.5713C38.5401 47.5427 39.0163 47.7967 39.5116 47.9745C39.9497 48.1332 40.3687 48.2538 40.8322 48.1586L40.8132 48.1395C40.8005 48.3681 40.9338 48.457 41.1433 48.457L41.1243 48.4379C41.1306 48.6538 41.2449 48.7554 41.4608 48.7554L41.4735 48.7046H41.4798Z" fill="#EC5D41"/>
<path id="Vector_11" d="M72.1655 49.9236C72.2798 51.4792 71.8417 51.9998 70.2925 52.1078C68.3115 52.2474 66.4322 51.8474 64.7052 50.8824C63.8036 50.3808 62.9782 49.7395 63.4925 48.476C63.9052 48.2665 64.3115 48.0506 64.7242 47.8411C65.2131 47.9046 65.8671 47.4919 65.7338 48.6538C65.6258 49.6189 66.7179 49.9046 67.556 50.1395C68.3814 50.3681 69.4036 50.3808 69.702 49.5808C70.1274 48.457 70.483 48.8824 71.0099 49.3522C71.2385 49.5554 71.4734 49.7458 71.8163 49.6443L71.7845 49.6316C71.7845 49.8538 71.8925 49.9617 72.1084 49.9617L72.1528 49.9109L72.1655 49.9236Z" fill="#EC5D41"/>
<path id="Vector_12" d="M71.8225 49.657C71.4797 49.7586 71.2448 49.5681 71.0162 49.3649C70.4892 48.8951 70.1336 48.4633 69.7082 49.5935C69.4035 50.3871 68.3876 50.3808 67.5622 50.1522C66.7305 49.9236 65.6321 49.6316 65.74 48.6665C65.8733 47.5046 65.2194 47.9173 64.7305 47.8538C67.1559 46.6856 70.7051 47.5935 71.8289 49.6633L71.8225 49.657Z" fill="#A90202"/>
<path id="Vector_13" d="M40.8372 48.1585C40.3737 48.2538 39.9546 48.1331 39.5165 47.9744C39.0213 47.7966 38.5451 47.5427 38.5705 48.5712C38.5959 49.4728 37.6372 49.657 36.8753 49.6887C35.9546 49.7331 34.8372 49.9871 34.4499 48.7744C34.3038 48.33 34.0245 48.1585 33.7578 47.9046C36.1642 46.7173 38.5261 46.5966 40.8372 48.1585Z" fill="#A90202"/>
<path id="Vector_14" d="M87.734 55.784C87.9498 56.6665 88.2165 57.53 86.9022 57.8475C85.6197 58.1586 84.1594 57.6697 83.7848 56.6982C83.6705 56.3935 83.8419 55.9681 83.4102 55.7903C84.8514 55.0982 86.2927 54.7363 87.734 55.7903V55.784Z" fill="#A90202"/>
<path id="Vector_15" d="M15.0285 57.3776C14.8761 58.876 13.8158 59.2316 12.5459 59.4728C10.965 59.7776 10.857 58.5903 10.4824 57.6379C11.6761 56.73 13.0475 56.6982 14.457 56.8252C14.4062 57.2633 14.6412 57.3966 15.0348 57.3586V57.3713L15.0285 57.3776Z" fill="#A90202"/>
<path id="Vector_16" d="M15.03 57.3649C14.6363 57.403 14.4014 57.2697 14.4522 56.8316C14.8903 56.749 15.1506 56.8506 15.03 57.3649Z" fill="#EC5D41"/>
<path id="Vector_17" d="M0.0889358 80.2474C0.177825 80.4506 0.266714 80.6538 0.355603 80.857C0.13338 80.7109 0.063539 80.4951 0.0889358 80.2474Z" fill="#773417"/>
<path id="Vector_18" d="M72.1209 49.9681C71.8987 49.9681 71.7908 49.8601 71.7971 49.6379C72.1273 49.53 72.2352 49.6379 72.1209 49.9681Z" fill="#A90202"/>
<path id="Vector_19" d="M32.514 49.0347C32.5013 49.2443 32.406 49.3649 32.1838 49.3649C32.0886 49.0474 32.1965 48.9332 32.514 49.0347Z" fill="#A90202"/>
<path id="Vector_20" d="M32.8308 48.7363C32.8117 48.9458 32.7038 49.0538 32.4943 49.0601C32.3864 48.7236 32.5514 48.6728 32.8308 48.7363Z" fill="#A90202"/>
<path id="Vector_21" d="M41.4654 48.7553C41.2495 48.7553 41.1353 48.6538 41.1289 48.4379C41.3511 48.4252 41.548 48.4379 41.4654 48.7553Z" fill="#A90202"/>
<path id="Vector_22" d="M33.1558 48.2982C33.0986 48.495 33.0669 48.7173 32.8129 48.7681C32.724 48.4633 32.9844 48.4125 33.1558 48.2982Z" fill="#A90202"/>
<path id="Vector_23" d="M41.1494 48.457C40.9335 48.457 40.8065 48.3681 40.8192 48.1395C41.0097 48.1649 41.1748 48.2157 41.1494 48.457Z" fill="#A90202"/>
<path id="Vector_24" d="M28.5273 82.9776C31.7337 86.2284 39.2067 84.8062 42.267 82.6348C45.3083 80.476 47.1115 77.3459 49.1369 74.3681C49.4988 73.8348 49.8861 73.0729 50.6416 73.3141C51.3908 73.5554 52.4385 73.6697 52.4258 74.8697C50.5654 73.7713 50.5019 73.784 49.3527 75.6125C48.1654 77.5046 47.1242 79.4919 45.7083 81.2443C42.1654 85.6252 37.6575 87.4983 32.0639 86.3427C30.2607 85.9681 28.9464 84.8887 28.5273 82.9776Z" fill="#773417"/>
<path id="Vector_25" d="M54.7734 77.2189C55.5734 77.1236 55.9353 77.7649 56.3861 78.2157C58.9322 80.7681 61.5544 83.1935 64.7036 85.0284C68.1639 87.0538 71.6306 86.4125 75.0909 85.2315C76.6528 84.6982 77.2369 83.1871 77.8465 81.7839C77.8147 85.2379 76.0242 86.9903 72.6528 87.8792C68.5703 88.9649 65.4084 87.5046 62.4179 85.0792C59.5607 82.7617 57.1226 80.0379 54.7798 77.2189H54.7734Z" fill="#773417"/>
<path id="Vector_26" d="M2.0625 82.7172C6.29742 83.0347 9.49107 80.5839 12.8435 78.6347C15.6562 77.003 18.3228 75.1236 21.3006 73.7776C21.8593 73.5236 22.4054 73.295 23.0085 73.1553C25.9419 72.4696 27.2308 73.2315 27.8339 76.1395C28.0054 76.9776 28.1069 77.841 27.745 78.6791C27.0022 73.9109 25.0339 72.9014 20.6974 75.0855C17.8276 76.5331 15.2244 78.4315 12.4815 80.0887C10.4308 81.3268 8.37996 82.5776 6.01171 83.1236C4.67837 83.4347 3.29425 83.6696 2.06885 82.7172H2.0625Z" fill="#773417"/>
<path id="Vector_27" d="M28.272 82.0824C28.5514 82.2792 28.526 82.5713 28.5324 82.8634C28.2466 82.6729 28.2466 82.3808 28.272 82.0824Z" fill="#773417"/>
<path id="Vector_28" d="M51.8096 65.8729C46.2604 65.9744 41.2064 65.5871 36.2413 64.3681C35.2445 64.1205 34.2667 63.8157 33.435 63.2189C32.1905 62.3236 32.2604 61.4221 33.5683 60.6411C35.3588 59.5681 37.3651 59.1935 39.3715 58.8824C44.254 58.1268 49.1746 57.7141 54.108 57.9808C58.8064 58.2348 63.5429 58.457 68.0572 60.0316C68.2477 60.1014 68.4572 60.1332 68.6413 60.2157C69.4413 60.5903 70.3111 61.0792 70.3937 61.9617C70.4762 62.8951 69.5048 63.2125 68.7683 63.5617C65.9619 64.8887 62.9016 65.1744 59.8984 65.5427C57.0731 65.8919 54.2223 66.0506 51.8159 65.8792L51.8096 65.8729Z" fill="#773417"/>
<path id="Vector_29" d="M70.5131 67.7204C71.9035 68.3998 72.2083 69.7204 72.348 71.0474C72.4559 72.076 72.3099 73.1363 72.2781 74.1839C71.4845 75.1554 70.9004 76.2919 69.9162 77.1173C67.021 78.9077 64.0559 79.149 61.2369 77.1046C57.5988 74.4696 57.84 68.8506 61.6813 66.8188C61.4464 68.0887 62.0686 68.7935 63.1988 69.2379C65.1734 70.0125 67.1924 70.3173 69.2686 69.7712C70.2718 69.5046 71.0845 69.003 70.5131 67.7268V67.7204ZM71.6813 71.9935C71.5035 71.4284 71.6369 70.5077 70.7289 70.2284C69.9353 69.9808 69.4019 70.5966 69.2115 71.1998C68.7734 72.5966 68.494 74.0379 68.1956 75.4728C68.1258 75.822 68.2781 76.2093 68.5892 76.4125C68.9575 76.6538 69.2559 76.3554 69.5353 76.1458C70.875 75.1427 71.5924 73.803 71.675 71.9998L71.6813 71.9935Z" fill="#A90202"/>
<path id="Vector_30" d="M39.9177 66.4697C41.9939 67.5109 43.4923 70.2601 43.213 72.33C42.7114 76.0824 39.7209 78.076 37.4415 78.3808C32.1336 79.0919 28.0765 74.4443 29.7907 69.6633C29.9749 69.1427 30.1336 68.5903 30.6923 68.3109L30.7812 68.3871C30.6606 69.6443 31.5876 69.9617 32.4955 70.0697C34.6669 70.33 36.7368 69.8792 38.5907 68.7236C39.2765 68.2982 40.1146 67.7713 39.7082 66.6728C39.7781 66.603 39.8479 66.5395 39.9114 66.4697H39.9177ZM42.6288 72.4506C42.54 71.3903 42.2733 70.3871 41.5177 69.5554C41.0669 69.0601 40.5209 68.8252 39.8796 69.0347C39.2193 69.257 39.0161 69.7966 38.9781 70.4697C38.9209 71.4601 39.3082 72.3554 39.505 73.2824C39.6828 74.1268 39.505 75.4728 40.6161 75.5046C41.8098 75.5363 42.1082 74.1839 42.5209 73.2189C42.6161 72.9966 42.5907 72.7236 42.6225 72.4506H42.6288Z" fill="#A90202"/>
<path id="Vector_31" d="M89.5352 67.3205C89.9479 66.857 90.3352 66.3617 90.9574 66.1586C95.2939 68.9967 97.3193 73.0729 97.4526 78.1649C97.4653 78.5268 97.4399 78.9141 97.0907 79.111C96.678 79.3395 96.3923 79.0094 96.2018 78.7427C93.6812 75.2189 90.8748 71.8665 89.5669 67.6252C89.5352 67.53 89.5415 67.4221 89.5352 67.3205Z" fill="#EC5D41"/>
<path id="Vector_32" d="M69.9238 77.1173C70.908 76.2982 71.4921 75.1554 72.2857 74.184C73.3841 76.1967 73.7588 78.3554 73.5937 80.6284C73.5302 81.5109 73.2762 82.3173 72.8889 83.0855C72.7302 83.3967 72.5143 83.7459 72.1334 83.7713C71.6127 83.8094 71.4921 83.3268 71.3461 82.9649C70.5778 81.0855 70.5905 79.0157 69.9302 77.1109L69.9238 77.1173Z" fill="#EC5D41"/>
<path id="Vector_33" d="M70.5138 67.7205C71.0852 68.9967 70.2662 69.4983 69.2693 69.7649C67.1931 70.3173 65.1741 70.0126 63.1995 69.2316C62.0693 68.7872 61.4471 68.076 61.682 66.8125H61.6503C61.9551 66.9078 62.1519 66.7745 62.2852 66.5078C62.6471 66.2157 63.0916 66.1776 63.5297 66.1141C63.6376 66.33 63.7773 66.5395 63.8535 66.7681C64.2154 67.8157 65.0598 68.0951 66.0376 68.057C66.8947 68.0253 67.9805 68.3427 68.1138 66.9141C68.1773 66.2348 68.5963 66.6411 68.882 66.7427C69.3519 66.9141 69.6439 67.4475 70.2217 67.4157L70.2154 67.403C70.3233 67.511 70.4249 67.6125 70.5328 67.7205H70.5138Z" fill="#EC5D41"/>
<path id="Vector_34" d="M31.5996 67.3903C32.7615 65.4348 36.3425 64.6348 38.3742 65.8729L38.3615 65.8919C37.9806 66.0189 37.1933 65.3523 37.3583 66.5523C37.4853 67.4792 36.571 67.7713 35.8472 67.9808C35.0155 68.2221 33.8028 68.5015 33.4726 67.6761C32.8568 66.1396 32.2853 67.3459 31.6885 67.4729L31.6123 67.3903H31.5996Z" fill="#A90202"/>
<path id="Vector_35" d="M70.2233 67.4284C69.6519 67.4538 69.3598 66.9268 68.8836 66.7554C68.5916 66.6474 68.1789 66.2474 68.1154 66.9268C67.982 68.3554 66.8963 68.0379 66.0392 68.0696C65.0614 68.1077 64.2233 67.8284 63.8551 66.7808C63.7789 66.5522 63.6392 66.3427 63.5312 66.1268C63.6138 65.3458 64.3122 65.5744 64.7312 65.4665C66.5789 64.9776 69.2582 65.9744 70.2297 67.4347L70.2233 67.4284Z" fill="#A90202"/>
<path id="Vector_36" d="M69.9551 55.4919C69.9741 54.7173 70.2217 53.9998 70.6027 53.3459C70.8884 52.857 71.3329 52.4252 71.9551 52.6157C72.4821 52.7808 72.6979 53.276 72.6852 53.8284C72.6662 54.4824 72.6344 55.1363 72.609 55.7903C71.7138 55.803 70.7932 55.9935 69.9614 55.4919H69.9551Z" fill="#EC5D41"/>
<path id="Vector_37" d="M40.4699 54.2728C40.4191 53.6316 40.1144 53.022 40.3937 52.3427C40.6413 51.7268 40.7683 50.9776 41.581 50.9713C42.3683 50.9713 42.6604 51.6824 42.8255 52.3109C42.9652 52.8316 42.9017 53.4093 42.9271 53.9554C42.1334 54.2347 41.3144 54.3808 40.4699 54.2665V54.2728Z" fill="#EC5D41"/>
<path id="Vector_38" d="M38.3682 65.8728C38.9713 65.8411 39.492 66.0189 39.911 66.4697C39.8412 66.5395 39.7777 66.6094 39.7079 66.6728C39.2253 66.4633 38.6031 66.5014 38.3555 65.8919L38.3682 65.8728Z" fill="#A90202"/>
<path id="Vector_39" d="M19.9874 64.9776C19.9811 65.3141 20.0319 65.6697 19.6826 65.8919L19.5684 65.803C19.6509 65.4982 19.6255 65.149 19.943 64.9459L19.9874 64.984V64.9776Z" fill="#A90202"/>
<path id="Vector_40" d="M19.3912 66.2094C19.3849 66.4633 19.315 66.6792 19.0865 66.8189C19.023 66.7617 18.9595 66.6983 18.9023 66.6348C19.042 66.4697 19.1754 66.2983 19.3087 66.1268L19.3912 66.203V66.2094Z" fill="#A90202"/>
<path id="Vector_41" d="M62.2853 66.5141C62.152 66.7808 61.9552 66.9141 61.6504 66.8189C61.7774 66.5395 62.0186 66.5078 62.2853 66.5141Z" fill="#A90202"/>
<path id="Vector_42" d="M19.6754 65.8919C19.5801 65.9998 19.4849 66.1014 19.3833 66.2093L19.3008 66.1331C19.3897 66.0189 19.4722 65.9109 19.5611 65.7966L19.6754 65.8855V65.8919Z" fill="#A90202"/>
<path id="Vector_43" d="M31.2949 67.7014C31.3965 67.5998 31.4917 67.4918 31.5933 67.3903L31.6695 67.4728C31.5616 67.568 31.4537 67.6569 31.3457 67.7522L31.2949 67.7014Z" fill="#A90202"/>
<path id="Vector_44" d="M30.9961 68.0125C31.0977 67.9109 31.1993 67.8094 31.3009 67.7078L31.3517 67.7586C31.2501 67.8601 31.1485 67.9617 31.0469 68.0633L30.9961 68.0125Z" fill="#A90202"/>
<path id="Vector_45" d="M30.6914 68.3173C30.793 68.2157 30.8946 68.1141 30.9962 68.0125L31.047 68.0633C30.9581 68.1712 30.8692 68.2855 30.7803 68.3935L30.6914 68.3173Z" fill="#A90202"/>
<path id="Vector_46" d="M91.67 62.222C91.7906 63.6887 90.9398 64.8379 89.7334 65.7966C89.0287 66.3553 88.5588 66.1966 88.635 65.2633C88.7493 63.9109 88.9398 62.5649 89.1684 61.2252C89.3017 60.4569 89.6827 59.568 90.5461 59.6887C91.4414 59.8093 91.7207 60.6982 91.6636 61.5934C91.6573 61.7458 91.6636 61.8982 91.6636 62.222H91.67Z" fill="#EC5D41"/>
<path id="Vector_47" d="M19.5684 65.803C19.4795 65.9173 19.397 66.0252 19.3081 66.1395C19.1747 66.3109 19.035 66.476 18.9017 66.6474C18.2985 67.0665 17.8223 67.0919 17.4604 66.3173C16.7938 64.8823 16.7747 63.3014 16.4192 61.7966C16.2731 61.1871 16.743 60.5458 17.4731 60.3109C18.1779 60.0823 18.6477 60.4887 19.0541 60.9395C20.1017 62.095 20.0319 63.5236 19.943 64.9458C19.6319 65.149 19.6509 65.4982 19.5684 65.803Z" fill="#EC5D41"/>
<path id="Vector_48" d="M71.6819 71.9998C71.5993 73.8094 70.8819 75.1427 69.5422 76.1459C69.2628 76.3554 68.9644 76.6538 68.5961 76.4125C68.285 76.2094 68.1263 75.8221 68.2025 75.4729C68.5009 74.0379 68.7866 72.5967 69.2184 71.1998C69.4088 70.5967 69.9358 69.9808 70.7358 70.2284C71.6438 70.5078 71.5041 71.4284 71.6882 71.9935L71.6819 71.9998Z" fill="#EC5D41"/>
<path id="Vector_49" d="M30.7811 68.3935C30.87 68.2856 30.9589 68.1713 31.0478 68.0634C31.1494 67.9618 31.251 67.8602 31.3526 67.7586C31.4605 67.6634 31.5684 67.5745 31.6764 67.4792C32.2732 67.3522 32.8446 66.1459 33.4605 67.6824C33.7907 68.5014 35.0034 68.2284 35.8351 67.9872C36.5653 67.7713 37.4732 67.4792 37.3462 66.5586C37.1811 65.3586 37.9684 66.0253 38.3494 65.8983C38.597 66.5078 39.2192 66.4761 39.7018 66.6792C40.1018 67.7776 39.2637 68.3046 38.578 68.73C36.724 69.8856 34.6542 70.3364 32.4827 70.0761C31.5748 69.9681 30.6478 69.6507 30.7684 68.3935H30.7811Z" fill="#EC5D41"/>
<path id="Vector_50" d="M42.6287 72.4506C42.5969 72.7236 42.6223 72.9967 42.5271 73.2189C42.1207 74.184 41.8223 75.5363 40.6223 75.5046C39.5175 75.4728 39.6953 74.1268 39.5112 73.2824C39.3144 72.349 38.9271 71.4538 38.9842 70.4697C39.0223 69.7967 39.2255 69.257 39.8858 69.0347C40.5207 68.8189 41.0731 69.0601 41.5239 69.5554C42.2794 70.3871 42.5461 71.3903 42.635 72.4506H42.6287Z" fill="#EC5D41"/>
</g>
<defs>
<clipPath id="clip0_27_285571">
<rect width="100" height="100" fill="white"/>
</clipPath>
</defs>
</svg>
