<svg width="100" height="100" viewBox="0 0 100 100" fill="none" xmlns="http://www.w3.org/2000/svg">
<g clip-path="url(#clip0_1111_185530)">
<path d="M97.2067 80.4609C97.2067 94.1752 76.1274 100.397 46.921 100.397C17.7147 100.397 2.34961 92.9053 2.34961 79.191C2.34961 65.4768 20.6353 54.1752 49.7782 54.1752C78.921 54.1752 97.2067 66.7466 97.2067 80.4609Z" fill="#903F1C"/>
<path d="M99.3016 70.4926C99.3016 70.7466 99.2381 71.0005 99.1747 71.2545C98.3493 76.2704 95.6826 81.2863 85.1429 82.4291C76.762 83.318 75.4286 84.8418 70.7937 84.0164C66.1588 83.191 65.4604 86.8101 58.5397 86.8101C51.6191 86.8101 53.4604 84.8418 49.2064 83.572C44.9524 82.3021 44.1905 88.0799 34.9207 86.8101C25.9048 85.5402 29.3969 81.6672 22.6667 79.3815C15.9366 77.0958 15.0477 81.4767 10.6667 79.3815C6.22227 77.2863 0.761954 76.4609 0.507985 68.4609C0.444493 65.9847 0.888938 64.1434 1.52386 62.8736C2.85719 60.0164 5.14291 59.572 5.14291 59.572C50.3493 87.064 89.2064 55.7624 93.2064 55.9529C97.2064 56.1434 100 65.2228 99.3016 70.5561V70.4926Z" fill="#842D08"/>
<path d="M99.3012 70.4926C99.3012 70.7466 99.2378 71.0005 99.1743 71.2545C97.6505 75.0005 94.2219 78.1751 86.0314 79.064C77.6505 79.9529 76.3171 81.4767 71.6822 80.6513C67.0473 79.8259 66.3489 83.445 59.4282 83.445C52.5076 83.445 54.3489 81.4767 50.0949 80.2069C45.8409 78.937 45.079 84.7148 35.8092 83.445C26.7298 82.1751 30.2854 78.3021 23.5552 76.0164C16.8251 73.7307 15.9997 78.1116 11.5552 76.0164C7.11077 73.9212 1.65045 73.0323 1.39648 65.0958C1.39648 64.2704 1.39648 63.5085 1.52347 62.8101C2.8568 59.9529 5.14252 59.5085 5.14252 59.5085C50.3489 87.0005 89.206 55.6989 93.206 55.8894C97.206 56.0799 99.9997 65.1593 99.3012 70.4926Z" fill="#BB5429"/>
<path d="M97.2067 52.3339C97.2067 66.0482 76.1909 77.2228 46.9845 77.2863C17.8417 77.3498 2.34961 66.3021 2.34961 52.5879C2.34961 51.191 2.54009 49.8577 2.92104 48.5879C6.15913 37.3498 23.556 31.1275 49.7147 31.0005C75.048 30.9371 92.1909 36.7148 96.2544 47.191C96.8893 48.7783 97.2067 50.4926 97.2067 52.2704V52.3339Z" fill="#903F1C"/>
<path d="M95.3651 45.4132C93.1428 55.9529 85.4603 64.6513 49.7778 65.3498C28.5714 65.7307 8.76189 60.9688 4.06348 45.8577C7.30157 37.7942 23.5555 31.1275 49.7143 31.0005C75.0476 30.937 91.0476 36.4609 95.3651 45.4132Z" fill="#945032"/>
<path d="M85.0791 39.064C85.0791 43.572 69.0791 47.191 46.9838 47.2545C24.8886 47.2545 13.1426 43.699 13.1426 39.2545C13.1426 34.8101 26.9838 32.2069 49.0791 32.1434C71.1743 32.1434 85.0791 36.0799 85.0791 39.064Z" fill="#935F49"/>
<path d="M8.63505 57.5402C8.63505 57.5402 8.00013 71.2545 35.2382 73.2228C62.4763 75.1275 82.9843 65.7307 82.9843 65.7307C82.9843 65.7307 18.2858 82.937 8.63505 57.5402Z" fill="#935F49"/>
</g>
<defs>
<clipPath id="clip0_1111_185530">
<rect width="100" height="100" fill="white"/>
</clipPath>
</defs>
</svg>
