<svg width="100" height="100" viewBox="0 0 100 100" fill="none" xmlns="http://www.w3.org/2000/svg">
<g id="Religieuse-4">
<path id="Vector" d="M79.8349 64.1504C81.3841 66.4234 82.0317 69.0329 82.6793 71.6488V78.1123C82.127 79.998 81.6889 81.9218 80.8 83.6996C78.419 88.4806 74.7492 92.0298 70.2285 94.7409C65.5555 97.5409 60.4889 99.2044 55.073 99.7313C46.927 100.525 39.0666 99.5917 31.7333 95.7059C26.3238 92.8361 21.8984 88.9123 19.3016 83.2425C16.7111 77.579 16.8508 71.8583 19.346 66.2012C19.9174 64.8996 20.7619 63.7186 21.4984 62.4932C21.5428 62.4234 21.7397 62.4425 21.8666 62.4234C21.4158 63.871 20.9841 65.325 21.1428 66.8678C21.2635 68.0425 21.9174 68.5186 23.073 68.2901C23.8031 68.144 24.4825 67.8583 25.1365 67.5155C27.2254 66.4234 29.1428 65.052 31.1555 63.8456C32.1904 63.2234 33.2317 62.6012 34.4063 62.2583C35.892 61.8202 36.8508 62.398 37.1365 63.9028C37.2317 64.398 37.2698 64.8996 37.2889 65.4075C37.327 66.379 37.2698 67.3567 37.492 68.3218C37.8158 69.7313 38.5841 70.4996 40.019 70.6774C43.1365 71.0583 45.492 69.8012 47.2127 67.2298L47.2 67.2425C47.3714 67.1536 47.4412 67.0139 47.4349 66.8298L47.4031 66.8552C47.5555 66.8552 47.6 66.7409 47.6317 66.6266C48.6793 65.325 49.3524 63.8012 50.2158 62.3853C51.0476 62.4742 51.473 63.1282 51.9365 63.6806C53.1682 65.1409 54.3428 66.6583 55.5809 68.1186C56.5587 69.2742 57.6571 70.3091 58.965 71.1028C60.8571 72.2456 62.7174 71.8075 64.5333 70.9821C65.2063 70.6774 65.6952 70.0742 65.8031 69.2678L65.765 69.2869C65.9047 69.2742 65.9238 69.179 65.9174 69.0647C67.2571 67.579 67.1492 65.7631 67.073 63.9599C67.0222 62.8361 66.7873 61.7059 67.1682 60.5948C68.3301 60.2202 69.4666 60.1631 70.546 60.8615C71.4412 61.4393 72.1143 62.2329 72.6222 63.1472C73.4222 64.5821 74.127 66.0615 74.927 67.4901C75.3079 68.1631 75.6 69.0964 76.5777 69.0456C77.5047 69.0012 77.7777 68.0806 78.2158 67.4266C78.2857 67.325 78.2793 67.1726 78.3047 67.0456L78.2666 67.0647C78.4254 67.0647 78.4381 66.944 78.4508 66.8234C79.073 66.0234 79.3079 65.0139 79.8476 64.1694L79.8349 64.1504Z" fill="#E9D5B7"/>
<path id="Vector_2" d="M67.1569 60.5694C66.776 61.6805 67.0109 62.8107 67.0617 63.9345C67.1379 65.744 67.2458 67.5536 65.9061 69.0393C65.8554 69.1155 65.8046 69.1853 65.7538 69.2615L65.7919 69.2425C65.5442 69.3504 65.3093 69.4901 65.0553 69.5536C63.3855 69.9726 61.722 70.5567 60.0458 69.5155C58.668 68.6583 57.4553 67.6424 56.4458 66.3663C55.2204 64.8234 54.0331 63.2552 52.7315 61.7821C51.3919 60.2647 50.8839 60.4171 50.2109 62.3599C49.3538 63.7758 48.6744 65.3059 47.6268 66.6012C47.5506 66.6774 47.4744 66.7536 47.3982 66.8298L47.4299 66.8044C47.2268 66.8678 47.195 67.0329 47.195 67.2171L47.2077 67.2044C47.049 67.2551 46.8585 67.2551 46.7442 67.3567C45.2458 68.671 43.4934 69.1345 41.5252 69.0329C39.7601 68.944 38.5855 67.852 38.503 66.0805C38.4458 64.8742 38.3823 63.6742 38.2998 62.4678C38.1982 61.1028 37.3919 60.4298 36.0331 60.5313C35.4871 60.5694 34.9919 60.7853 34.5093 61.0139C32.9538 61.744 31.5125 62.652 30.0776 63.5917C28.4268 64.6774 26.7887 65.8139 24.8839 66.4424C23.068 67.0456 22.3633 66.5186 22.3633 64.6329C22.3633 64.0615 22.4522 63.5028 22.4966 62.9377C22.5919 61.852 23.3474 60.9631 23.3093 59.8583L23.2903 59.8964C23.5442 59.8583 23.5569 59.6615 23.5633 59.471C25.9252 55.6171 29.2458 52.8361 33.2649 50.8424C33.5315 50.7091 33.7982 50.5694 34.0649 50.4298C34.4712 50.3726 34.649 50.6837 34.8839 50.9123C35.5315 51.5472 36.1411 52.2266 36.8395 52.7917C41.4363 56.4742 46.6871 57.9472 52.5284 57.3059C58.1093 56.6901 62.7633 54.3282 66.2553 49.8456C66.4522 49.5917 66.5728 49.2361 66.9538 49.1663C73.5188 51.5726 77.5125 56.3853 79.7347 62.8551C79.8871 63.2932 79.8617 63.7123 79.83 64.144C79.2903 64.9885 79.0617 65.998 78.4331 66.798C78.3696 66.8805 78.3125 66.9567 78.249 67.0393L78.2871 67.0202C77.176 67.6298 76.8776 67.5663 76.1665 66.5059C75.2903 65.1917 74.7379 63.7123 73.9823 62.3345C73.2903 61.0647 72.5157 59.852 71.2268 59.0964C69.3982 58.0298 67.4109 58.7536 67.1442 60.5631L67.1569 60.5694ZM78.4268 63.4964C78.2744 60.8996 77.2141 58.7028 75.4236 56.8678C74.9474 56.3853 74.3315 55.5726 73.5633 56.0996C72.7569 56.652 73.2077 57.5663 73.576 58.1948C74.7252 60.1567 75.9696 62.0615 77.195 63.979C77.3855 64.2774 77.7157 64.6393 78.0903 64.4805C78.4522 64.3282 78.4204 63.8647 78.4268 63.4964ZM66.1601 65.3631C66.0077 64.3028 65.868 63.1599 65.2077 62.1885C64.9538 61.8139 64.668 61.3186 64.122 61.4202C63.5061 61.5282 63.4871 62.1377 63.3728 62.6139C63.322 62.8298 63.3601 63.0837 63.4109 63.3123C63.6649 64.5186 63.9252 65.7313 64.2046 66.9313C64.2871 67.2869 64.4331 67.6361 64.5919 67.9663C64.8839 68.5821 65.176 68.4996 65.4871 67.9536C65.9315 67.1726 66.0395 66.3091 66.1601 65.3694V65.3631Z" fill="#D4A0C0"/>
<path id="Vector_3" d="M66.958 49.1726C66.5707 49.2424 66.4564 49.5916 66.2596 49.8519C62.7675 54.3345 58.1135 56.6964 52.5326 57.3123C46.6977 57.9535 41.4405 56.4805 36.8437 52.798C36.1389 52.2329 35.5358 51.5535 34.8881 50.9186C34.6532 50.69 34.4754 50.3726 34.0691 50.4361C34.2405 49.6297 33.6246 49.09 33.2437 48.6011C32.0881 47.1091 31.8469 45.2869 31.1675 43.6297C31.0596 43.3757 30.977 43.1154 31.3262 42.9567C31.7516 43.6488 32.3104 43.6615 32.9516 43.2869C34.0373 42.6583 34.9135 41.7821 35.8151 40.9313C36.9834 39.8265 38.0754 38.6456 39.4278 37.7504C40.0627 37.3313 40.6913 37.1281 41.3262 37.7504C41.5929 38.5631 41.5231 39.4011 41.5231 40.2329C41.5231 41.3757 41.5866 42.5059 41.9802 43.5916C42.3675 45.8138 44.0056 46.5757 45.9485 45.4265C47.0342 44.7853 47.6691 43.7567 48.2278 42.671C48.9008 41.3504 49.3072 39.9281 49.8215 38.544C49.9421 38.2265 49.9421 37.7186 50.3929 37.6996C50.8056 37.6805 50.977 38.125 51.1485 38.4297C51.7135 39.4202 52.2532 40.4234 52.7865 41.4329C53.6183 43.0075 54.4373 44.5948 55.6818 45.89C56.3167 46.5504 56.9961 47.0964 58.0627 46.8488C59.3199 46.5567 60.1961 45.9408 60.5135 44.6329C60.7167 43.8075 60.7739 42.9821 60.7104 42.144C60.7104 41.9472 60.7104 41.7567 60.704 41.5599C60.7167 41.5408 60.7485 41.5154 60.7421 41.4964C60.7358 41.4519 60.7167 41.4011 60.6977 41.3567C60.685 40.3345 60.6723 39.3186 60.6596 38.2964C60.685 38.0297 60.685 37.7567 60.7358 37.4964C60.8881 36.6646 61.0024 35.7884 62.0373 35.5726C63.0723 35.3567 63.6564 36.0107 64.1643 36.7535C64.6913 37.5345 65.0469 38.4043 65.3516 39.2869C65.8342 40.671 66.304 42.0615 66.8056 43.4392C66.9262 43.7694 67.085 44.1757 67.5294 44.1884C67.9802 44.2011 68.1453 43.7948 68.2723 43.471C68.6342 42.544 68.9516 41.5916 69.2881 40.6519C69.4151 42.8424 68.8754 44.8932 68.0183 46.8805C67.6881 47.6488 67.1612 48.3281 66.958 49.1535V49.1726Z" fill="#E9D5B7"/>
<path id="Vector_4" d="M41.9797 43.598C41.586 42.5123 41.5225 41.3822 41.5225 40.2393C41.5225 39.4075 41.5924 38.5695 41.3257 37.7568C41.3765 37.1091 41.2305 36.4996 40.6273 36.2012C40.0305 35.9091 39.4654 36.1758 38.9447 36.5504C37.5225 37.5726 36.3098 38.8234 35.0654 40.0425C34.2781 40.8171 33.4209 41.5155 32.4558 42.0679C32.0622 42.2901 31.6685 42.4615 31.2368 42.1568C30.8622 41.9917 30.8685 41.6679 30.8495 41.325C30.5574 35.725 32.8114 31.2044 36.8178 27.4774C38.9638 25.4837 41.4908 24.1123 44.3289 23.3377C44.3352 23.6425 44.367 23.9409 44.3479 24.2456C44.1574 28.0171 48.1066 30.9568 51.6431 30.6202C55.3574 30.2647 57.6368 27.871 58.1257 24.0869C64.4241 26.7726 68.4812 31.2171 69.2749 38.2456C69.3384 38.8234 69.2558 39.3822 69.167 39.9409C68.9003 40.6202 68.6527 41.306 68.3543 41.9726C68.1828 42.3536 68.0495 42.9123 67.5416 42.8806C67.0908 42.8488 66.8749 42.398 66.7225 41.9663C66.2146 40.4806 65.6939 38.9949 65.1606 37.5155C64.7797 36.4742 64.3289 35.471 63.459 34.7155C62.5574 33.9282 61.2558 34.0933 60.9066 35.198C60.5955 36.1822 60.2717 37.2425 60.6717 38.3091C60.6844 39.3314 60.6971 40.3472 60.7098 41.3695C60.7098 41.4393 60.7098 41.5028 60.7098 41.5726C60.7098 41.7695 60.7098 41.9599 60.7162 42.1568C60.4558 42.3472 60.5384 42.6393 60.5003 42.8996C60.3225 44.0742 59.8019 44.9758 58.6146 45.4012C57.4019 45.8393 56.4304 45.6044 55.5479 44.6202C54.8685 43.8647 54.2654 43.071 53.7701 42.1949C52.7733 40.4488 51.8146 38.6837 50.8305 36.925C50.6844 36.6647 50.5257 36.3409 50.1765 36.3917C49.8336 36.4425 49.7638 36.8107 49.6622 37.0837C49.3003 38.0552 48.9955 39.052 48.6082 40.0171C48.0495 41.4266 47.4146 42.7917 46.2463 43.8329C44.9765 44.9631 42.9511 44.8615 41.9924 43.6044L41.9797 43.598ZM68.3733 38.4171C68.367 36.8933 67.713 35.0647 66.8876 34.1568C66.5765 33.8202 66.2146 33.5028 65.7574 33.7377C65.313 33.9726 65.3511 34.4298 65.4273 34.8933C65.6495 36.2393 66.4495 37.3631 66.8431 38.6456C67.0146 39.2107 67.2051 40.1949 67.859 40.0742C68.64 39.9345 68.2717 38.9568 68.3733 38.4171ZM59.0908 41.8329C59.1352 40.9631 58.9892 40.3282 58.6082 39.7377C58.2781 39.2298 57.8654 38.7536 57.2304 39.0012C56.6082 39.2425 56.5765 39.9028 56.6908 40.4806C56.8178 41.1345 57.059 41.7631 57.2114 42.4171C57.3511 43.0202 57.332 43.9345 58.0495 43.9028C58.8114 43.871 58.9574 42.9568 59.0781 42.252C59.1098 42.0552 59.0781 41.852 59.0781 41.8329H59.0908Z" fill="#D4A0C0"/>
<path id="Vector_5" d="M58.121 24.0932C57.6322 27.8773 55.3528 30.271 51.6385 30.6265C48.102 30.9631 44.1528 28.0234 44.3433 24.2519C44.356 23.9535 44.3306 23.6488 44.3242 23.344C44.902 20.2773 46.7941 18.5123 49.7655 17.7948C49.829 18.2583 49.975 18.7345 49.9369 19.1916C49.8798 19.9599 50.2036 20.2329 50.9147 20.1758C49.1877 20.8107 48.2671 20.4424 48.0258 18.9758C47.5052 19.0837 47.1941 19.5027 46.7941 19.7758C46.1845 20.1123 45.6766 20.5123 45.7528 21.3186C45.8226 22.0805 46.4766 22.1948 46.9909 22.271C49.5242 22.6392 51.9179 22.2456 54.0004 20.6773C55.0671 19.8773 54.8829 19.09 53.6258 18.5567C53.2258 18.3535 52.8195 18.1504 52.4195 17.9472C54.7369 17.8773 57.3972 20.3027 57.8734 22.925C57.9433 23.3186 58.0385 23.7059 58.1147 24.0932H58.121ZM57.4925 24.6329C57.3782 23.4583 57.1179 22.3662 56.1528 21.5789C55.683 21.198 55.1687 21.0202 54.5655 21.3059C54.0068 21.5726 53.8036 22.0488 53.8226 22.6265C53.8798 24.2075 54.3115 25.7186 54.756 27.217C54.9972 28.0297 55.7083 28.1059 56.3179 27.4583C57.0607 26.671 57.3845 25.6996 57.4861 24.6392L57.4925 24.6329Z" fill="#AA0404"/>
<path id="Vector_6" d="M23.3144 59.871C23.3524 60.9758 22.5969 61.8647 22.5017 62.9504C22.4509 63.5155 22.3683 64.0806 22.3683 64.6456C22.3683 66.5314 23.0731 67.052 24.889 66.4552C26.7874 65.8266 28.4255 64.6901 30.0826 63.6044C31.5175 62.6647 32.9588 61.7504 34.5144 61.0266C35.0032 60.798 35.4921 60.5821 36.0382 60.5441C37.3969 60.4488 38.2032 61.1218 38.3048 62.4806C38.3937 63.6806 38.4572 64.8869 38.508 66.0933C38.5905 67.8647 39.7651 68.9568 41.5302 69.0456C43.4985 69.1472 45.2509 68.6837 46.7493 67.3695C46.8636 67.2742 47.054 67.2679 47.2128 67.2171C45.4921 69.7885 43.1366 71.0456 40.0191 70.6647C38.5842 70.4869 37.8159 69.7187 37.4921 68.3091C37.2699 67.3441 37.327 66.3726 37.289 65.3948C37.2699 64.8933 37.2318 64.3853 37.1366 63.8901C36.8509 62.379 35.8985 61.8075 34.4064 62.2456C33.2382 62.5885 32.1969 63.2171 31.1556 63.8329C29.1366 65.0393 27.2255 66.4107 25.1366 67.5028C24.4763 67.8456 23.8032 68.1314 23.0731 68.2774C21.9175 68.5123 21.2636 68.0298 21.1429 66.8552C20.9842 65.3123 21.4159 63.8583 21.8667 62.4107C22.1143 61.4266 22.7429 60.6583 23.3207 59.8583L23.3144 59.871Z" fill="#A07A91"/>
<path id="Vector_7" d="M50.9218 20.1758C50.2107 20.2266 49.8805 19.9599 49.944 19.1917C49.9821 18.7345 49.8361 18.2647 49.7726 17.7949C49.544 15.2552 48.871 12.8552 47.4488 10.7091C46.5535 9.36311 45.4424 8.2647 43.7345 8.03612C43.3091 7.97898 43.2773 7.73771 43.2773 7.4139C43.2773 6.93136 43.6012 6.9885 43.9059 7.02025C45.1948 7.17263 46.2488 7.80755 47.1313 8.71549C49.2075 10.8425 50.1345 13.5091 50.6234 16.3663C50.7377 17.0139 50.7821 17.6742 51.5694 17.8901C51.4996 17.9155 51.4234 17.9345 51.3472 17.9599C50.8646 17.9155 50.8138 18.2012 50.8456 18.5885C50.8837 19.1155 50.8964 19.6425 50.9154 20.1758H50.9218Z" fill="#747C52"/>
<path id="Vector_8" d="M31.2305 42.1631C31.6622 42.4679 32.0559 42.2964 32.4495 42.0742C33.4146 41.5282 34.2717 40.8234 35.059 40.0488C36.3035 38.8298 37.5162 37.579 38.9384 36.5568C39.459 36.1822 40.0241 35.9155 40.6209 36.2076C41.2241 36.506 41.3702 37.1155 41.3194 37.7631C40.6844 37.1409 40.0559 37.3441 39.4209 37.7631C38.0749 38.6584 36.9765 39.8393 35.8082 40.9441C34.9067 41.7949 34.0305 42.671 32.9448 43.2996C32.3035 43.6679 31.7448 43.6552 31.3194 42.9695C31.2876 42.7028 31.2622 42.4361 31.2305 42.1695V42.1631Z" fill="#A07A91"/>
<path id="Vector_9" d="M60.6606 38.3155C60.2606 37.2424 60.5844 36.1821 60.8955 35.2043C61.2447 34.0932 62.5527 33.9281 63.4479 34.7218C64.3114 35.4837 64.7686 36.4805 65.1495 37.5218C65.6892 39.0012 66.2035 40.4869 66.7114 41.9726C66.8574 42.4043 67.0797 42.8615 67.5305 42.8869C68.0384 42.9186 68.1717 42.3662 68.3432 41.9789C68.6416 41.3123 68.8892 40.6266 69.1559 39.9472C69.3082 40.1694 69.3273 40.4107 69.2828 40.6647C68.9463 41.6043 68.6352 42.5567 68.267 43.4837C68.14 43.8075 67.9813 44.2139 67.5241 44.2012C67.0797 44.1885 66.9209 43.7821 66.8003 43.452C66.2924 42.0742 65.8289 40.6837 65.3463 39.2996C65.0352 38.417 64.686 37.5472 64.159 36.7662C63.6511 36.0234 63.067 35.3694 62.032 35.5853C60.9908 35.8012 60.8828 36.6837 60.7305 37.5091C60.6797 37.7694 60.6797 38.0424 60.6543 38.3091L60.6606 38.3155Z" fill="#A07A91"/>
<path id="Vector_10" d="M50.9193 20.1758C51.6304 20.0425 52.2399 19.7123 52.3352 18.9631C52.405 18.3663 51.8082 18.1821 51.351 17.9663C51.4272 17.9409 51.4971 17.9218 51.5733 17.8964C51.859 17.9155 52.1447 17.9282 52.4304 17.9472C52.8304 18.1504 53.2368 18.3536 53.6368 18.5567C53.732 19.0837 53.6812 19.5726 53.205 19.8964C51.5034 21.052 49.6494 21.4774 47.6241 21.0266C46.9637 20.8806 46.6717 20.4679 46.805 19.7821C47.205 19.5091 47.5161 19.0901 48.0368 18.9821C48.278 20.4488 49.205 20.8171 50.9256 20.1821L50.9193 20.1758Z" fill="#FD7858"/>
<path id="Vector_11" d="M23.5679 59.4774C23.5616 59.6742 23.5425 59.8647 23.2949 59.9028C23.3267 59.725 23.3965 59.5663 23.5679 59.4774Z" fill="#AA0404"/>
<path id="Vector_12" d="M50.2031 62.3599C50.8698 60.4107 51.3777 60.2647 52.7238 61.7821C54.0253 63.2552 55.219 64.8234 56.438 66.3663C57.4476 67.6361 58.6666 68.6583 60.038 69.5155C61.7079 70.5567 63.3777 69.9726 65.0476 69.5536C65.3015 69.4901 65.5365 69.3504 65.7841 69.2425C65.6761 70.0488 65.1873 70.652 64.5206 70.9567C62.7047 71.7885 60.8444 72.2266 58.9523 71.0774C57.6444 70.2837 56.546 69.2551 55.5682 68.0932C54.3365 66.6329 53.1619 65.1155 51.9238 63.6551C51.4603 63.1028 51.0349 62.4488 50.2031 62.3599Z" fill="#A07A91"/>
<path id="Vector_13" d="M67.1562 60.5694C67.4229 58.7536 69.4039 58.0361 71.2388 59.1028C72.5277 59.8583 73.3023 61.071 73.9943 62.3409C74.7499 63.7186 75.3023 65.198 76.1785 66.5123C76.8832 67.5726 77.1816 67.6361 78.2991 67.0266C78.2737 67.1536 78.2801 67.3059 78.2102 67.4075C77.7658 68.0552 77.4991 68.9821 76.5721 69.0266C75.5943 69.071 75.3023 68.144 74.9213 67.471C74.115 66.0425 73.4102 64.5631 72.6166 63.1282C72.1086 62.2139 71.4356 61.4202 70.5404 60.8424C69.461 60.144 68.3245 60.2012 67.1626 60.5758L67.1562 60.5694Z" fill="#A07A91"/>
<path id="Vector_14" d="M47.1875 67.2234C47.1875 67.0392 47.2192 66.8742 47.4224 66.8107C47.4288 66.9948 47.3589 67.1408 47.1875 67.2234Z" fill="#AA0404"/>
<path id="Vector_15" d="M47.3906 66.8361C47.4668 66.7599 47.543 66.6837 47.6192 66.6075C47.5811 66.7282 47.543 66.8425 47.3906 66.8361Z" fill="#AA0404"/>
<path id="Vector_16" d="M78.2617 67.0392C78.3252 66.9567 78.3824 66.8805 78.4458 66.798C78.4395 66.9186 78.4204 67.0329 78.2617 67.0392Z" fill="#AA0404"/>
<path id="Vector_17" d="M65.7461 69.2615C65.7969 69.1853 65.8477 69.1155 65.8985 69.0393C65.8985 69.1472 65.8858 69.2488 65.7461 69.2615Z" fill="#AA0404"/>
<path id="Vector_18" d="M78.425 63.4901C78.425 63.8584 78.4504 64.3282 78.0885 64.4743C77.7139 64.633 77.3837 64.2711 77.1932 63.9727C75.9615 62.0616 74.7234 60.1504 73.5742 58.1885C73.2059 57.56 72.7551 56.6393 73.5615 56.0933C74.3234 55.5727 74.9456 56.379 75.4218 56.8616C77.2123 58.6965 78.2726 60.8933 78.4313 63.4901H78.425Z" fill="#A07A91"/>
<path id="Vector_19" d="M66.1576 65.3568C66.0369 66.3028 65.929 67.1599 65.4846 67.9409C65.1798 68.4869 64.8814 68.5695 64.5893 67.9536C64.4306 67.6234 64.2846 67.2742 64.202 66.9187C63.9163 65.7187 63.6623 64.506 63.4084 63.2996C63.3639 63.0711 63.3195 62.8234 63.3703 62.6012C63.4846 62.125 63.5036 61.5155 64.1195 61.4076C64.6655 61.3123 64.9512 61.8012 65.2052 62.1758C65.8655 63.1536 66.0116 64.2901 66.1576 65.3504V65.3568Z" fill="#A07A91"/>
<path id="Vector_20" d="M41.981 43.598C42.9397 44.8552 44.9587 44.9567 46.2349 43.8266C47.4032 42.7853 48.0381 41.4202 48.5968 40.0107C48.9778 39.0456 49.2889 38.0488 49.6508 37.0774C49.7524 36.8044 49.8159 36.4361 50.1651 36.3853C50.5143 36.3345 50.673 36.6583 50.8191 36.9186C51.8032 38.671 52.7619 40.4361 53.7587 42.1885C54.254 43.0647 54.8635 43.852 55.5365 44.6139C56.4191 45.598 57.3968 45.8329 58.6032 45.3948C59.7905 44.9694 60.3111 44.0615 60.4889 42.8933C60.527 42.6329 60.4445 42.3472 60.7048 42.1504C60.7683 42.9885 60.7111 43.8139 60.5079 44.6393C60.1905 45.9472 59.3079 46.5567 58.0571 46.8552C56.9968 47.1028 56.3111 46.5631 55.6762 45.8964C54.4318 44.5948 53.6127 43.0075 52.781 41.4393C52.2476 40.4298 51.7079 39.4266 51.1429 38.4361C50.9651 38.1313 50.8 37.6869 50.3873 37.706C49.9365 37.7313 49.9365 38.2329 49.8159 38.5504C49.3016 39.9345 48.8952 41.3567 48.2222 42.6774C47.6698 43.7631 47.0349 44.7917 45.9429 45.4329C44 46.5821 42.3619 45.8202 41.9746 43.598H41.981Z" fill="#A07A91"/>
<path id="Vector_21" d="M60.6992 41.579C60.6992 41.5091 60.6992 41.4456 60.6992 41.3758C60.7119 41.4202 60.7373 41.4647 60.7437 41.5155C60.7437 41.5345 60.7183 41.5599 60.7056 41.579H60.6992Z" fill="#AA0404"/>
<path id="Vector_22" d="M68.3734 38.4234C68.2718 38.9631 68.6401 39.9409 67.8591 40.0805C67.2052 40.2012 67.0147 39.2107 66.8433 38.652C66.4496 37.3694 65.6496 36.2456 65.4274 34.8996C65.3512 34.4361 65.3068 33.9789 65.7576 33.744C66.2147 33.5091 66.583 33.8266 66.8877 34.1631C67.7131 35.071 68.3671 36.8996 68.3734 38.4234Z" fill="#A07A91"/>
<path id="Vector_23" d="M59.0916 41.833C59.0916 41.833 59.117 42.0615 59.0916 42.252C58.9709 42.9504 58.8249 43.8647 58.063 43.9028C57.3455 43.9346 57.3646 43.0203 57.2249 42.4171C57.0725 41.7695 56.8312 41.1346 56.7043 40.4806C56.59 39.9028 56.6217 39.2425 57.2439 39.0012C57.8725 38.7536 58.2852 39.2298 58.6217 39.7377C59.0027 40.3219 59.1487 40.9631 59.1043 41.833H59.0916Z" fill="#A07A91"/>
<path id="Vector_24" d="M46.7988 19.7758C46.6654 20.4615 46.9575 20.8742 47.6178 21.0203C49.6432 21.4711 51.4972 21.0457 53.1988 19.8901C53.675 19.5663 53.7258 19.0774 53.6305 18.5504C54.8877 19.0837 55.0718 19.8711 54.0051 20.6711C51.9226 22.2393 49.5289 22.6393 46.9956 22.2647C46.475 22.1885 45.8274 22.0806 45.7575 21.3123C45.6813 20.5123 46.1956 20.106 46.7988 19.7695V19.7758Z" fill="#D61823"/>
<path id="Vector_25" d="M57.4929 24.6329C57.3913 25.6869 57.0675 26.6583 56.3246 27.452C55.7151 28.0996 55.004 28.0234 54.7627 27.2107C54.3246 25.7123 53.8865 24.2012 53.8294 22.6202C53.8103 22.0488 54.0071 21.5726 54.5722 21.2996C55.1691 21.0139 55.6833 21.1917 56.1595 21.5726C57.1246 22.3536 57.3849 23.452 57.4992 24.6266L57.4929 24.6329ZM56.5087 24.671C56.4833 23.5028 56.331 22.6774 55.6452 22.0806C55.0865 21.598 54.4833 21.8139 54.4326 22.5441C54.3437 23.7631 54.7564 24.9123 55.1437 26.0425C55.3278 26.5885 55.7405 26.5504 56.0262 26.0806C56.3373 25.5599 56.5278 24.9822 56.5087 24.671Z" fill="#D61823"/>
<path id="Vector_26" d="M51.3451 17.9599C51.8022 18.1694 52.399 18.3599 52.3292 18.9567C52.2403 19.7059 51.6244 20.0361 50.9133 20.1694C50.8879 19.6424 50.8816 19.1091 50.8435 18.5821C50.8117 18.1948 50.8625 17.9091 51.3451 17.9535V17.9599Z" fill="#AA0404"/>
<path id="Vector_27" d="M56.5088 24.6711C56.5279 24.9885 56.3374 25.56 56.0263 26.0806C55.7469 26.5504 55.3342 26.5885 55.1438 26.0425C54.7565 24.9123 54.3501 23.7631 54.4327 22.5441C54.4834 21.8139 55.0866 21.5981 55.6453 22.0806C56.3311 22.6774 56.4771 23.4965 56.5088 24.6711Z" fill="#FD7858"/>
</g>
</svg>
