<svg width="100" height="100" viewBox="0 0 100 100" fill="none" xmlns="http://www.w3.org/2000/svg">
<path d="M98.2219 59.6099C95.3013 49.0067 86.9203 41.3877 74.3489 43.9274C73.3965 44.1179 72.5077 44.3718 71.6188 44.6893L13.1426 60.8163L32.1267 96.6893L85.1426 82.0226C85.587 81.8956 86.095 81.8321 86.5394 81.7052C87.1743 81.5147 87.7458 81.3242 88.3172 81.1337C97.5235 77.7687 100.952 69.5782 98.2219 59.6099Z" fill="#8F5E50"/>
<path d="M38.9844 62.975C38.9844 62.975 46.286 76.4353 44.1272 84.6893C41.9685 92.9433 40.5082 94.4036 40.5082 94.4036L86.5399 81.5782C86.5399 81.5782 101.842 68.1814 86.3495 50.848L38.9844 62.975Z" fill="#895C5B"/>
<path d="M1.39708 82.0861C-1.52355 71.4829 4.12724 62.594 14.9209 60.4353C27.4288 57.8956 35.8733 65.5147 38.7939 76.1179C41.7145 86.721 37.8415 95.9909 27.2384 98.9115C14.4764 102.467 4.31772 92.6893 1.39708 82.0861Z" fill="#6C443E"/>
<path d="M6.41301 81.3877C4.25428 73.6416 8.38126 67.102 16.3178 65.5147C25.5241 63.6734 31.6828 69.2607 33.8416 77.0067C36.0003 84.7528 33.0162 91.0385 25.2701 93.1972C15.9368 95.8004 8.63523 89.1972 6.4765 81.3877H6.41301Z" fill="#59342D"/>
<path d="M86.9843 56.8162C77.27 65.3242 58.5398 49.1972 55.2382 51.8003C54.7303 52.1813 54.7303 52.8162 55.0478 53.5146C55.9367 55.4829 59.2383 58.594 61.4605 61.8956C63.8097 65.3242 64.889 69.0702 60.8256 72.1813C51.4287 79.3559 30.4763 54.721 23.3652 57.9591C23.3652 57.9591 24.3811 57.3242 25.8414 56.5622C28.0636 55.3559 31.1748 53.8956 32.6351 54.213C39.0478 55.5464 50.2224 69.1972 55.7462 68.1813C58.4763 67.6734 55.7462 63.4829 53.016 59.0384C50.2859 54.467 47.6192 49.5781 50.9208 47.9273C57.4605 44.5622 78.6668 59.4194 82.9208 55.3559C85.016 53.3242 84.7621 51.7368 83.4922 50.34C80.8255 47.4829 73.8414 45.5781 74.0319 43.5464C74.0319 43.4194 74.0319 43.3559 74.0954 43.2289C75.3652 40.4988 84.4446 43.4829 88.0636 48.1813C90.0319 50.7845 90.3493 53.8956 86.9208 56.8797L86.9843 56.8162Z" fill="#F1B7DA"/>
<path d="M56.191 68.8798C50.6672 69.8956 39.4926 56.1813 33.0799 54.9115C31.7465 54.6575 29.0799 55.8004 26.9846 56.8798C26.6037 56.7528 26.2862 56.6258 25.9053 56.5623C28.1275 55.3559 31.2386 53.8956 32.6989 54.2131C39.1116 55.5464 50.2862 69.1972 55.81 68.1813C57.2069 67.9274 57.1434 66.6575 56.3815 64.8798C57.4608 67.0385 57.7783 68.6258 56.1275 68.8798H56.191Z" fill="#F1B7DA"/>
<path d="M83.3017 55.9908C82.9842 56.2448 82.6668 56.4353 82.2223 56.5623C76.3176 58.213 57.3969 45.4511 51.3017 48.5623C49.27 49.5781 49.5239 51.8003 50.6033 54.467C49.2065 51.5464 48.762 48.9432 50.9842 47.8638C57.5239 44.4988 78.7303 59.3559 82.9842 55.2924C84.3811 53.9591 84.6985 52.8162 84.4446 51.7369C85.2065 52.9432 85.0795 54.34 83.3017 55.9908Z" fill="#F1B7DA"/>
<path d="M58.2225 71.7369C49.8415 74.5305 35.4288 60.1178 26.9209 56.8797C28.3812 56.1178 30.0955 55.3559 31.4288 55.0385C30.159 55.4194 28.7622 56.1178 27.4923 56.7527C35.8098 59.9273 49.778 73.7686 58.2225 71.8004V71.7369Z" fill="#F1B7DA"/>
<path d="M56.953 64.6893C58.0323 66.848 58.3498 68.4353 56.699 68.6893C56.699 68.6893 56.6355 68.6893 56.572 68.6893C57.6514 68.1813 57.3339 66.721 56.3815 64.8162C55.6831 63.1654 54.3498 61.1337 53.0799 58.975C52.1911 57.5147 51.3657 56.0543 50.7307 54.721C50.7307 54.6575 50.6672 54.594 50.6038 54.467C49.5244 51.8639 49.2704 49.6416 51.3022 48.5623C51.6196 48.4353 51.9371 48.3083 52.318 48.2448C52.1276 48.2448 52.0006 48.3718 51.8736 48.4353C49.8418 49.4512 50.0958 51.6734 51.1752 54.34C51.1752 54.4035 51.2387 54.467 51.3022 54.594C51.9371 55.9908 52.826 57.4512 53.6514 58.848C54.9847 61.0067 56.2545 63.0385 56.953 64.6893Z" fill="#F1B7DA"/>
<path d="M82.6034 57.3877C82.6034 57.3877 82.5399 57.3877 82.4764 57.3877C73.0161 60.2448 59.3018 49.6417 55.1748 50.0861C58.4764 48.3718 72.6986 59.8639 82.6669 57.3242L82.6034 57.3877Z" fill="#F1B7DA"/>
<path d="M83.8735 55.8639C83.683 56.0543 83.429 56.2448 83.1116 56.3083C83.0481 56.3083 82.9211 56.3718 82.7941 56.4353C82.7306 56.4353 82.6671 56.4353 82.5401 56.4353C82.7941 56.3083 83.0481 56.1813 83.2386 55.9908C84.9529 54.34 85.0798 52.9432 84.3814 51.7369C84.2544 51.2289 83.937 50.721 83.4925 50.2766C82.6036 47.4829 77.1433 45.5781 74.5402 43.8639C74.3497 43.7369 74.2227 43.6099 74.0957 43.5464C74.0957 43.4194 74.0957 43.3559 74.1592 43.2289C74.4132 42.721 74.9846 42.4035 75.7465 42.2766C75.3021 42.4035 74.9211 42.721 74.7306 43.1019C74.7306 43.2289 74.6671 43.2924 74.6671 43.4194C74.7941 43.5464 74.9846 43.6734 75.1116 43.7369C77.7148 45.5146 83.1751 47.4194 84.064 50.2131C84.5084 50.6575 84.8259 51.1654 84.9529 51.6734C85.7148 52.8797 85.5878 54.2766 83.81 55.9273L83.8735 55.8639Z" fill="#F1B7DA"/>
<path d="M86.0956 55.4194C85.2702 56.1813 84.3178 56.6892 83.3654 57.0702L83.1114 56.3083C83.4289 56.1813 83.6194 56.0543 83.8733 55.8638C85.5876 54.213 85.7146 52.8162 85.0162 51.6099C84.8892 51.1019 84.5717 50.594 84.1273 50.1495C83.2384 47.3559 77.7781 45.4511 75.1749 43.6734C74.9844 43.5464 74.8575 43.4194 74.7305 43.3559C74.7305 43.2289 74.7305 43.1654 74.794 43.0384C74.9844 42.6575 75.3019 42.4035 75.8098 42.213C78.9209 41.7051 85.3336 44.3718 88.1908 48.1813C88.3178 48.3718 88.3813 48.6257 88.4448 48.8797C89.2067 50.9749 88.6987 53.2607 86.159 55.4829L86.0956 55.4194Z" fill="#F1B7DA"/>
<path d="M83.4287 57.0702C83.1747 57.1972 82.9208 57.2607 82.6668 57.3242C72.6986 59.8639 58.4763 48.3718 55.1747 50.0861C54.8573 50.0861 54.6033 50.2131 54.4128 50.3401C53.7779 50.848 53.9049 51.6099 54.4128 52.5623C54.6033 52.8797 54.7938 53.1972 55.0478 53.5147C56.6985 55.7369 59.7462 58.7845 61.4605 61.8956C61.6509 62.2766 61.9049 62.721 62.0319 63.102C63.1112 65.7686 62.9843 68.4353 59.9366 70.721C59.3652 71.1655 58.7938 71.4829 58.1589 71.6734C49.7779 73.7051 35.7462 59.8639 27.4287 56.6258C28.6986 55.9908 30.1589 55.2924 31.3652 54.9115C32.0001 54.7845 32.5081 54.721 32.9525 54.7845C39.3652 56.1178 50.5398 69.7686 56.0636 68.7528C56.2541 68.7528 56.3811 68.6893 56.5081 68.6258C56.5081 68.6258 56.5716 68.6258 56.6351 68.6258C58.2224 68.3083 57.9684 66.7845 56.889 64.6258C56.1906 62.975 54.8573 60.9432 53.5874 58.7845C52.6986 57.3242 51.8732 55.8639 51.2382 54.5305C51.2382 54.467 51.1747 54.4035 51.1112 54.2766C50.0319 51.6734 49.7779 49.4512 51.8097 48.3718C51.9366 48.3083 52.1271 48.2448 52.2541 48.1813C59.2382 46.6575 76.5081 58.0226 82.1589 56.4988C82.2858 56.4988 82.4128 56.4353 82.4763 56.3718C82.5398 56.3718 82.6033 56.3718 82.7303 56.3718C82.8573 56.3718 82.9208 56.3718 83.0478 56.2448L83.3017 57.0067L83.4287 57.0702Z" fill="#F1B7DA"/>
<path d="M56.635 68.7528C56.5081 68.8163 56.3811 68.8797 56.1906 68.8797C50.6668 69.8956 39.4922 56.1813 33.0795 54.9115C32.6985 54.848 32.1271 54.9115 31.4922 55.0385C32.3176 54.7845 33.0795 54.6575 33.6509 54.721C40.0001 55.9909 51.0477 69.5147 56.635 68.7528Z" fill="#F1B7DA"/>
<path d="M62.7304 62.975C63.8097 65.6417 63.6827 68.3083 60.6351 70.594C59.9367 71.1655 59.1113 71.4829 58.2859 71.7369C58.9208 71.5464 59.5557 71.229 60.0637 70.7845C63.1113 68.4988 63.2383 65.7686 62.1589 63.1655C61.9684 62.7845 61.778 62.3401 61.5875 61.9591C59.8732 58.848 56.7621 55.8004 55.1748 53.5782C54.9208 53.2607 54.7304 52.9432 54.5399 52.6258C53.9684 51.6734 53.8415 50.9115 54.5399 50.4036C54.7304 50.2131 54.9843 50.1496 55.3018 50.1496C55.2383 50.1496 55.1748 50.2131 55.1113 50.2766C54.4764 50.7845 54.6034 51.5464 55.1113 52.4988C55.3018 52.8163 55.4923 53.1337 55.7462 53.4512C57.397 55.6734 60.4446 58.721 62.1589 61.8321C62.3494 62.2131 62.6034 62.6575 62.7304 63.0385V62.975Z" fill="#F1B7DA"/>
<path d="M82.6031 56.4988C82.4761 56.4988 82.4126 56.5623 82.2856 56.6257C76.6348 58.213 59.365 46.7845 52.3809 48.3083C58.857 45.9591 76.6348 57.7686 82.6666 56.4988H82.6031Z" fill="#F1B7DA"/>
<path d="M86.6667 55.2289C85.5873 56.1813 84.3175 56.8162 83.0477 57.2607C82.9207 57.2607 82.7937 57.3242 82.6667 57.3877C82.9207 57.3242 83.1746 57.1972 83.4286 57.1337C84.381 56.7527 85.2699 56.1813 86.1588 55.4829C88.6985 53.2607 89.2064 50.975 88.4445 48.8797C88.381 48.6258 88.254 48.4353 88.1905 48.1813C85.2699 44.3718 78.8572 41.7051 75.8096 42.2131C78.6032 41.1972 85.6508 43.9273 88.762 47.9908C88.8889 48.1813 88.9524 48.4353 89.0159 48.6893C89.7778 50.7845 89.2699 53.0702 86.7302 55.2924L86.6667 55.2289Z" fill="#F1B7DA"/>
</svg>
