<svg width="100" height="100" viewBox="0 0 100 100" fill="none" xmlns="http://www.w3.org/2000/svg">
<g clip-path="url(#clip0_32_297830)">
<path d="M19.049 82.0807C15.4347 79.3016 14.166 72.5238 14.2064 70.1205C14.2412 54.9741 23.3231 39.0999 27.7829 32.717C27.9751 32.5003 28.1047 32.2668 28.2969 32.05C28.393 31.9417 28.5058 31.7707 28.6019 31.6624C28.7148 31.4914 28.8277 31.3205 28.9238 31.2121C29.4546 30.4825 29.9015 30.0658 30.0937 29.8491C31.4804 28.6782 52.1675 43.0734 69.6649 55.6079C68.9898 58.3777 70.1672 61.2415 72.5526 62.35C74.3458 63.1658 76.4408 62.8554 78.1113 61.6265L78.1739 61.6433C85.5947 66.9847 91.477 71.3104 93.4948 72.7899C93.6031 72.886 93.6489 72.9653 93.678 73.1072C93.6902 73.3117 93.5774 73.4826 93.3561 73.5575C85.1884 75.2584 21.8421 84.1704 19.049 82.0807Z" fill="url(#paint0_linear_32_297830)"/>
<path d="M14.1437 70.1037C14.1538 68.5641 14.2434 66.9786 14.3954 65.4099C15.9598 51.8133 23.695 38.462 27.7827 32.7171C27.9749 32.5003 28.1045 32.2668 28.2967 32.0501C28.3928 31.9417 28.5057 31.7707 28.6018 31.6624C28.7146 31.4914 28.8275 31.3205 28.9236 31.2121C29.4544 30.4826 29.9013 30.0658 30.0935 29.8491C31.4802 28.6783 52.059 42.9773 69.5563 55.5118C69.6189 55.5286 69.6021 55.5911 69.6647 55.6079C68.9896 58.3777 70.167 61.2415 72.5524 62.3501C74.3456 63.1659 76.4406 62.8554 78.1111 61.6265L78.1737 61.6433C85.5945 66.9847 91.4768 71.3104 93.4946 72.7899C93.5571 72.8067 93.6029 72.886 93.5862 72.9486C93.632 73.0279 93.632 73.0279 93.6152 73.0905L14.1437 70.1037Z" fill="url(#paint1_linear_32_297830)"/>
<path opacity="0.85" d="M69.5559 55.5121C69.6185 55.5288 69.6017 55.5914 69.6643 55.6082C68.9892 58.378 70.1666 61.2418 72.552 62.3503C74.3452 63.1661 76.4402 62.8557 78.1107 61.6268L78.1733 61.6436C78.1733 61.6436 77.1383 65.2558 74.3539 66.3874C71.3146 67.719 62.7047 65.8143 69.5559 55.5121Z" fill="#F7AD18"/>
<path d="M70.4534 65.6776C67.7719 64.4226 66.7163 60.8537 68.168 57.6885C68.5279 56.8461 69.0586 56.1165 69.681 55.5456C69.0059 58.3154 70.1834 61.1792 72.5687 62.2878C74.362 63.1036 76.457 62.7931 78.1275 61.5642L78.1901 61.581C78.1398 61.7687 78.0269 61.9396 77.9934 62.0648C76.5082 65.3552 73.1348 66.9325 70.4534 65.6776Z" fill="url(#paint2_linear_32_297830)"/>
<path d="M69.5003 56.9725C69.4925 56.5009 69.5473 56.0462 69.6814 55.5457C69.6814 55.5457 69.6647 55.6082 69.6021 55.5915C69.5305 56.1088 69.4758 56.5635 69.5003 56.9725Z" fill="#FFE180"/>
<path opacity="0.5" d="M77.9596 62.1905C78.0099 62.0028 78.1227 61.8319 78.1562 61.7067L78.0937 61.69C78.0602 61.8151 78.0434 61.8777 77.9473 61.986C76.4956 65.1513 73.1223 66.7287 70.4408 65.4737C68.585 64.6411 67.5651 62.6913 67.5384 60.5382C67.469 62.7997 68.5347 64.8288 70.4531 65.6781C73.1346 66.9331 76.5079 65.3558 77.9596 62.1905Z" fill="#FFE180"/>
<path d="M72.4561 62.4584C74.3119 63.291 76.3902 63.0431 78.0562 62.0812C78.0897 61.9561 78.1858 61.8477 78.2194 61.7226L78.1568 61.7058C76.503 62.8722 74.4538 63.2619 72.598 62.4294C70.1501 61.304 69.0352 58.457 69.7103 55.6872C69.5181 55.9039 69.3259 56.1207 69.117 56.4C68.7302 58.8447 70.0707 61.3498 72.4561 62.4584Z" fill="#F7AD18"/>
<path d="M20.7893 82.3456C20.1927 82.3198 19.8172 82.2193 19.6463 82.1064C16.032 79.3273 14.7633 72.5495 14.787 70.2087C14.8054 51.3695 28.8574 31.4623 30.6743 29.9373C30.6743 29.9373 30.6911 29.8747 30.7536 29.8915C30.4408 29.8077 30.1737 29.8032 30.0776 29.9116C28.2607 31.4365 14.1919 51.4064 14.1903 70.183C14.1667 72.5238 15.4186 79.3641 19.0497 82.0806C19.2832 82.2103 19.8631 82.2986 20.7893 82.3456Z" fill="#D78217"/>
<path opacity="0.5" d="M14.3951 65.4104C22.1087 70.1597 49.1009 70.2838 50.9367 70.4404C52.8976 70.6305 86.6473 72.5652 93.6484 72.9658C93.6942 73.0452 93.6942 73.0452 93.6774 73.1077L14.2059 70.121L14.1433 70.1042C14.0909 68.5478 14.243 66.9791 14.3951 65.4104Z" fill="url(#paint3_linear_32_297830)"/>
<path d="M32.7462 54.2331C35.7573 55.5093 37.176 58.9742 35.8997 61.9853C34.6235 64.9964 31.1586 66.4151 28.1017 65.0595C25.0906 63.7833 23.6719 60.3183 24.9481 57.3073C26.2702 54.3755 29.7351 52.9568 32.7462 54.2331Z" fill="url(#paint4_linear_32_297830)"/>
<path d="M56.7017 48.1777C60.5339 50.1434 62.319 54.243 60.7422 57.3747C59.1654 60.5065 54.7497 61.4692 50.9174 59.5035C47.0852 57.5378 45.3 53.4382 46.8769 50.3065C48.4537 47.1748 52.8526 46.2746 56.7017 48.1777Z" fill="url(#paint5_linear_32_297830)"/>
<path d="M38.421 38.3169C39.4176 38.8522 39.9337 39.9293 39.5113 40.755C39.0889 41.5806 37.9369 41.8755 36.8777 41.3235C35.8811 40.7882 35.365 39.7111 35.7874 38.8854C36.2892 38.0139 37.4244 37.7816 38.421 38.3169Z" fill="url(#paint6_linear_32_297830)"/>
<path opacity="0.72" d="M40.0555 73.7604C42.5885 73.5674 44.7526 74.7508 44.8676 76.324C44.9825 77.8972 42.9947 79.3093 40.4617 79.5024C37.9287 79.6955 35.7646 78.512 35.6496 76.9388C35.5347 75.3656 37.5225 73.9535 40.0555 73.7604Z" fill="url(#paint7_linear_32_297830)"/>
<path opacity="0.48" d="M48.8804 73.1078C49.8402 73.0297 50.6658 73.4521 50.7026 74.0655C50.7395 74.6789 49.9919 75.2163 49.0321 75.2944C48.0724 75.3726 47.2467 74.9501 47.2099 74.3367C47.1731 73.7233 47.9206 73.186 48.8804 73.1078Z" fill="url(#paint8_linear_32_297830)"/>
<path opacity="0.35" d="M47.8951 56.0116C45.275 55.779 43.5725 52.3722 44.3437 49.494C45.1149 46.6158 47.9252 44.8876 50.6782 45.6253C53.3686 46.3462 55.0008 49.2647 54.2296 52.1429C53.4584 55.0211 50.6404 56.2778 47.8951 56.0116Z" fill="url(#paint9_radial_32_297830)"/>
<path opacity="0.35" d="M26.6002 64.6568C23.9801 64.4242 22.2776 61.0174 23.0488 58.1392C23.82 55.261 26.6302 53.5328 29.3832 54.2705C32.1363 55.0081 33.7059 57.9099 32.9347 60.7881C32.1635 63.6663 29.408 64.9398 26.6002 64.6568Z" fill="url(#paint10_radial_32_297830)"/>
<path opacity="0.35" d="M37.8402 80.2758C35.2401 80.7191 32.6928 78.9636 32.6159 76.9982C32.5389 75.0328 34.719 73.404 37.519 73.2154C40.3023 73.0894 42.6664 74.5276 42.7433 76.4929C42.8828 78.4751 40.6279 79.8827 37.8402 80.2758Z" fill="url(#paint11_radial_32_297830)"/>
</g>
<defs>
<linearGradient id="paint0_linear_32_297830" x1="16.9889" y1="53.8661" x2="93.3712" y2="74.3327" gradientUnits="userSpaceOnUse">
<stop stop-color="#FDAE19"/>
<stop offset="0.1044" stop-color="#FDBA33"/>
<stop offset="0.2602" stop-color="#FDC952"/>
<stop offset="0.4226" stop-color="#FDD56B"/>
<stop offset="0.5924" stop-color="#FDDD7C"/>
<stop offset="0.7742" stop-color="#FDE287"/>
<stop offset="0.9893" stop-color="#FDE48A"/>
</linearGradient>
<linearGradient id="paint1_linear_32_297830" x1="13.2703" y1="44.6585" x2="82.1286" y2="83.6144" gradientUnits="userSpaceOnUse">
<stop stop-color="#EF911A"/>
<stop offset="0.0585059" stop-color="#F2971A"/>
<stop offset="0.2911" stop-color="#FAA819"/>
<stop offset="0.4626" stop-color="#FDAE19"/>
<stop offset="0.5644" stop-color="#FDB629"/>
<stop offset="0.7639" stop-color="#FDCA53"/>
<stop offset="0.9893" stop-color="#FDE48A"/>
</linearGradient>
<linearGradient id="paint2_linear_32_297830" x1="73.9347" y1="56.7261" x2="71.4416" y2="66.0305" gradientUnits="userSpaceOnUse">
<stop offset="0.3369" stop-color="#FDE48A"/>
<stop offset="0.4822" stop-color="#FDCA53"/>
<stop offset="0.6108" stop-color="#FDB629"/>
<stop offset="0.6765" stop-color="#FDAE19"/>
<stop offset="0.7964" stop-color="#FAA819"/>
<stop offset="0.9591" stop-color="#F2971A"/>
<stop offset="1" stop-color="#EF911A"/>
</linearGradient>
<linearGradient id="paint3_linear_32_297830" x1="10.7144" y1="67.4584" x2="88.9875" y2="74.2621" gradientUnits="userSpaceOnUse">
<stop offset="0.026738" stop-color="#FDE48A"/>
<stop offset="0.4593" stop-color="#FEF2C5"/>
<stop offset="0.8173" stop-color="#FFFBEF"/>
<stop offset="1" stop-color="white"/>
</linearGradient>
<linearGradient id="paint4_linear_32_297830" x1="25.2603" y1="56.8005" x2="35.5471" y2="62.8017" gradientUnits="userSpaceOnUse">
<stop stop-color="#FDE48A"/>
<stop offset="0.1339" stop-color="#FDCA53"/>
<stop offset="0.2524" stop-color="#FDB629"/>
<stop offset="0.3128" stop-color="#FDAE19"/>
<stop offset="0.6552" stop-color="#E78B0F"/>
<stop offset="1" stop-color="#D36C07"/>
</linearGradient>
<linearGradient id="paint5_linear_32_297830" x1="47.2195" y1="49.7478" x2="59.7695" y2="58.796" gradientUnits="userSpaceOnUse">
<stop stop-color="#FDE48A"/>
<stop offset="0.1339" stop-color="#FDCA53"/>
<stop offset="0.2524" stop-color="#FDB629"/>
<stop offset="0.3128" stop-color="#FDAE19"/>
<stop offset="0.6552" stop-color="#E78B0F"/>
<stop offset="1" stop-color="#D36C07"/>
</linearGradient>
<linearGradient id="paint6_linear_32_297830" x1="35.9372" y1="38.7123" x2="39.2628" y2="41.11" gradientUnits="userSpaceOnUse">
<stop stop-color="#FDE48A"/>
<stop offset="0.1339" stop-color="#FDCA53"/>
<stop offset="0.2524" stop-color="#FDB629"/>
<stop offset="0.3128" stop-color="#FDAE19"/>
<stop offset="0.6552" stop-color="#E78B0F"/>
<stop offset="1" stop-color="#D36C07"/>
</linearGradient>
<linearGradient id="paint7_linear_32_297830" x1="35.6608" y1="76.6216" x2="44.7009" y2="77.8338" gradientUnits="userSpaceOnUse">
<stop stop-color="#FDE48A"/>
<stop offset="0.1339" stop-color="#FDCA53"/>
<stop offset="0.2524" stop-color="#FDB629"/>
<stop offset="0.3128" stop-color="#FDAE19"/>
<stop offset="0.6552" stop-color="#E78B0F"/>
<stop offset="1" stop-color="#D36C07"/>
</linearGradient>
<linearGradient id="paint8_linear_32_297830" x1="47.1832" y1="74.22" x2="50.6146" y2="74.6802" gradientUnits="userSpaceOnUse">
<stop stop-color="#FDE48A"/>
<stop offset="0.1339" stop-color="#FDCA53"/>
<stop offset="0.2524" stop-color="#FDB629"/>
<stop offset="0.3128" stop-color="#FDAE19"/>
<stop offset="0.6552" stop-color="#E78B0F"/>
<stop offset="1" stop-color="#D36C07"/>
</linearGradient>
<radialGradient id="paint9_radial_32_297830" cx="0" cy="0" r="1" gradientUnits="userSpaceOnUse" gradientTransform="translate(49.2551 50.8426) rotate(105) scale(5.40489 5.10384)">
<stop stop-color="white"/>
<stop offset="0.1035" stop-color="#FFF9EF"/>
<stop offset="0.3063" stop-color="#FEEAC4"/>
<stop offset="0.5889" stop-color="#FDD180"/>
<stop offset="0.9373" stop-color="#FCB023"/>
<stop offset="0.9733" stop-color="#FCAC19"/>
</radialGradient>
<radialGradient id="paint10_radial_32_297830" cx="0" cy="0" r="1" gradientUnits="userSpaceOnUse" gradientTransform="translate(27.9813 59.4965) rotate(105) scale(5.40489 5.10384)">
<stop stop-color="white"/>
<stop offset="0.1035" stop-color="#FFF9EF"/>
<stop offset="0.3063" stop-color="#FEEAC4"/>
<stop offset="0.5889" stop-color="#FDD180"/>
<stop offset="0.9373" stop-color="#FCB023"/>
<stop offset="0.9733" stop-color="#FCAC19"/>
</radialGradient>
<radialGradient id="paint11_radial_32_297830" cx="0" cy="0" r="1" gradientUnits="userSpaceOnUse" gradientTransform="translate(37.6944 76.821) rotate(87.316) scale(3.52117 5.10381)">
<stop stop-color="white"/>
<stop offset="0.1035" stop-color="#FFF9EF"/>
<stop offset="0.3063" stop-color="#FEEAC4"/>
<stop offset="0.5889" stop-color="#FDD180"/>
<stop offset="0.9373" stop-color="#FCB023"/>
<stop offset="0.9733" stop-color="#FCAC19"/>
</radialGradient>
<clipPath id="clip0_32_297830">
<rect width="100" height="100" fill="white"/>
</clipPath>
</defs>
</svg>
