<svg width="101" height="61" viewBox="0 0 101 61" fill="none" xmlns="http://www.w3.org/2000/svg">
<ellipse cx="50" cy="13" rx="30" ry="10" fill="url(#paint0_linear_279_750)"/>
<path d="M99.4922 18.9198C99.816 19.2055 99.7398 19.5864 99.7398 19.942C99.7271 24.742 99.8287 29.542 99.6573 34.3293C99.4858 39.2436 97.7842 43.7007 94.8255 47.6245C90.8636 52.888 85.5684 55.9864 79.1303 57.288C75.5176 58.0182 71.8922 58.6848 68.235 59.1293C65.8287 59.4214 63.3969 59.5928 60.9715 59.7642C55.9049 60.1261 50.8382 60.2848 45.7652 60.1325C42.489 60.0372 39.2128 59.8721 35.943 59.5356C33.0414 59.2372 30.1398 58.9642 27.2636 58.4817C23.0668 57.7833 18.8446 57.0975 14.8763 55.5102C9.54932 53.3769 5.55567 49.7071 2.8636 44.6277C0.984239 41.0848 0.0953498 37.3071 0.152493 33.2817C0.190588 30.596 0.165191 27.9166 0.152493 25.2309C0.152493 24.4245 0.0572546 23.6118 0.0128102 22.8118C-0.0760787 20.9896 0.152493 19.1801 1.09852 17.542C1.40329 17.8214 1.78424 17.7261 2.13979 17.7388C3.58106 17.8087 4.71122 18.4626 5.49852 19.6436C5.98741 20.3864 6.36202 21.1991 6.55884 22.088C6.96519 23.942 6.76837 25.8087 6.76202 27.6753C6.76202 29.015 6.4763 30.3356 6.55249 31.6817C6.59694 32.4753 6.68583 32.5198 7.42233 32.1388C8.0763 31.8023 8.62868 31.3198 9.20011 30.8626C9.96202 30.2531 10.6731 29.5801 11.4795 29.0404C13.3588 27.7896 15.0604 28.0055 16.6096 29.6245C17.5811 30.6404 18.1652 31.8975 18.7303 33.161C19.5557 35.015 20.3112 36.9007 21.4223 38.615C22.0509 39.5864 22.8319 40.3991 23.9112 40.8753C26.0192 41.8087 27.6763 41.142 28.5017 39.0023C29.0287 37.6436 29.4731 36.2468 29.9493 34.869C30.3493 33.7134 30.87 32.6214 31.5938 31.6245C34.3049 27.9166 39.8033 27.9102 42.4509 30.6214C43.5049 31.6944 44.1207 32.996 44.5588 34.4118C45.0414 35.961 45.3779 37.5547 46.0065 39.0531C46.3684 39.9102 46.9144 40.5706 47.8096 40.9261C50.4636 41.9801 53.708 40.8309 55.016 38.2912C55.5747 37.2118 56.0128 36.069 56.489 34.9515C57.0223 33.7134 57.6192 32.5261 58.6223 31.5864C60.5525 29.7769 64.1842 29.2309 66.3557 32.3864C67.0604 33.4087 67.4731 34.5515 67.7461 35.7388C68.1842 37.6372 68.5525 39.5483 68.9779 41.4404C69.2699 42.742 69.543 44.0626 70.1715 45.2626C70.6223 46.1198 71.2573 46.615 72.2985 46.596C73.3081 46.5769 73.8668 46.0372 74.2477 45.2055C74.4636 44.7293 74.6604 44.2341 74.8128 43.7325C75.5049 41.4404 75.8223 39.0595 76.2795 36.7166C76.7557 34.2912 77.27 31.8785 78.4192 29.6372C79.6319 27.2817 81.4541 25.7515 84.0382 25.1991C86.1081 24.7547 87.9684 25.161 89.5112 26.7293C90.5842 27.8214 91.0985 29.1674 91.4287 30.6023C91.6763 31.6944 91.8477 32.7991 92.0699 33.9991C93.2636 33.3642 93.6255 32.3483 93.8604 31.2817C94.1525 29.9356 94.2223 28.5515 94.3049 27.1801C94.4065 25.3769 94.6985 23.6372 95.6382 22.0563C95.7588 21.8595 95.9684 21.6753 95.8223 21.4023H95.816C96.1334 21.4785 96.2096 21.1928 96.3557 21.0341C97.2065 20.1007 98.216 19.3896 99.3715 18.8817L99.4731 18.9071L99.4922 18.9198Z" fill="#F2C87B"/>
<path fill-rule="evenodd" clip-rule="evenodd" d="M96.643 22.8909C96.7153 22.7552 96.7918 22.6117 96.9401 22.4299C97.0351 22.3854 97.0973 22.2939 97.1581 22.2044C97.19 22.1575 97.2215 22.1112 97.2571 22.0724C98.1079 21.139 99.1175 20.4216 100.273 19.92C100.258 19.7924 100.25 19.6372 100.243 19.4746C100.216 18.9144 100.185 18.2653 99.8144 18.344C99.8994 18.2877 99.9791 18.2221 100.051 18.1422C98.8254 13.6279 96.1397 10.2375 91.9492 8.19301C86.2667 5.42476 80.1905 3.86285 73.9683 2.87238C74.002 2.99693 74.0097 3.1069 73.9975 3.20559L73.3329 3.1274C73.468 3.06634 73.4384 2.97788 73.4094 2.89126C73.3897 2.83237 73.3703 2.77433 73.4032 2.72634C69.5683 2.13587 65.7143 1.70412 61.8413 1.39936C59.3843 1.20849 56.9248 1.16048 54.4643 1.11246C53.078 1.0854 51.6914 1.05833 50.3048 1.00571C49.7353 0.984747 49.1582 1.02529 48.5787 1.06601C48.105 1.09929 47.6296 1.13269 47.1556 1.13269C43.0603 1.11999 38.9714 1.25968 34.8825 1.59618C30.3175 1.97079 25.7841 2.54856 21.3333 3.63428C17.2571 4.6311 13.3016 6.00253 9.75238 8.28825C5.93016 10.7517 2.33333 13.4248 1 17.793C1.30476 18.0724 2 18.5 3.04127 18.7581C4.48254 18.8216 5.6127 19.4819 6.4 20.6629C6.88889 21.4057 7.26349 22.2184 7.46032 23.1073C7.7691 24.5161 7.72959 25.9323 7.69002 27.3502C7.67752 27.7982 7.66502 28.2464 7.66349 28.6946C7.66042 29.3434 7.34465 29.9758 7.02915 30.6076C6.69314 31.2806 6.35743 31.9529 6.4 32.6438C6.44444 33.4311 7.5873 33.539 8.32381 33.1581C8.88764 32.8625 9.37596 32.4678 9.86607 32.0716C9.94443 32.0083 10.0228 31.9449 10.1016 31.8819C10.3548 31.6793 10.6024 31.4698 10.8497 31.2604C11.3466 30.8398 11.8426 30.42 12.381 30.0597C14.254 28.8089 15.9619 29.0311 17.5111 30.6438C18.4889 31.6597 19.0667 32.9168 19.6317 34.1803C19.7774 34.505 19.9207 34.8306 20.064 35.1562C20.7388 36.6895 21.4125 38.2202 22.3238 39.6343C22.9524 40.6057 23.7397 41.4184 24.8127 41.8946C26.9143 42.8279 28.5778 42.1613 29.4032 40.0216C29.7791 39.0405 30.1186 38.0395 30.4576 37.0402C30.5881 36.6556 30.7184 36.2712 30.8508 35.8882C31.2444 34.7263 31.7651 33.6406 32.4952 32.6438C35.2064 28.9359 40.6984 28.9295 43.3524 31.6406C44.4063 32.7136 45.0222 34.0216 45.4603 35.4311C45.6824 36.1412 45.7162 36.8702 45.7499 37.597C45.7894 38.4492 45.8287 39.2983 46.1714 40.1105C46.5333 40.974 47.8159 41.5898 48.7111 41.9454C51.3651 42.9994 54.6095 41.8438 55.9175 39.3105C56.3146 38.5345 56.6526 37.7257 56.9906 36.9171C57.1227 36.601 57.2548 36.2849 57.3905 35.9708C57.9175 34.7327 58.5206 33.5454 59.5238 32.6057C61.454 30.7962 65.0857 30.2502 67.2571 33.4057C67.9619 34.4279 68.3746 35.5708 68.6476 36.7581C68.8657 37.7136 69.0675 38.6739 69.2695 39.635C69.4675 40.5771 69.6656 41.5199 69.8794 42.4597C69.898 42.543 69.9165 42.6264 69.935 42.7098C70.2069 43.9347 70.4786 45.1584 71.073 46.2819C71.5238 47.139 72.1587 47.6343 73.2 47.6152C74.2095 47.5898 74.7683 47.0502 75.1492 46.2248C75.3651 45.7486 75.5619 45.2533 75.7143 44.7517C76.2178 43.0795 76.523 41.3669 76.828 39.6555C76.9423 39.0147 77.0564 38.3741 77.181 37.7359C77.6571 35.3041 78.1714 32.8914 79.3206 30.6565C80.5333 28.3009 82.3556 26.7771 84.9397 26.2184C87.0095 25.774 88.8699 26.1803 90.4127 27.7486C91.4857 28.8406 92 30.1867 92.3302 31.6216C92.4528 32.1622 92.2899 32.4564 92.1211 32.7612C91.9489 33.0721 91.7706 33.3941 91.8828 34C93.305 34 94 33.4057 94.2667 32.6057C94.3573 32.197 94.4725 31.7567 94.5911 31.3032C94.8632 30.2633 95.1533 29.1544 95.2064 28.1994C95.3079 26.3962 95.6 24.6565 96.5397 23.0756C96.5776 23.0137 96.6099 22.9531 96.643 22.8909ZM81.4716 5.15719L79.7654 4.58848C79.807 4.54849 79.868 4.51936 79.931 4.48924C79.9671 4.47199 80.0039 4.45441 80.0381 4.43428V4.42793C80.151 4.48398 80.264 4.53933 80.3767 4.59459C80.7475 4.77628 81.1161 4.95688 81.4716 5.15719ZM99.6582 18.4355C99.6549 18.4372 99.6516 18.4389 99.6483 18.4406C99.6488 18.4419 99.6492 18.4432 99.6495 18.4445C99.6525 18.4414 99.6553 18.4384 99.6582 18.4355ZM99.2251 18.986C99.0655 19.1559 98.9345 19.297 98.9905 19.2914C99.08 19.1757 99.1575 19.0745 99.2251 18.986ZM98.8465 18.8145C98.8395 18.8189 98.8324 18.8234 98.8254 18.8279C98.8158 18.8343 98.816 18.8342 98.8242 18.8289C98.829 18.8258 98.8366 18.8209 98.8465 18.8145ZM55.6381 18.5613C53.6127 18.7263 51.5873 18.7771 49.5619 18.7835V18.7771C44.8444 18.8343 40.1714 18.4406 35.581 17.3041C33.4476 16.7771 31.3524 16.1549 29.619 14.6882C28.5869 13.8119 29.0744 13.5893 29.9572 13.186C30.5135 12.932 31.2269 12.6062 31.8159 12C32.4136 11.3854 32.6058 10.5058 32.7887 9.66847C33.0196 8.61137 33.2358 7.6215 34.2349 7.31682C35.9128 6.80769 37.1579 7.6151 38.5301 8.50491C39.4167 9.07984 40.3563 9.68916 41.5 10C43.3397 10.5 45.8873 10.627 47.5 10.5C48.7059 10.4042 50.0639 9.58448 51.4278 8.76106C52.9579 7.83738 54.4956 6.90909 55.8349 6.99301C56.4051 7.02913 56.8629 7.53045 57.3975 8.11583C57.6696 8.41378 57.9616 8.7335 58.2984 9.02476C59.6127 10.1613 60.4016 10.4343 61.8476 10.4216C63.1251 10.4104 64.0093 9.71125 64.8063 9.08108C65.6734 8.39548 66.4372 7.79149 67.4921 8.2438C68.5079 8.6819 69.4413 9.25333 70.1397 10.1359C71.1937 11.4565 71.1492 12.9549 70.0317 14.2248C68.8 15.6343 67.1238 16.2692 65.4159 16.7962C62.2286 17.7803 58.9651 18.2946 55.6381 18.5613Z" fill="#842D08"/>
<path d="M95.841 21.4216C95.987 21.6946 95.7775 21.8787 95.6569 22.0756C94.7172 23.6565 94.4251 25.3962 94.3235 27.1994C94.2473 28.5708 94.1775 29.9549 93.8791 31.3009C93.6442 32.3676 93.295 33.9831 92 34C91.7824 34.0028 91.2476 31.5921 91 30.5C90.6698 29.0651 90.6029 27.8406 89.5299 26.7486C87.987 25.1803 86.1267 24.774 84.0569 25.2184C81.4727 25.7771 79.6505 27.3009 78.4378 29.6565C77.2886 31.8914 76.7743 34.3041 76.2981 36.7359C75.841 39.0787 75.5235 41.4533 74.8315 43.7517C74.6791 44.2533 74.4823 44.7486 74.2664 45.2248C73.8854 46.0502 73.3267 46.5898 72.3172 46.6152C71.2759 46.6343 70.641 46.139 70.1902 45.2819C69.5553 44.0819 69.2886 42.7676 68.9966 41.4597C68.5648 39.5613 68.1966 37.6502 67.7648 35.7581C67.4918 34.5708 67.0791 33.4279 66.3743 32.4057C64.2029 29.2502 60.5712 29.7962 58.641 31.6057C57.6378 32.5454 57.0346 33.7327 56.5077 34.9708C56.0251 36.0882 55.587 37.2311 55.0346 38.3105C53.7267 40.8438 50.4823 41.9994 47.8283 40.9454C46.9331 40.5898 46.387 39.9359 46.0251 39.0724C45.3902 37.5676 45.06 35.974 44.5775 34.4311C44.1394 33.0216 43.5235 31.7136 42.4696 30.6406C39.8156 27.9295 34.3235 27.9359 31.6124 31.6438C30.8823 32.6406 30.3616 33.7263 29.968 34.8882C29.4918 36.266 29.041 37.6629 28.5204 39.0216C27.695 41.1613 26.0315 41.8279 23.9299 40.8946C22.8569 40.4184 22.0696 39.6057 21.441 38.6343C20.3362 36.92 19.5807 35.0343 18.7489 33.1803C18.1839 31.9168 17.6061 30.6597 16.6283 29.6438C15.0791 28.0311 13.3712 27.8089 11.4981 29.0597C10.6918 29.5994 9.98068 30.2724 9.21877 30.8819C8.64735 31.339 8.09497 31.8152 7.441 32.1581C6.70449 32.539 6.6156 32.4882 6.57116 31.7009C6.48862 30.3613 6.77433 29.0343 6.78068 27.6946C6.78703 25.8279 6.98385 23.9613 6.5775 22.1073C6.38068 21.2184 6.00608 20.4057 5.51719 19.6629C4.72989 18.4819 3.59973 17.8216 2.15846 17.7581C1.8029 17.739 1.42195 17.8406 1.11719 17.5613C2.45052 13.193 5.04735 9.75174 8.86957 7.28825C12.4188 5.00253 16.3743 3.6311 20.4505 2.63428C24.9013 1.54856 29.4346 0.970787 33.9997 0.596184C38.0886 0.259676 42.1775 0.119994 46.2727 0.132692C47.3267 0.132692 48.387 -0.0323878 49.4219 0.00570748C53.2696 0.151739 57.1172 0.100945 60.9585 0.399358C64.8315 0.70412 68.6854 1.13587 72.5204 1.72634C72.4378 1.84698 72.6854 2.03111 72.4378 2.13269C72.2092 2.22793 72.0061 2.36761 71.9235 2.61523C71.8727 2.76761 71.841 2.93269 71.9807 3.06602C72.1267 3.19936 72.2918 3.14221 72.4188 3.04063C72.7934 2.74221 73.2505 2.4819 73.0854 1.87238C79.3077 2.86285 85.3839 4.42476 91.0664 7.19301C95.2569 9.23745 97.9426 12.6279 99.168 17.1422C98.8378 17.5105 98.3362 17.574 97.9426 17.8279C97.8474 17.8914 97.7775 18.0057 97.8283 18.1327C97.8791 18.2533 97.9807 18.3041 98.1077 18.2914C98.2664 18.2787 98.4188 18.2533 98.5712 18.2216C99.0495 18.12 99.3225 18.3528 99.3902 18.92C98.2346 19.4216 97.2251 20.139 96.3743 21.0724C96.2283 21.2311 96.1521 21.5168 95.8347 21.447C95.695 21.2248 95.8982 20.8438 95.5299 20.7232C95.0283 20.5581 94.5394 20.3422 93.9934 20.4311C93.8346 20.4565 93.6632 20.4882 93.6569 20.7041C93.6505 20.9136 93.8029 20.9581 93.9616 20.9962C94.5902 21.1422 95.2124 21.2946 95.841 21.447V21.4216ZM48.6791 17.7835C50.7045 17.7771 52.7299 17.7263 54.7553 17.5613C58.0823 17.2946 61.3458 16.7803 64.5331 15.7962C66.241 15.2692 67.9172 14.6343 69.1489 13.2248C70.2664 11.9549 70.3108 10.4565 69.2569 9.13587C68.5585 8.25333 67.6251 7.6819 66.6093 7.2438C65.3354 6.69759 63.5768 9.69873 61.9299 9.61206C60.2643 9.52441 59.782 9.04952 58.641 8.02476C57.5 7 56.9145 6.47285 55.4537 6.38031C52.2093 6.42476 49.714 9.40888 47.1553 9.61206C45.5426 9.73904 43.3013 9.42444 41.5 8.78666C39.0029 7.90253 36.114 5.47873 33.3521 6.31682C31.5616 6.86285 32.3524 10.1095 31 11.5C29.4762 13.0683 27.0537 12.2597 28.7362 13.6882C30.4696 15.1549 32.5648 15.7771 34.6981 16.3041C39.2886 17.4406 43.9616 17.8343 48.6791 17.7771V17.7835ZM69.1362 27.4279C69.2251 27.3581 69.3077 27.3263 69.3458 27.2629C69.441 27.0978 69.3775 26.92 69.2505 26.8248C68.3299 26.1644 67.4727 25.4152 66.3997 25.0025C66.2029 24.9263 65.9934 24.8438 65.86 25.0597C65.7331 25.2692 65.8601 25.447 66.0632 25.5486C67.041 26.0502 67.9299 26.6787 68.8315 27.3073C68.9204 27.3708 69.041 27.3962 69.1362 27.4279ZM79.1553 3.43428C79.0473 3.49777 78.914 3.53587 78.8569 3.61841C78.7489 3.78349 78.8696 3.94222 78.9966 4.02476C79.8029 4.53904 80.6854 4.93904 81.4473 5.52952C81.5045 5.57396 81.695 5.53587 81.7648 5.47872C81.9616 5.31364 81.8854 5.07872 81.7394 4.95174C80.9775 4.28507 80.0632 3.87872 79.1553 3.42793V3.43428ZM88.7553 8.32952C88.6791 7.81523 87.0156 6.24698 86.514 6.20888C86.4124 6.20253 86.2728 6.26602 86.2029 6.34222C86.1077 6.4438 86.1775 6.58349 86.26 6.66603C86.9267 7.31365 87.5934 7.95491 88.2728 8.57714C88.3362 8.63428 88.514 8.64698 88.5966 8.59618C88.6791 8.54539 88.7108 8.40571 88.7553 8.32952ZM35.6759 22.1009C36.5648 21.6882 37.4346 21.2946 38.2981 20.8755C38.4315 20.8121 38.5458 20.6597 38.4632 20.4755C38.387 20.3041 38.241 20.2533 38.0696 20.3105C37.2315 20.5898 36.4188 20.939 35.6823 21.4279C35.5045 21.5422 35.4918 21.7644 35.6823 22.1009H35.6759ZM78.0569 18.7041C78.495 18.7041 78.9394 18.7041 79.3775 18.7041C79.5426 18.7041 79.695 18.6216 79.7077 18.4375C79.7204 18.2597 79.5934 18.1136 79.441 18.0946C78.6093 17.9803 77.7712 17.9676 76.9394 18.1009C76.787 18.1263 76.6474 18.2597 76.6537 18.4375C76.6537 18.6216 76.8061 18.7041 76.9775 18.7041C77.3394 18.7105 77.695 18.7041 78.0569 18.7041ZM72.0315 33.5549C71.2759 33.6946 70.495 34.1263 69.6632 34.4184C69.5235 34.4692 69.422 34.6343 69.4854 34.8184C69.5807 35.0914 69.7775 35.0216 69.9743 34.9517C70.768 34.6724 71.568 34.393 72.3553 34.1073C72.5204 34.0502 72.622 33.9232 72.5521 33.739C72.4823 33.5676 72.3299 33.5295 72.0315 33.5486V33.5549ZM60.1585 21.3962C60.3235 21.3644 60.5648 21.447 60.6473 21.1994C60.7362 20.9327 60.5013 20.8438 60.3299 20.7803C59.6505 20.5517 58.9267 20.4375 58.3108 20.0438C58.1267 19.9295 57.9045 19.8914 57.7966 20.1136C57.695 20.3168 57.8473 20.4819 58.0124 20.6152C58.6347 21.1168 59.422 21.1549 60.1585 21.3962ZM19.5934 4.36761C19.4981 4.17714 19.3077 4.05015 19.1235 4.17714C18.4061 4.65333 17.8981 5.31999 17.5743 6.11364C17.5426 6.19618 17.6061 6.35491 17.6759 6.42476C17.8093 6.55809 17.9807 6.51365 18.0886 6.38031C18.5712 5.79618 19.0473 5.20571 19.5235 4.61523C19.568 4.55809 19.568 4.4692 19.5934 4.36126V4.36761ZM86.4251 19.7581C87.1108 19.6502 87.7839 19.5486 88.4569 19.4343C88.6601 19.3962 88.8442 19.2946 88.7934 19.047C88.7553 18.8756 88.5966 18.7613 88.4378 18.7803C87.568 18.9136 86.6855 18.9644 85.8474 19.2438C85.7458 19.2755 85.6505 19.3771 85.7013 19.5295C85.7394 19.6629 85.841 19.7136 85.9616 19.7327C86.1204 19.7517 86.2791 19.7517 86.4315 19.7581H86.4251ZM86.8061 14.374C86.787 14.6851 86.7045 14.9708 87.0474 15.0089C87.295 15.0406 87.3839 14.793 87.422 14.6152C87.568 13.9105 87.7013 13.2057 88.0124 12.5454C88.095 12.3676 88.0823 12.1073 87.8918 12.0121C87.6823 11.9105 87.5235 12.0882 87.422 12.2787C87.0537 12.9581 86.9521 13.72 86.7997 14.374H86.8061ZM83.4029 20.3041C83.3521 20.0692 83.2251 19.9803 82.9775 20.0692C82.1712 20.3613 81.6505 20.9327 81.314 21.7073C81.2251 21.9105 81.1997 22.12 81.3902 22.247C81.6823 22.4311 81.8346 22.1771 81.9299 21.9676C82.1839 21.3962 82.5521 20.9454 83.1299 20.6851C83.2886 20.6152 83.3648 20.4819 83.3966 20.3105L83.4029 20.3041ZM32.8759 20.12C32.8505 19.8787 32.7172 19.7517 32.4823 19.7898C31.8347 19.8851 30.8315 21.0025 30.7997 21.6819C30.7997 21.7835 30.8569 21.9232 30.9331 21.993C31.0854 22.1327 31.2759 22.0248 31.3331 21.8978C31.6505 21.2248 32.1267 20.7041 32.768 20.3232C32.8251 20.2914 32.8442 20.1898 32.8823 20.12H32.8759ZM72.6347 30.5136C72.3743 29.9613 72.495 29.2184 72.3807 28.4946C72.3489 28.2851 72.3045 28.0311 72.0759 28.0438C71.7902 28.0565 71.6569 28.3295 71.714 28.5771C71.8918 29.2946 71.822 30.0311 71.9553 30.7486C71.9997 30.9962 72.114 31.2438 72.4315 31.1676C72.6918 31.1105 72.6283 30.8629 72.6347 30.5136ZM50.9712 30.3867C51.0664 30.3295 51.1807 30.2787 51.2632 30.2025C51.7267 29.7517 52.1775 29.2946 52.6346 28.8375C52.7553 28.7168 52.8505 28.5517 52.7489 28.4057C52.622 28.2216 52.368 28.1771 52.2093 28.3232C51.6823 28.8121 51.1807 29.3327 50.6918 29.8597C50.5902 29.9676 50.6219 30.1771 50.7426 30.3041C50.787 30.3549 50.8823 30.3613 50.9648 30.393L50.9712 30.3867ZM84.5077 13.3136C84.4505 12.939 84.1966 12.8502 83.968 12.9136C83.3204 13.0914 82.6791 13.3073 82.0378 13.5359C81.8981 13.5867 81.7712 13.7454 81.8219 13.9232C81.8981 14.1835 82.1331 14.1581 82.3108 14.1073C82.9648 13.9232 83.6061 13.7136 84.2537 13.5041C84.3616 13.466 84.4442 13.3644 84.5013 13.3136H84.5077ZM73.6442 36.7486C73.6442 37.0533 73.6315 37.3136 73.9108 37.4279C74.1077 37.5105 74.241 37.3644 74.2791 37.2248C74.4632 36.4819 74.6347 35.7327 74.787 34.9835C74.8188 34.8248 74.7362 34.666 74.5521 34.6152C74.3616 34.5581 74.2156 34.6724 74.1712 34.8184C73.9743 35.4724 73.8093 36.139 73.6442 36.7422V36.7486ZM71.0346 17.0279C71.5045 16.9327 72.0569 16.8311 72.5902 16.6978C72.7426 16.6597 72.8442 16.5136 72.8188 16.3295C72.787 16.1263 72.6093 16.0692 72.4632 16.0882C71.7966 16.1708 71.1299 16.266 70.4632 16.3867C70.3235 16.4121 70.1775 16.5581 70.241 16.7422C70.2727 16.8375 70.3807 16.939 70.4823 16.9708C70.6283 17.0216 70.7934 17.0089 71.0346 17.0343V17.0279ZM70.5648 39.047C70.3362 39.0914 70.1648 39.2565 70.2791 39.4597C70.6283 40.0502 71.1743 40.4629 71.6823 40.9009C71.8537 41.047 72.0823 40.8883 72.0886 40.647C72.1013 40.2978 70.9267 39.0978 70.5585 39.047H70.5648ZM21.5045 16.2597C22.114 15.9676 22.7997 15.6502 23.4727 15.3073C23.5426 15.2692 23.5934 15.0978 23.5807 14.9962C23.5553 14.793 23.3585 14.774 23.2124 14.8057C22.4505 14.9581 21.7966 15.3454 21.1553 15.7517C21.0537 15.8152 20.9839 15.9232 21.0283 16.0565C21.0918 16.247 21.2569 16.247 21.5108 16.266L21.5045 16.2597ZM48.3299 0.653327C48.26 0.691422 48.1712 0.71047 48.1267 0.767613C47.9997 0.913645 48.0378 1.08507 48.1521 1.20571C48.66 1.72634 49.1807 2.24063 49.7013 2.74856C49.8219 2.8692 49.987 2.91999 50.1267 2.79301C50.2791 2.66602 50.2283 2.4819 50.1585 2.34222C49.8029 1.62476 49.1743 1.16761 48.5585 0.704122C48.5013 0.659677 48.4061 0.666026 48.3299 0.646979V0.653327ZM67.8537 17.4406C66.66 17.2057 65.3775 17.6311 64.5775 18.5009C65.8283 18.5009 66.7616 18.0882 67.8537 17.4406ZM94.1458 14.2978C94.3362 14.2597 94.4569 14.0819 94.3553 13.8787C94.0188 13.2375 93.714 12.5898 93.568 11.8787C93.5362 11.72 93.3902 11.6121 93.2061 11.6438C92.9458 11.6882 92.895 11.8978 92.9521 12.0946C93.1553 12.7422 93.3775 13.3835 93.6061 14.0184C93.6823 14.2279 93.8601 14.3168 94.1394 14.2914L94.1458 14.2978ZM16.5267 16.7994C16.5077 16.6406 16.4124 16.4755 16.2346 16.5327C15.6061 16.7549 14.9331 16.92 14.4759 17.4406C14.3108 17.6311 14.3172 17.8978 14.6346 17.9994C15.1934 18.1708 16.4442 17.3835 16.5267 16.793V16.7994ZM13.9934 8.72952C14.4061 8.57714 15.2188 8.95809 15.2315 8.45015C15.2505 7.70095 14.4251 8.03745 13.9616 8.02476C13.5489 8.01206 12.7807 7.75174 12.8061 8.42476C12.8251 8.93269 13.568 8.59619 13.987 8.72952H13.9934ZM10.387 11.9295C10.387 11.9295 10.387 11.9041 10.3934 11.8914C10.4759 11.8978 10.5521 11.9105 10.6346 11.9105C10.8442 11.9105 11.06 11.8787 11.0664 11.6184C11.0664 11.4406 10.8886 11.3771 10.7362 11.32C10.095 11.0787 9.37751 11.193 8.73624 10.9263C8.56481 10.8565 8.31719 10.8946 8.27274 11.1549C8.2283 11.4089 8.44417 11.5105 8.6283 11.5549C9.21243 11.6946 9.8029 11.8025 10.387 11.9232V11.9295ZM87.5426 23.3263C87.5426 23.2882 87.5616 23.2438 87.5426 23.2121C87.3013 22.7232 86.7997 22.6406 86.3553 22.4819C85.8664 22.3041 85.3966 22.374 85.0093 22.7422C84.8569 22.8882 84.9331 23.1041 85.0981 23.1041C85.8283 23.1041 86.5394 23.1168 87.1807 23.5486C87.295 23.6248 87.4918 23.5232 87.5362 23.3263H87.5426ZM24.7616 10.139C24.8124 9.73269 23.822 8.28507 23.422 8.22793C23.1616 8.18984 23.0156 8.41206 23.1362 8.60253C23.4918 9.18031 23.8791 9.74539 24.3045 10.2787C24.4378 10.4502 24.6727 10.393 24.7616 10.1327V10.139ZM18.5966 20.5898C19.1616 20.4248 19.7331 20.266 20.3045 20.0882C20.4569 20.0438 20.5966 19.9295 20.5648 19.7454C20.5331 19.5613 20.368 19.4914 20.2093 19.4787C19.5426 19.4406 19.0093 19.8914 18.3743 19.9803C18.2156 19.9994 18.0696 20.139 18.114 20.3168C18.1712 20.539 18.368 20.5962 18.5966 20.5898ZM77.5108 16.0311C77.9362 15.9613 78.4124 15.8851 78.8886 15.8025C79.0664 15.7708 79.2124 15.6565 79.1934 15.4851C79.168 15.2565 78.9521 15.1422 78.7553 15.1549C78.3172 15.1803 77.8791 15.2692 77.4346 15.3263C77.1616 15.3581 76.8061 15.3073 76.8696 15.7454C76.914 16.0692 77.2251 16.0057 77.5108 16.0375V16.0311ZM61.2505 24.774C61.3267 24.7359 61.4854 24.7041 61.5172 24.6279C61.7204 24.1009 61.987 23.6121 62.3553 23.1803C62.4569 23.066 62.4569 22.8755 62.3108 22.7486C62.1648 22.6216 61.987 22.647 61.8727 22.7486C61.4346 23.174 61.0854 23.6629 60.9648 24.2724C60.9267 24.4629 60.9648 24.6787 61.2505 24.7676V24.774ZM83.5616 18.1898C83.714 17.066 83.1426 16.4121 82.7934 15.6882C82.7426 15.5803 82.6029 15.5168 82.4886 15.593C82.3997 15.6502 82.2727 15.7898 82.2981 15.8533C82.5585 16.6406 82.7616 17.4787 83.568 18.1962L83.5616 18.1898ZM67.0219 3.09142C66.7489 3.13587 66.6093 3.2946 66.6791 3.51047C66.8759 4.12634 67.0981 4.72952 67.3331 5.32634C67.3902 5.46603 67.5299 5.59301 67.7204 5.49777C67.8791 5.42158 67.9807 5.2692 67.9299 5.11047C67.7267 4.50095 67.4981 3.89777 67.2632 3.2946C67.2251 3.19936 67.0918 3.14857 67.0219 3.08507V3.09142ZM90.5648 18.9517C90.495 18.9771 90.4061 18.9898 90.3489 19.0343C90.1902 19.1549 90.222 19.3327 90.2981 19.466C90.5712 19.9549 90.9331 20.3803 91.3267 20.774C91.4473 20.8946 91.6124 20.9581 91.7521 20.8628C91.9426 20.7359 91.9743 20.52 91.8347 20.3422C91.4981 19.9041 91.1362 19.4787 90.7807 19.0597C90.7362 19.0089 90.641 18.9962 90.5648 18.9644V18.9517ZM57.8791 28.539C58.514 28.5136 59.1235 28.3041 59.7204 28.0502C59.8918 27.9803 59.9807 27.847 59.9172 27.6692C59.8537 27.4851 59.6759 27.4597 59.5172 27.4978C58.9331 27.6375 58.3489 27.8025 57.7648 27.9422C57.568 27.993 57.314 27.9994 57.314 28.247C57.314 28.6089 57.6442 28.4946 57.8727 28.539H57.8791ZM40.2346 2.8565C40.1648 2.24063 39.568 1.96761 39.1743 1.54856C39.041 1.40253 38.8315 1.31999 38.6473 1.49142C38.4505 1.6692 38.5458 1.87238 38.6791 2.01841C39.0283 2.39301 39.3902 2.76761 39.7775 3.10412C39.9553 3.2565 40.1458 3.16761 40.241 2.8565H40.2346ZM54.387 3.09142C54.6156 3.04698 54.9458 3.16126 54.9521 2.81206C54.9521 2.54539 54.7045 2.4438 54.4505 2.39936C53.9807 2.32317 53.5172 2.22158 53.0473 2.15809C52.895 2.13904 52.7299 2.20253 52.6791 2.38666C52.6219 2.58349 52.7616 2.71682 52.895 2.75492C53.3902 2.8946 53.8727 3.08507 54.387 3.09142ZM29.4473 4.98984C29.4473 4.62793 28.4315 3.47238 28.0378 3.42158C27.7712 3.38984 27.6315 3.61841 27.7521 3.79618C28.1013 4.32952 28.4569 4.87555 29.0093 5.22476C29.2188 5.35809 29.3839 5.21206 29.441 4.98984H29.4473ZM63.3521 28.3549C63.1997 27.8724 63.0283 27.2946 62.8251 26.7295C62.7743 26.5835 62.6156 26.4819 62.4251 26.5581C62.2473 26.6279 62.2029 26.774 62.2473 26.9454C62.3997 27.4851 62.5458 28.0311 62.7172 28.5708C62.7807 28.7613 62.9013 28.9581 63.1553 28.8628C63.3267 28.7994 63.3331 28.6216 63.3458 28.3549H63.3521ZM81.1743 7.94222C81.1553 7.86603 81.1616 7.73904 81.1172 7.72634C80.5775 7.49142 80.0315 7.2565 79.4727 7.05333C79.3965 7.02793 79.2315 7.11682 79.168 7.19301C79.0537 7.34539 79.1362 7.50412 79.2759 7.59936C79.7077 7.89777 80.1839 8.0946 80.6981 8.19619C80.895 8.23428 81.0981 8.17079 81.1743 7.94222ZM55.4537 31.8025C54.6092 31.6248 53.8664 31.8787 53.2188 32.4184C53.1553 32.4756 53.1299 32.666 53.1743 32.7422C53.2188 32.8184 53.4029 32.9073 53.4664 32.8756C54.1331 32.5517 54.8886 32.4121 55.4537 31.8025ZM75.6442 5.11047C75.5172 4.8565 75.3712 4.77396 75.1489 4.87555C74.787 5.04063 74.1394 6.08825 74.1902 6.4565C74.2283 6.71682 74.514 6.81206 74.6219 6.67237C75.0029 6.18349 75.3077 5.63745 75.6442 5.11047ZM75.8029 22.139C75.9489 22.1136 76.1712 22.139 76.3362 22.0438C76.6664 21.866 77.3331 21.8787 77.2124 21.4152C77.0664 20.8565 76.5585 21.3136 76.2093 21.3581C76.0505 21.3771 75.8918 21.4089 75.7331 21.4279C75.4537 21.4597 75.1108 21.466 75.1616 21.8597C75.1997 22.1771 75.5235 22.1009 75.8092 22.139H75.8029ZM26.9204 26.0565C27.2442 25.9486 27.8791 26.2152 27.8854 25.6882C27.8854 25.1676 27.2569 25.3263 26.895 25.3517C26.5204 25.3771 25.841 25.0787 25.8664 25.7327C25.8854 26.2343 26.5267 25.9549 26.9267 26.0502L26.9204 26.0565ZM76.4378 29.7835C76.7108 29.7517 77.1489 29.72 77.5743 29.6375C77.7077 29.6121 77.8601 29.4914 77.8093 29.2882C77.7648 29.1105 77.6124 28.9898 77.46 29.0279C76.7553 29.2248 76.0315 29.1041 75.3267 29.2184C75.2188 29.2375 75.1299 29.32 75.1172 29.466C75.0981 29.6311 75.2188 29.7009 75.314 29.7136C75.6315 29.7517 75.9489 29.7517 76.4378 29.7771V29.7835ZM73.3775 19.8152C73.2632 19.4914 73.6124 18.8565 73.0473 18.8502C72.5712 18.8502 72.6473 19.4597 72.6727 19.8406C72.6981 20.1962 72.4378 20.8184 72.9966 20.8184C73.5172 20.8184 73.3077 20.1962 73.3712 19.8152H73.3775ZM29.568 28.7867C30.1204 28.774 30.6093 28.5581 31.1172 28.4121C31.2569 28.374 31.3902 28.2279 31.3331 28.0311C31.2759 27.8406 31.1172 27.7835 30.9585 27.8152C30.368 27.9486 29.7775 28.1009 29.187 28.247C29.0664 28.2787 29.0093 28.3803 28.9966 28.5136C28.9839 28.6851 29.1172 28.7168 29.2188 28.7486C29.3331 28.7803 29.46 28.774 29.568 28.7803V28.7867ZM23.2061 5.06603C22.7616 5.17396 22.3362 5.2692 21.9235 5.39619C21.7775 5.44063 21.6505 5.56761 21.6759 5.75174C21.7013 5.95491 21.8664 6.01206 22.0188 5.99301C22.5648 5.91682 23.1108 5.82793 23.6505 5.71999C23.7331 5.70095 23.841 5.54857 23.841 5.46603C23.841 5.37079 23.7394 5.2438 23.6442 5.19301C23.5108 5.12317 23.3458 5.10412 23.2061 5.06603ZM22.9331 34.5644C22.8696 34.5962 22.7172 34.6279 22.6791 34.7105C22.641 34.793 22.6791 34.9771 22.7553 35.0343C22.9775 35.2057 23.2124 35.3835 23.4664 35.4787C23.8727 35.6375 24.4061 36.1771 24.6854 35.5867C24.8823 35.1803 24.1521 35.1549 23.8473 34.9517C23.5807 34.7803 23.3204 34.5835 22.9267 34.5644H22.9331ZM78.4505 11.3136C77.3521 11.1549 77.1553 11.2819 76.6918 12.1898C76.5839 12.3994 76.4188 12.6533 76.66 12.8311C76.9013 13.0025 77.1172 12.7994 77.2442 12.6025C77.5235 12.1771 77.7521 11.72 78.4442 11.32L78.4505 11.3136ZM90.0569 15.4152C89.6569 15.574 89.1362 15.7708 88.622 15.9994C88.5267 16.0375 88.4696 16.1898 88.5458 16.3168C88.5839 16.3803 88.6601 16.4819 88.7045 16.4756C89.295 16.3994 89.9109 16.3676 90.3807 15.9295C90.4505 15.866 90.4632 15.7073 90.4442 15.5994C90.4251 15.4851 90.3362 15.3898 90.0505 15.4152H90.0569ZM44.9966 2.65968C45.2315 2.63428 45.6759 2.78031 45.7077 2.34222C45.7331 1.98031 45.295 2.07555 45.0473 2.00571C44.895 1.96126 44.7362 1.92317 44.5775 1.91682C44.26 1.91047 43.8219 1.84698 43.7712 2.22793C43.7077 2.69777 44.1775 2.57079 44.4632 2.60888C44.6219 2.63428 44.7807 2.64063 45.0029 2.65968H44.9966ZM49.1934 27.2819C49.1172 27.0978 49.06 26.8502 48.914 26.6724C48.641 26.3422 48.787 25.447 48.1648 25.7073C47.695 25.9041 48.1775 26.5644 48.3108 27.0025C48.3743 27.2184 48.4759 27.466 48.7235 27.5676C48.9585 27.6629 49.0981 27.5486 49.1934 27.2755V27.2819ZM66.4632 22.666C66.5585 22.6152 66.6854 22.5771 66.7616 22.4946C67.1553 22.0819 67.3013 21.5295 67.5299 21.0279C67.5616 20.9517 67.4918 20.7676 67.4156 20.7232C67.3394 20.6787 67.1553 20.6914 67.0918 20.7549C66.6092 21.1994 66.4696 21.847 66.1585 22.393C66.0569 22.5771 66.3045 22.6216 66.4632 22.666ZM20.8632 22.8565C20.6981 22.8628 20.5331 22.8946 20.4632 23.0597C20.3616 23.2882 20.5013 23.4343 20.6981 23.5295C20.8759 23.6184 21.06 23.6946 21.2378 23.7708C21.5045 23.8851 21.7839 24.3041 22.0442 23.8851C22.2664 23.5232 21.8473 23.339 21.6315 23.1295C21.422 22.9263 21.1489 22.8565 20.8632 22.8629V22.8565ZM42.7045 23.1867C42.5013 23.2248 42.3997 23.3771 42.4569 23.5295C42.66 24.0565 43.0156 24.4819 43.4981 24.7676C43.6315 24.8502 43.8093 24.7295 43.841 24.5454C43.9045 24.1644 43.0473 23.1613 42.7045 23.1867ZM91.0791 8.69142C91.041 8.62793 91.0156 8.53269 90.9585 8.50729C90.8061 8.43745 90.6156 8.43111 90.5267 8.58349C90.2664 9.03428 89.9362 9.42793 89.5616 9.79619C89.4664 9.89142 89.4664 10.0311 89.5616 10.1073C89.6378 10.1771 89.7839 10.2152 89.8855 10.2025C90.3426 10.1327 91.1108 9.13587 91.0791 8.68507V8.69142ZM37.4854 27.847C37.0156 27.32 36.5521 26.7994 36.0823 26.2787C35.968 26.1581 35.8029 26.0692 35.6696 26.1771C35.4918 26.3168 35.4791 26.5581 35.6188 26.7168C36.0188 27.1613 36.4378 27.5867 36.8759 27.9867C37.0346 28.1263 37.2569 28.0438 37.4854 27.847ZM9.13624 16.3232C9.13624 16.3232 9.13624 16.3232 9.13624 16.3295C9.4156 16.3295 9.69497 16.3422 9.97433 16.3295C10.1648 16.3168 10.3997 16.3041 10.387 16.0248C10.3807 15.8343 10.2029 15.7771 10.0505 15.7708C9.57433 15.7517 9.09814 15.72 8.6283 15.6248C8.35528 15.5676 7.98068 15.6375 7.94258 15.9486C7.89179 16.3359 8.27909 16.2978 8.54576 16.3232C8.74258 16.3422 8.94576 16.3232 9.14258 16.3232H9.13624ZM71.3331 8.39936C71.5172 8.38666 71.6569 8.29142 71.6442 8.1073C71.5997 7.51682 71.314 7.04698 70.9013 6.64698C70.7997 6.55174 70.66 6.57714 70.5839 6.67237C70.514 6.75491 70.4505 6.91364 70.4886 6.98984C70.6854 7.42793 70.914 7.85333 71.1426 8.27238C71.1743 8.33587 71.2696 8.36126 71.3331 8.39936ZM50.5839 24.1454C50.7997 24.1327 51.06 24.1898 51.1235 23.9676C51.2124 23.6438 50.9267 23.5994 50.6918 23.5549C50.5775 23.5295 50.4632 23.4533 50.3489 23.4533C49.8918 23.4533 49.2886 22.666 49.0664 23.3898C48.914 23.8787 49.8156 23.8914 50.26 24.1009C50.3616 24.1517 50.495 24.139 50.5902 24.1517L50.5839 24.1454ZM38.2981 25.3136C38.368 25.2565 38.5013 25.2057 38.5394 25.1168C38.7553 24.647 38.9521 24.1708 39.1299 23.6819C39.1553 23.6057 39.0791 23.4343 39.0029 23.3898C38.8632 23.3136 38.6664 23.3073 38.5775 23.466C38.3045 23.9486 38.0505 24.4502 37.9807 25.0152C37.9616 25.1994 38.0696 25.3009 38.2981 25.3136ZM23.0727 30.1835C23.2759 30.1835 23.3585 30.1835 23.4347 30.1835C23.7648 30.1644 24.2156 30.1263 24.222 29.7771C24.222 29.3009 23.7458 29.4978 23.4537 29.4851C23.2124 29.4724 22.9648 29.4851 22.7299 29.5359C22.5712 29.5676 22.4315 29.6946 22.4823 29.8787C22.5077 29.9803 22.6156 30.0882 22.7172 30.1263C22.8632 30.1835 23.0346 30.1771 23.0727 30.1835ZM49.2696 38.4502C48.8061 38.4882 48.4886 38.5009 48.1712 38.539C47.9997 38.5581 47.8664 38.6787 47.8727 38.8438C47.8727 38.939 47.987 39.0597 48.0759 39.1105C48.4378 39.3073 49.4854 39.1549 49.7775 38.8692C49.9108 38.7359 49.8981 38.5644 49.7077 38.5009C49.5235 38.4438 49.3204 38.4502 49.2696 38.4438V38.4502ZM27.7648 15.7581C27.7394 15.3962 27.0283 14.5962 26.6664 14.5644C26.5712 14.5581 26.3743 14.6597 26.3743 14.7168C26.3553 15.2248 26.7553 15.4914 27.0664 15.7962C27.1743 15.9041 27.3267 15.9994 27.4727 16.0375C27.6569 16.0755 27.7648 15.9549 27.7648 15.7581ZM8.46957 23.6565C8.93941 23.6311 9.3902 23.4533 9.8283 23.2692C9.95528 23.2184 10.0823 23.0597 9.98703 22.8756C9.90449 22.7168 9.76481 22.6279 9.59338 22.6787C9.17433 22.7994 8.74893 22.9263 8.33624 23.0787C8.1902 23.1295 8.04417 23.2311 8.08227 23.4279C8.12036 23.6375 8.29814 23.6184 8.46322 23.6565H8.46957ZM74.2029 9.42158C73.8029 9.54222 73.2823 9.2946 73.0219 9.80888C72.9966 9.85333 73.0473 9.98666 73.0981 10.0184C73.5108 10.2914 73.9362 10.1644 74.368 10.0565C74.4823 10.0248 74.6029 9.99936 74.7108 9.95492C74.8632 9.89777 75.022 9.80888 74.9458 9.61206C74.914 9.52952 74.7807 9.44698 74.6791 9.42793C74.5267 9.39618 74.3616 9.42158 74.2029 9.42158ZM19.1362 27.1994C19.0283 26.9771 18.8315 26.9708 18.6346 27.0089C18.26 27.0851 18.095 27.4597 17.7966 27.6438C17.6696 27.7263 17.5553 27.8787 17.6632 28.0438C17.7902 28.2279 18.0061 28.2914 18.1839 28.1708C18.5077 27.9486 18.7997 27.6819 19.0918 27.4216C19.1362 27.3835 19.1235 27.2755 19.1362 27.1994ZM57.5934 24.3994C57.5934 24.1517 57.441 24.0502 57.2823 24.0756C56.7743 24.1708 56.2346 24.2216 55.8537 24.6406C55.7648 24.7359 55.8029 24.9073 55.9235 24.9454C56.4759 25.1549 56.9267 24.7994 57.4156 24.647C57.5045 24.6216 57.5553 24.4692 57.5997 24.3994H57.5934ZM69.86 23.8724C70.7828 24.2576 71.5214 24.3507 72.0759 24.1517C71.3585 23.5168 70.9521 23.447 69.86 23.8724ZM92.5077 24.7994C92.9839 24.3803 93.3394 24.0692 93.6886 23.7581C93.7204 23.7327 93.7458 23.7009 93.7712 23.6755C93.8918 23.5486 93.9426 23.3898 93.8601 23.2438C93.8156 23.1676 93.6569 23.1041 93.5616 23.1168C92.9077 23.2311 92.4505 23.9041 92.5077 24.7994ZM35.3331 2.86285C35.3204 2.72952 35.2569 2.63428 35.1235 2.62158C34.7553 2.57714 33.7775 3.67555 33.86 4.0565C33.8854 4.17079 33.9616 4.27237 34.114 4.24698C34.4696 4.18349 35.3521 3.19301 35.3331 2.8692V2.86285ZM20.514 8.78666C20.3553 8.71047 20.2473 8.65968 20.1458 8.60253C20.0124 8.52634 19.9108 8.60253 19.8283 8.67872C19.3712 9.09142 19.3712 9.6692 19.3331 10.2152C19.3204 10.4438 19.6696 10.5263 19.7775 10.3803C20.1077 9.94222 20.0632 9.33269 20.5077 8.78666H20.514ZM29.6696 32.9898C29.6251 32.7613 29.46 32.6533 29.3267 32.7041C28.9267 32.8629 28.5394 33.066 28.1521 33.2756C27.9934 33.3581 27.9489 33.5359 28.0378 33.6819C28.0886 33.7581 28.2537 33.8343 28.3426 33.8089C28.7616 33.7009 29.187 33.574 29.5108 33.2565C29.587 33.1803 29.6251 33.066 29.6696 32.9898ZM5.36481 14.9708C5.50449 14.9517 6.49496 14.1327 6.52671 13.9994C6.56481 13.8279 6.52036 13.6692 6.33624 13.6311C5.92989 13.5486 5.041 14.2851 5.06004 14.6787C5.07274 14.8565 5.17433 14.9644 5.36481 14.9708ZM75.5489 25.847C75.568 25.6184 75.4474 25.574 75.3394 25.5549C74.9521 25.4851 73.8473 25.9232 73.7458 26.1898C73.7077 26.2978 73.7013 26.4628 73.8473 26.4882C74.4251 26.5898 74.914 26.3168 75.4092 26.0819C75.4918 26.0438 75.5299 25.8978 75.5553 25.8533L75.5489 25.847ZM43.3013 19.3327C43.2378 19.3835 43.1045 19.4279 43.0664 19.5168C42.9458 19.8152 43.4727 20.793 43.7585 20.8057C43.8473 20.8057 43.987 20.7041 44.0251 20.6152C44.1712 20.2343 43.7204 19.4152 43.3013 19.339V19.3327ZM49.7013 21.1168C50.0061 20.4502 50.2346 19.9994 50.641 19.6692C50.6918 19.6248 50.6791 19.4406 50.641 19.3454C50.5902 19.2184 50.4442 19.2248 50.3299 19.2565C49.5934 19.447 49.3521 19.9994 49.7077 21.1168H49.7013ZM68.114 30.4946C68.2854 30.4756 68.6029 30.5708 68.6854 30.2978C68.8251 29.847 68.3743 29.9676 68.1648 29.8533C68.1331 29.8343 68.0886 29.8152 68.0505 29.8152C67.6696 29.8152 67.1616 29.1549 66.9712 29.7962C66.8442 30.2089 67.5553 30.3041 67.9426 30.4755C67.9807 30.4882 68.0188 30.4883 68.114 30.4946ZM62.7299 4.35492C62.4315 4.41206 61.8981 4.24063 61.9299 4.75491C61.9616 5.2311 62.4632 5.07238 62.8061 5.06603C62.9267 5.06603 63.041 5.05333 63.1616 5.04698C63.3712 5.02793 63.587 4.96444 63.5997 4.73587C63.6188 4.41841 63.3521 4.38031 63.1108 4.36126C62.9902 4.35491 62.8759 4.36126 62.7362 4.36126L62.7299 4.35492ZM90.5204 23.9359C90.368 23.5613 90.7235 22.7994 90.2537 22.8121C89.6378 22.8248 89.9489 23.5867 89.9299 24.0121C89.9172 24.3549 89.6632 25.0089 90.2283 24.9898C90.7172 24.9708 90.4124 24.3232 90.5204 23.9359ZM44.0823 28.5581C44.3997 28.52 44.6791 28.4946 44.9521 28.4502C45.1616 28.4184 45.3204 28.3105 45.2886 28.0565C45.2632 27.8597 45.1045 27.7835 44.9458 27.8025C44.4759 27.8597 44.0061 27.9295 43.5426 28.0248C43.4473 28.0438 43.3394 28.1644 43.4029 28.3041C43.4283 28.3676 43.4854 28.4502 43.5426 28.4692C43.7331 28.5136 43.9299 28.5327 44.0823 28.5581ZM8.6537 18.5771C8.50766 18.2597 8.51401 17.8597 8.2283 17.6057C8.03147 17.4279 7.77116 17.4216 7.58703 17.6248C7.46639 17.7581 8.06322 18.8692 8.26639 18.9136C8.52036 18.9708 8.62195 18.8057 8.6537 18.5771ZM50.0759 34.1581C49.5553 34.4311 49.1045 34.774 49.0029 35.0216C48.9585 35.1232 48.9458 35.2629 48.9839 35.3644C49.022 35.4787 49.1489 35.5295 49.2759 35.5041C49.8093 35.3962 50.1204 34.8692 50.0759 34.1581ZM73.1299 12.1581C73.168 12.4629 73.0854 12.939 73.5426 13.2121C73.5807 13.2311 73.7013 13.1676 73.7458 13.1105C74.0188 12.7359 73.8283 12.3359 73.7648 11.9549C73.7267 11.7454 73.6696 11.4216 73.3585 11.466C73.0473 11.5105 73.0918 11.8025 73.1299 12.1581ZM26.4188 38.7867C26.8632 38.647 27.3204 38.4121 27.6886 38.0692C27.8473 37.9232 27.6696 37.6502 27.4537 37.6565C26.9204 37.6756 26.4696 37.9295 26.1521 38.3613C25.9997 38.5708 26.1204 38.7232 26.4188 38.7867ZM9.8537 27.1994C9.76481 27.0914 9.70131 26.9898 9.61877 26.92C9.50449 26.8248 9.3902 26.9136 9.31401 26.9898C9.20608 27.1041 9.11084 27.2311 9.0156 27.3517C8.85052 27.5613 8.55211 27.8025 8.86322 28.0438C9.19973 28.3041 9.43465 27.974 9.61243 27.7327C9.72671 27.5803 9.77116 27.3835 9.8537 27.1994ZM25.5299 20.9644C25.314 20.9581 25.2569 21.1232 25.2696 21.2755C25.3013 21.6755 25.4727 22.0375 25.6759 22.374C25.7585 22.5136 25.9045 22.6216 26.0696 22.5327C26.2156 22.4502 26.26 22.2851 26.2093 22.12C26.114 21.8216 26.0124 21.5168 25.8918 21.2311C25.8283 21.0851 25.7077 20.9771 25.5299 20.9708V20.9644ZM53.7458 20.5644C53.8537 20.9898 53.6759 21.4152 53.9489 21.7644C54.0124 21.8406 54.1458 21.8787 54.2537 21.8978C54.387 21.9168 54.495 21.8025 54.4823 21.6882C54.4251 21.1803 54.3489 20.666 54.26 20.1581C54.241 20.0375 54.1013 19.9994 53.9743 20.0121C53.8283 20.0248 53.7712 20.139 53.7521 20.2533C53.7267 20.3676 53.7521 20.4882 53.7521 20.5644H53.7458ZM12.0315 19.4089C11.8537 19.0216 11.714 18.5898 11.2442 18.4311C11.1616 18.3994 10.9585 18.4629 10.9394 18.5263C10.7807 19.0025 11.2378 19.2184 11.4156 19.5549C11.4473 19.6184 11.5362 19.6629 11.6061 19.6882C11.841 19.7644 11.9807 19.6629 12.0315 19.4152V19.4089ZM93.3839 27.3962C93.3712 27.2692 93.3013 27.174 93.168 27.1549C92.8188 27.1168 92.2029 27.5867 92.2029 27.9105C92.2029 27.9994 92.3045 28.1454 92.387 28.1771C92.7489 28.3168 93.422 27.7708 93.3839 27.3898V27.3962ZM94.8251 16.5835C95.0918 16.4438 95.5045 16.647 95.7648 16.2978C95.8474 16.1835 95.8156 16.0438 95.7331 15.974C95.3966 15.7073 95.0537 15.8787 94.7045 15.9803C94.514 16.0375 94.2728 16.0311 94.2981 16.3105C94.3235 16.5835 94.5648 16.5581 94.8188 16.5835H94.8251ZM84.5458 9.99936C84.3172 9.61841 84.1013 9.2438 83.8728 8.87555C83.8474 8.83746 83.7077 8.81841 83.6696 8.85015C83.5807 8.91365 83.4537 9.03428 83.4664 9.10412C83.5426 9.52952 83.6124 9.97396 84.0124 10.2533C84.1077 10.3168 84.222 10.393 84.3299 10.2978C84.4124 10.2216 84.4632 10.1136 84.5458 9.99936ZM53.0283 35.6565C52.6219 36.4946 53.3013 36.9327 53.3267 37.5041C53.3331 37.6819 53.46 37.7898 53.6505 37.7454C53.841 37.7009 53.8854 37.5295 53.8727 37.3708C53.8346 36.7486 53.5299 36.2597 53.0219 35.6502L53.0283 35.6565ZM72.6219 44.4248C72.8061 44.393 73.0474 44.3676 73.2759 44.2978C73.422 44.2533 73.5489 44.1327 73.5299 43.9422C73.5108 43.739 73.3458 43.6629 73.1934 43.6819C72.8378 43.72 72.4886 43.8025 72.1394 43.8597C71.9934 43.8787 71.9299 43.9867 71.9235 44.0946C71.9108 44.2851 72.0442 44.374 72.2156 44.393C72.3362 44.4057 72.4569 44.4121 72.6283 44.4248H72.6219ZM70.5902 19.7263C70.3997 19.3962 70.641 18.92 70.2727 18.6343C70.2283 18.6025 70.0886 18.6089 70.0569 18.647C69.7966 19.0025 69.8981 19.4089 69.9489 19.7962C69.9743 19.993 70.0188 20.2152 70.2918 20.1771C70.5267 20.1454 70.5966 19.9549 70.5902 19.7263ZM47.2442 32.1517C47.2188 31.9867 46.8061 31.7644 46.2537 31.5867C46.095 31.5359 45.9362 31.4787 45.841 31.6502C45.7902 31.7454 45.7585 31.8914 45.7966 31.9803C45.9489 32.3549 46.8442 32.5898 47.1553 32.3486C47.2061 32.3105 47.2124 32.2152 47.2378 32.1454L47.2442 32.1517ZM78.2727 25.3263C78.1458 25.3835 78.0251 25.447 78.0632 25.5867C78.1775 26.0311 78.4124 26.393 78.8696 26.5327C78.9521 26.5581 79.1362 26.4692 79.168 26.3867C79.2823 26.1136 79.0537 25.9486 78.895 25.7771C78.7172 25.5867 78.6283 25.2565 78.2727 25.32V25.3263ZM15.3077 12.4375C15.2696 12.374 15.2442 12.2724 15.1934 12.247C14.9331 12.12 14.7362 12.2851 14.5775 12.4565C14.368 12.6724 14.0378 12.8375 14.1077 13.2248C14.1204 13.2819 14.2029 13.3517 14.2727 13.3708C14.6346 13.4787 15.3521 12.8438 15.3204 12.4438L15.3077 12.4375ZM59.2696 1.19301C58.7743 0.767612 58.3807 0.462851 57.8219 0.754914C57.7775 0.773962 57.7521 0.932693 57.7839 0.964439C58.1648 1.35174 58.5902 1.60571 59.2759 1.19301H59.2696ZM14.114 24.3041C14.1077 23.8533 13.6315 23.3136 13.314 23.4025C13.1997 23.4343 13.0918 23.5486 13.1299 23.6692C13.2442 24.0565 13.4093 24.4311 13.8219 24.5708C13.9997 24.6343 14.095 24.4692 14.1077 24.3041H14.114ZM92.8759 30.4438C92.6727 30.4819 92.4124 30.4946 92.4315 30.8248C92.4442 31.0089 92.6156 31.1105 92.7553 31.1041C92.9902 31.1041 93.2569 31.0089 93.295 30.7486C93.3267 30.52 93.1172 30.4375 92.8759 30.4375V30.4438Z" fill="#BB5429"/>
<path d="M99.3836 18.9008C99.3159 18.3336 99.0429 18.1008 98.5646 18.2024C98.4122 18.2342 98.2535 18.2596 98.1011 18.2723C97.9805 18.285 97.8725 18.2342 97.8218 18.1135C97.771 17.9865 97.8408 17.8723 97.936 17.8088C98.3297 17.5548 98.8313 17.4913 99.1614 17.123C99.3773 17.7072 99.4789 18.304 99.4852 18.9262L99.3836 18.9008Z" fill="#EBBD0B"/>
<path d="M73.0791 1.85355C73.2442 2.46307 72.787 2.72339 72.4124 3.0218C72.2855 3.12339 72.1267 3.18054 71.9743 3.0472C71.8347 2.92022 71.8664 2.74879 71.9172 2.59641C71.9934 2.34879 72.2029 2.20911 72.4315 2.11387C72.6728 2.01228 72.4315 1.8345 72.514 1.70752C72.7045 1.75831 72.895 1.80276 73.0791 1.85355Z" fill="#EBBD0B"/>
<path d="M69.1365 27.4216C69.0413 27.3835 68.927 27.3644 68.8318 27.301C67.9302 26.6787 67.0413 26.0438 66.0635 25.5422C65.8667 25.4406 65.7334 25.2692 65.8603 25.0533C65.9873 24.8375 66.2032 24.92 66.4 24.9962C67.473 25.4152 68.3365 26.1645 69.2508 26.8184C69.3778 26.9073 69.4413 27.0914 69.3461 27.2565C69.308 27.32 69.2254 27.3581 69.1365 27.4216Z" fill="#EBBD0B"/>
<path d="M79.1557 3.42773C80.0636 3.87218 80.9779 4.28488 81.7398 4.95154C81.8858 5.07853 81.962 5.3071 81.7652 5.47853C81.689 5.54202 81.5049 5.58012 81.4477 5.52932C80.6858 4.9325 79.8033 4.53885 78.9969 4.02456C78.8699 3.94202 78.7493 3.78329 78.8572 3.61821C78.9144 3.53567 79.0477 3.49758 79.1557 3.43408V3.42773Z" fill="#EBBD0B"/>
<path d="M88.7554 8.32322C88.7173 8.39941 88.6855 8.53909 88.5966 8.58989C88.5141 8.63433 88.3363 8.62798 88.2728 8.57084C87.5935 7.94227 86.9268 7.301 86.2601 6.65973C86.1776 6.57719 86.1014 6.43751 86.203 6.33592C86.2792 6.25973 86.4125 6.19624 86.5141 6.20259C87.0157 6.24703 88.6792 7.81529 88.7554 8.32322Z" fill="#EBBD0B"/>
<path d="M35.6762 22.0883C35.4857 21.7518 35.4984 21.5296 35.6762 21.4153C36.4191 20.9264 37.2254 20.5772 38.0635 20.2979C38.235 20.2407 38.3746 20.2852 38.4572 20.4629C38.5397 20.6471 38.4318 20.7994 38.2921 20.8629C37.4286 21.282 36.5588 21.6756 35.6699 22.0883H35.6762Z" fill="#EBBD0B"/>
<path d="M78.0575 18.6978C77.6956 18.6978 77.34 18.6978 76.9781 18.6978C76.8067 18.6978 76.6543 18.6152 76.6543 18.4311C76.6543 18.2597 76.7876 18.12 76.94 18.0946C77.7718 17.9612 78.6099 17.9739 79.4416 18.0882C79.594 18.1073 79.721 18.2533 79.7083 18.4311C79.6956 18.6152 79.5432 18.6978 79.3781 18.6978C78.94 18.7041 78.5019 18.6978 78.0575 18.6978Z" fill="#E3B60C"/>
<path d="M72.0253 33.5421C72.3237 33.523 72.4761 33.5611 72.546 33.7325C72.6158 33.9167 72.5142 34.0436 72.3491 34.1008C71.5555 34.3865 70.7618 34.6659 69.9682 34.9452C69.7714 35.0151 69.5745 35.0786 69.4793 34.8119C69.4158 34.6278 69.5174 34.4627 69.6571 34.4119C70.4888 34.1198 71.2698 33.6881 72.0253 33.5484V33.5421Z" fill="#EBBD0B"/>
<path d="M60.1583 21.3834C59.4218 21.1421 58.6345 21.104 58.0123 20.6024C57.8472 20.4691 57.6948 20.304 57.7964 20.1008C57.9044 19.8786 58.1266 19.9167 58.3107 20.031C58.9329 20.4247 59.6504 20.5453 60.3298 20.7675C60.5075 20.8247 60.7361 20.9199 60.6472 21.1866C60.5647 21.4342 60.3234 21.3516 60.1583 21.3834Z" fill="#EBBD0B"/>
<path d="M19.5939 4.35504C19.5685 4.46298 19.5685 4.55186 19.524 4.60901C19.0478 5.19948 18.5716 5.78996 18.0891 6.37409C17.9748 6.50742 17.8097 6.55187 17.6764 6.41853C17.6066 6.34869 17.5431 6.18361 17.5748 6.10742C17.905 5.31377 18.4129 4.6471 19.124 4.17091C19.3081 4.05028 19.4986 4.17091 19.5939 4.36139V4.35504Z" fill="#E3B60C"/>
<path d="M86.4255 19.7455C86.2795 19.7391 86.1144 19.7455 85.9557 19.7201C85.8414 19.7074 85.7398 19.6502 85.6953 19.5169C85.6509 19.3645 85.7398 19.2693 85.8414 19.2312C86.6795 18.9518 87.562 18.901 88.4318 18.7677C88.5906 18.7423 88.7557 18.8566 88.7874 19.0344C88.8382 19.2883 88.6541 19.3899 88.4509 19.4217C87.7779 19.5359 87.1049 19.6375 86.4191 19.7455H86.4255Z" fill="#E3B60C"/>
<path d="M86.8062 14.3611C86.9585 13.7008 87.0601 12.9452 87.4284 12.2658C87.53 12.0817 87.6887 11.8976 87.8982 11.9992C88.0887 12.0944 88.1014 12.3547 88.0189 12.5325C87.7077 13.1928 87.5744 13.8976 87.4284 14.6023C87.3903 14.7801 87.3014 15.0277 87.0538 14.996C86.7109 14.9516 86.7935 14.6722 86.8125 14.3611H86.8062Z" fill="#EBBD0B"/>
<path d="M83.403 20.2912C83.3713 20.4627 83.2951 20.596 83.1364 20.6658C82.5586 20.9262 82.1903 21.3833 81.9364 21.9484C81.8411 22.1579 81.6887 22.4119 81.3967 22.2277C81.2062 22.1071 81.2316 21.8976 81.3205 21.6881C81.657 20.9198 82.1713 20.342 82.984 20.05C83.2316 19.9611 83.3586 20.05 83.4094 20.2849L83.403 20.2912Z" fill="#EBBD0B"/>
<path d="M32.8759 20.1073C32.8379 20.1772 32.8188 20.2724 32.7617 20.3105C32.1204 20.6915 31.6506 21.2121 31.3267 21.8851C31.2696 22.0121 31.0791 22.12 30.9267 21.9804C30.8505 21.9105 30.7871 21.7708 30.7934 21.6692C30.8315 20.9899 31.8283 19.8724 32.4759 19.7772C32.7109 19.7391 32.8442 19.8661 32.8696 20.1073H32.8759Z" fill="#EBBD0B"/>
<path d="M72.635 30.5007C72.6286 30.8499 72.6921 31.0975 72.4318 31.1547C72.1143 31.2245 72.0064 30.9833 71.9556 30.7356C71.8223 30.0182 71.8985 29.2817 71.7143 28.5642C71.6508 28.3166 71.7905 28.0436 72.0762 28.0309C72.3048 28.0245 72.3492 28.2785 72.381 28.4817C72.4889 29.2055 72.3746 29.9483 72.635 30.5007Z" fill="#EBBD0B"/>
<path d="M50.9715 30.3737C50.8889 30.342 50.7937 30.3356 50.7493 30.2848C50.6286 30.1515 50.5969 29.9483 50.6985 29.8404C51.1874 29.3134 51.6889 28.7991 52.2159 28.3039C52.3747 28.1578 52.6223 28.2023 52.7556 28.3864C52.8572 28.5261 52.7556 28.6975 52.6413 28.8182C52.1905 29.2753 51.7334 29.7324 51.2699 30.1832C51.1874 30.2658 51.0731 30.3102 50.9778 30.3674L50.9715 30.3737Z" fill="#E3B60C"/>
<path d="M84.5076 13.3012C84.4441 13.352 84.3616 13.4536 84.26 13.4917C83.6187 13.7075 82.9711 13.9107 82.3171 14.0948C82.1393 14.1456 81.9044 14.171 81.8282 13.9107C81.7774 13.7329 81.8981 13.5742 82.0441 13.5234C82.679 13.2948 83.3203 13.079 83.9742 12.9012C84.2028 12.8377 84.4568 12.9202 84.5139 13.3012H84.5076Z" fill="#EBBD0B"/>
<path d="M73.6445 36.7421C73.8096 36.1389 73.9747 35.4722 74.1715 34.8183C74.216 34.6722 74.362 34.558 74.5525 34.6151C74.7366 34.6659 74.8191 34.8246 74.7874 34.9834C74.635 35.7326 74.4636 36.4818 74.2795 37.2246C74.2414 37.3643 74.108 37.5103 73.9112 37.4278C73.6318 37.3135 73.6509 37.0532 73.6445 36.7484V36.7421Z" fill="#E3B60C"/>
<path d="M71.0345 17.0217C70.7996 16.9963 70.6282 17.009 70.4821 16.9583C70.3869 16.9265 70.279 16.8249 70.2409 16.7297C70.1774 16.5519 70.3234 16.3995 70.4631 16.3741C71.1234 16.2535 71.7901 16.1583 72.4631 16.0757C72.6091 16.0567 72.7869 16.1138 72.8187 16.317C72.844 16.5011 72.7425 16.6471 72.5901 16.6852C72.0504 16.8186 71.5044 16.9202 71.0345 17.0154V17.0217Z" fill="#E3B60C"/>
<path d="M70.5651 39.0342C70.9334 39.085 72.1016 40.2786 72.0953 40.6342C72.0889 40.8754 71.8604 41.0342 71.6889 40.8881C71.181 40.4501 70.6286 40.0374 70.2858 39.4469C70.1651 39.2437 70.3366 39.0786 70.5715 39.0342H70.5651Z" fill="#EBBD0B"/>
<path d="M21.505 16.2597C21.2574 16.2406 21.0923 16.2406 21.0224 16.0501C20.978 15.9168 21.0478 15.8089 21.1494 15.7454C21.7907 15.339 22.451 14.9517 23.2066 14.7993C23.3589 14.7676 23.5494 14.7867 23.5748 14.9898C23.5875 15.0914 23.5431 15.2628 23.4669 15.3009C22.7939 15.6438 22.1081 15.9613 21.4986 16.2533L21.505 16.2597Z" fill="#EBBD0B"/>
<path d="M48.3303 0.65332C48.4065 0.672368 48.5018 0.666019 48.5589 0.710463C49.1748 1.17396 49.8034 1.6311 50.1589 2.34856C50.2288 2.48824 50.2732 2.67237 50.1272 2.79935C49.9811 2.92634 49.8224 2.86919 49.7018 2.75491C49.1811 2.24697 48.6605 1.73269 48.1526 1.21205C48.0383 1.09142 48.0002 0.919986 48.1272 0.773954C48.1716 0.716812 48.2605 0.697764 48.3303 0.659668V0.65332Z" fill="#EBBD0B"/>
<path d="M67.8475 17.4404C66.7554 18.0817 65.8221 18.5007 64.5713 18.5007C65.3713 17.6372 66.6538 17.2055 67.8475 17.4404Z" fill="#EBBD0B"/>
<path d="M94.1397 14.2977C93.8604 14.3231 93.6826 14.2342 93.6064 14.0247C93.3778 13.3834 93.1493 12.7485 92.9524 12.1009C92.8889 11.904 92.9461 11.6945 93.2064 11.6501C93.3905 11.6183 93.5366 11.7263 93.5683 11.885C93.7143 12.6025 94.0128 13.2501 94.3556 13.885C94.4636 14.0818 94.3366 14.266 94.1461 14.304L94.1397 14.2977Z" fill="#E3B60C"/>
<path d="M16.521 16.7993C16.4385 17.3897 15.1877 18.177 14.6289 18.0056C14.3051 17.904 14.3051 17.6374 14.4702 17.4469C14.9274 16.9199 15.6004 16.7548 16.2289 16.5389C16.4067 16.4755 16.502 16.6469 16.521 16.8056V16.7993Z" fill="#EBBD0B"/>
<path d="M13.9872 8.72926C13.5682 8.59593 12.8253 8.93244 12.8063 8.4245C12.7809 7.74514 13.5428 8.0118 13.9618 8.0245C14.419 8.0372 15.2444 7.70069 15.2317 8.4499C15.219 8.96418 14.4063 8.57688 13.9936 8.72926H13.9872Z" fill="#E3B60C"/>
<path d="M10.3809 11.9293C9.79679 11.8087 9.20631 11.7007 8.62218 11.561C8.43806 11.5166 8.22218 11.415 8.26663 11.161C8.31107 10.9007 8.55869 10.8563 8.73012 10.9325C9.37139 11.1991 10.0889 11.0785 10.7301 11.3261C10.8825 11.3833 11.0603 11.4404 11.0603 11.6245C11.0603 11.8912 10.8381 11.9166 10.6285 11.9166C10.546 11.9166 10.4698 11.9039 10.3873 11.8975C10.3873 11.9102 10.3873 11.9229 10.3809 11.9356V11.9293Z" fill="#EBBD0B"/>
<path d="M87.5361 23.3325C87.4917 23.5293 87.2948 23.6309 87.1806 23.5547C86.5393 23.123 85.8282 23.1039 85.098 23.1102C84.9329 23.1102 84.8567 22.8944 85.0091 22.7483C85.3964 22.3801 85.8663 22.3103 86.3552 22.488C86.7932 22.6468 87.3012 22.7229 87.5425 23.2182C87.5552 23.2499 87.5425 23.2944 87.5425 23.3325H87.5361Z" fill="#E3B60C"/>
<path d="M24.7552 10.1454C24.6663 10.4057 24.425 10.4565 24.2981 10.285C23.879 9.75172 23.4854 9.18663 23.1298 8.60886C23.0092 8.41203 23.1552 8.18981 23.4155 8.23425C23.8155 8.29775 24.806 9.73902 24.7552 10.1517V10.1454Z" fill="#EBBD0B"/>
<path d="M18.5905 20.5963C18.3619 20.6026 18.1588 20.5455 18.108 20.3233C18.0635 20.1518 18.2032 20.0121 18.3683 19.9867C19.0032 19.9042 19.5429 19.4471 20.2032 19.4852C20.3619 19.4979 20.527 19.5677 20.5588 19.7518C20.5905 19.936 20.4508 20.0502 20.2984 20.0947C19.727 20.2725 19.1492 20.4312 18.5905 20.5963Z" fill="#E3B60C"/>
<path d="M77.5109 16.031C77.2252 15.9929 76.9141 16.0627 76.8696 15.7389C76.8062 15.3071 77.1681 15.3579 77.4347 15.3198C77.8728 15.2627 78.3109 15.1802 78.7554 15.1484C78.9522 15.1357 79.1681 15.25 79.1935 15.4786C79.2125 15.65 79.0665 15.7643 78.8887 15.796C78.4125 15.8786 77.9363 15.9548 77.5109 16.0246V16.031Z" fill="#E3B60C"/>
<path d="M61.2512 24.7738C60.9655 24.6849 60.9274 24.4691 60.9655 24.2786C61.0861 23.6691 61.4353 23.1802 61.8734 22.7548C61.9877 22.6469 62.1655 22.6215 62.3115 22.7548C62.4575 22.8818 62.4575 23.0722 62.3559 23.1865C61.9813 23.6183 61.7147 24.1008 61.5179 24.6342C61.4861 24.7103 61.3274 24.7421 61.2512 24.7802V24.7738Z" fill="#E3B60C"/>
<path d="M83.5618 18.1898C82.7555 17.4724 82.5586 16.6406 82.292 15.847C82.2729 15.7835 82.3999 15.6438 82.4824 15.5867C82.5967 15.5105 82.7364 15.574 82.7872 15.6819C83.1364 16.4057 83.7142 17.0597 83.5555 18.1835L83.5618 18.1898Z" fill="#EBBD0B"/>
<path d="M67.0218 3.09131C67.0917 3.14845 67.225 3.2056 67.2631 3.30083C67.498 3.89766 67.7202 4.50718 67.9298 5.1167C67.9869 5.27543 67.879 5.42782 67.7202 5.50401C67.5298 5.59924 67.3837 5.47226 67.3329 5.33258C67.098 4.73575 66.8758 4.12623 66.679 3.5167C66.6091 3.30083 66.7488 3.1421 67.0218 3.09766V3.09131Z" fill="#EBBD0B"/>
<path d="M90.5649 18.9517C90.6347 18.9834 90.7299 18.9961 90.7807 19.0469C91.1426 19.4723 91.4982 19.8913 91.8347 20.3294C91.9744 20.5072 91.9426 20.7231 91.7522 20.8501C91.6125 20.9453 91.4474 20.8882 91.3268 20.7612C90.9331 20.3675 90.5712 19.9421 90.2982 19.4533C90.222 19.3199 90.1903 19.1421 90.349 19.0215C90.4061 18.9771 90.4887 18.9644 90.5649 18.939V18.9517Z" fill="#EBBD0B"/>
<path d="M57.879 28.5452C57.6441 28.5008 57.3203 28.6214 57.3203 28.2532C57.3203 28.0055 57.5743 27.9992 57.7711 27.9484C58.3552 27.8024 58.9394 27.6436 59.5235 27.5039C59.6759 27.4659 59.86 27.4913 59.9235 27.6754C59.9806 27.8532 59.8917 27.9801 59.7267 28.0563C59.1298 28.3103 58.5267 28.5198 57.8854 28.5452H57.879Z" fill="#EBBD0B"/>
<path d="M40.2411 2.86294C40.1522 3.17405 39.9554 3.26294 39.7776 3.11056C39.3903 2.77405 39.0284 2.39945 38.6792 2.02485C38.5459 1.87881 38.4506 1.68199 38.6475 1.49786C38.8379 1.32643 39.0411 1.40897 39.1745 1.55501C39.5681 1.97405 40.1649 2.24707 40.2348 2.86294H40.2411Z" fill="#EBBD0B"/>
<path d="M54.387 3.09136C53.8727 3.09136 53.3901 2.89453 52.8949 2.75485C52.7616 2.71676 52.6282 2.57707 52.679 2.3866C52.7298 2.20247 52.8949 2.13898 53.0473 2.15803C53.5171 2.22152 53.9806 2.31676 54.4504 2.3993C54.7044 2.44374 54.952 2.54533 54.952 2.812C54.952 3.1612 54.6155 3.04692 54.387 3.09136Z" fill="#E3B60C"/>
<path d="M29.4475 4.99604C29.384 5.21191 29.2253 5.36429 29.0157 5.23096C28.4634 4.88175 28.1078 4.33572 27.7586 3.80239C27.638 3.62461 27.7776 3.39604 28.0443 3.42778C28.438 3.47858 29.4538 4.63413 29.4538 4.99604H29.4475Z" fill="#E3B60C"/>
<path d="M63.3524 28.355C63.3461 28.6217 63.3397 28.7995 63.162 28.863C62.908 28.9519 62.781 28.755 62.7239 28.5709C62.5524 28.0376 62.4064 27.4916 62.254 26.9455C62.2032 26.7677 62.254 26.6281 62.4318 26.5582C62.6159 26.482 62.781 26.5836 62.8318 26.7296C63.035 27.2947 63.2064 27.8725 63.3588 28.355H63.3524Z" fill="#E3B60C"/>
<path d="M81.1751 7.94235C81.0989 8.17092 80.8957 8.23442 80.6989 8.19632C80.1909 8.09473 79.7084 7.89156 79.2766 7.59949C79.1433 7.50426 79.0544 7.34553 79.1687 7.19315C79.2322 7.11061 79.3973 7.02172 79.4735 7.05347C80.0259 7.25664 80.5719 7.49156 81.1179 7.72648C81.1624 7.74553 81.156 7.86616 81.1751 7.94235Z" fill="#E3B60C"/>
<path d="M55.4478 31.8028C54.8827 32.4123 54.1272 32.552 53.4605 32.8758C53.3907 32.9075 53.2065 32.825 53.1684 32.7424C53.124 32.6599 53.143 32.4694 53.2129 32.4186C53.8605 31.879 54.6034 31.6313 55.4478 31.8028Z" fill="#EBBD0B"/>
<path d="M75.6384 5.11034C75.3019 5.63733 74.9908 6.17701 74.6162 6.67225C74.5082 6.81193 74.2162 6.71669 74.1844 6.45637C74.1336 6.08812 74.7876 5.0405 75.1432 4.87542C75.3654 4.77383 75.5114 4.85002 75.6384 5.11034Z" fill="#EBBD0B"/>
<path d="M75.803 22.1388C75.5173 22.1007 75.1934 22.1769 75.1553 21.8594C75.1109 21.4658 75.4474 21.4594 75.7268 21.4277C75.8855 21.4086 76.0442 21.3769 76.203 21.3578C76.5522 21.3134 77.0665 20.8563 77.2061 21.415C77.3268 21.8785 76.6601 21.8658 76.33 22.0436C76.1649 22.1325 75.9426 22.1134 75.7966 22.1388H75.803Z" fill="#E3B60C"/>
<path d="M26.9145 26.0565C26.5209 25.9549 25.8733 26.2343 25.8542 25.739C25.8288 25.0787 26.5082 25.3835 26.8828 25.3581C27.2447 25.3327 27.8733 25.174 27.8733 25.6946C27.8733 26.2216 27.232 25.9549 26.9082 26.0628L26.9145 26.0565Z" fill="#E3B60C"/>
<path d="M76.432 29.7835C75.9495 29.7581 75.6257 29.7581 75.3082 29.72C75.213 29.7073 75.0923 29.6375 75.1114 29.4724C75.1241 29.3264 75.2193 29.2438 75.3209 29.2248C76.0257 29.1105 76.7495 29.2248 77.4542 29.0343C77.6066 28.9899 77.759 29.1169 77.8034 29.2946C77.8542 29.4978 77.7019 29.6184 77.5685 29.6438C77.1368 29.72 76.705 29.7581 76.432 29.7899V29.7835Z" fill="#EBBD0B"/>
<path d="M73.371 19.8152C73.3075 20.2025 73.5171 20.8184 72.9964 20.8184C72.4377 20.8184 72.698 20.1962 72.6726 19.8406C72.6472 19.4597 72.571 18.8438 73.0472 18.8501C73.606 18.8565 73.2631 19.4914 73.3774 19.8152H73.371Z" fill="#E3B60C"/>
<path d="M29.5615 28.7867C29.4536 28.7803 29.3266 28.7867 29.2123 28.7549C29.1044 28.7232 28.9711 28.6914 28.9901 28.52C29.0028 28.3867 29.0536 28.2851 29.1806 28.2533C29.7711 28.101 30.3552 27.9486 30.952 27.8216C31.1171 27.7835 31.2758 27.847 31.3266 28.0375C31.3838 28.2343 31.2504 28.3803 31.1107 28.4184C30.6092 28.5644 30.1203 28.7803 29.5615 28.793V28.7867Z" fill="#EBBD0B"/>
<path d="M23.2001 5.05957C23.3461 5.09767 23.5049 5.11036 23.6382 5.18655C23.7334 5.23735 23.8287 5.36433 23.835 5.45957C23.835 5.54211 23.7271 5.69449 23.6446 5.71354C23.1049 5.82148 22.5588 5.91037 22.0128 5.98656C21.8541 6.0056 21.689 5.94846 21.67 5.74529C21.6509 5.56116 21.7715 5.43417 21.9176 5.38973C22.3366 5.26275 22.762 5.17386 23.2001 5.05957Z" fill="#EBBD0B"/>
<path d="M22.9208 34.5581C23.3081 34.5708 23.5748 34.774 23.8414 34.9454C24.1525 35.1486 24.8763 35.174 24.6795 35.5803C24.3938 36.1708 23.8605 35.6311 23.4605 35.4724C23.2002 35.3708 22.9652 35.1994 22.7494 35.028C22.6795 34.9708 22.6351 34.793 22.6732 34.7041C22.7049 34.6216 22.8573 34.5899 22.9271 34.5581H22.9208Z" fill="#EBBD0B"/>
<path d="M78.4379 11.3072C77.7458 11.7072 77.5109 12.1643 77.2379 12.5897C77.1109 12.7865 76.8887 12.9961 76.6537 12.8183C76.4125 12.6405 76.5776 12.3929 76.6855 12.177C77.1426 11.2691 77.3458 11.1421 78.4442 11.3008L78.4379 11.3072Z" fill="#EBBD0B"/>
<path d="M90.044 15.4089C90.3233 15.3835 90.4186 15.4788 90.4376 15.593C90.4567 15.701 90.4376 15.8534 90.3741 15.9232C89.9043 16.3677 89.2884 16.3994 88.6979 16.4692C88.6535 16.4692 88.5773 16.374 88.5392 16.3105C88.463 16.1835 88.5202 16.0375 88.6154 15.993C89.1297 15.7645 89.6503 15.5677 90.0503 15.4089H90.044Z" fill="#E3B60C"/>
<path d="M44.9837 2.65346C44.7678 2.63441 44.6027 2.62806 44.444 2.60267C44.1583 2.55822 43.6884 2.69156 43.7519 2.22172C43.8027 1.84076 44.2472 1.90425 44.5583 1.9106C44.717 1.9106 44.8757 1.95505 45.0281 1.99949C45.2757 2.06933 45.7138 1.9741 45.6884 2.336C45.6567 2.7741 45.2122 2.62806 44.9773 2.65346H44.9837Z" fill="#E3B60C"/>
<path d="M49.1875 27.2755C49.0859 27.5421 48.9525 27.6628 48.7176 27.5675C48.47 27.466 48.3684 27.2183 48.3049 27.0025C48.1779 26.5644 47.689 25.9041 48.1589 25.7072C48.7875 25.4469 48.6351 26.3358 48.9081 26.6723C49.0541 26.8501 49.1049 27.0977 49.1875 27.2818V27.2755Z" fill="#E3B60C"/>
<path d="M66.4567 22.6596C66.2979 22.6088 66.044 22.5644 66.1519 22.3866C66.463 21.8406 66.6027 21.1929 67.0852 20.7485C67.1551 20.685 67.3329 20.6723 67.409 20.7167C67.4852 20.7612 67.5551 20.9453 67.5233 21.0215C67.2948 21.5231 67.1487 22.0755 66.7551 22.4882C66.6789 22.5707 66.5519 22.6088 66.4567 22.6596Z" fill="#EBBD0B"/>
<path d="M20.8569 22.8501C21.149 22.8501 21.4156 22.9136 21.6252 23.1231C21.841 23.3326 22.2601 23.5168 22.0378 23.8787C21.7775 24.2977 21.4918 23.8787 21.2315 23.7644C21.0474 23.6882 20.8696 23.612 20.6918 23.5231C20.495 23.4279 20.3553 23.2882 20.4569 23.0533C20.5267 22.8882 20.6918 22.8628 20.8569 22.8501Z" fill="#E3B60C"/>
<path d="M42.698 23.1802C43.0408 23.1548 43.898 24.1643 43.8345 24.5389C43.8027 24.723 43.625 24.8436 43.4916 24.7611C43.0091 24.469 42.6535 24.05 42.4503 23.523C42.3932 23.377 42.4948 23.2183 42.698 23.1802Z" fill="#E3B60C"/>
<path d="M91.0665 8.68486C91.0983 9.13565 90.3237 10.1325 89.8729 10.2023C89.7713 10.2214 89.6316 10.1769 89.5491 10.1071C89.4602 10.0309 89.4602 9.88486 89.5491 9.79597C89.9173 9.42771 90.2475 9.03406 90.5142 8.58327C90.6031 8.43089 90.7872 8.43089 90.9459 8.50708C91.0031 8.53247 91.0285 8.62771 91.0665 8.6912V8.68486Z" fill="#EBBD0B"/>
<path d="M37.4791 27.8405C37.2442 28.0373 37.0219 28.1198 36.8696 27.9802C36.4251 27.5802 36.0124 27.1484 35.6124 26.7103C35.4727 26.5516 35.4854 26.3103 35.6632 26.1706C35.8029 26.0627 35.968 26.1516 36.0759 26.2722C36.5458 26.7929 37.0156 27.3198 37.4791 27.8405Z" fill="#EBBD0B"/>
<path d="M9.13611 16.3234C8.93928 16.3234 8.73611 16.3361 8.53928 16.3234C8.27897 16.298 7.88532 16.3297 7.93611 15.9488C7.98055 15.644 8.34881 15.5678 8.62182 15.6249C9.09166 15.7202 9.56785 15.7519 10.044 15.771C10.2028 15.771 10.3742 15.8345 10.3806 16.0249C10.3933 16.3043 10.1583 16.317 9.96785 16.3297C9.68849 16.3488 9.40912 16.3297 9.12976 16.3297C9.12976 16.3297 9.12976 16.3297 9.12976 16.3234H9.13611Z" fill="#EBBD0B"/>
<path d="M71.3338 8.39923C71.2703 8.36113 71.1751 8.32939 71.1433 8.27225C70.9147 7.8532 70.6862 7.4278 70.4893 6.98971C70.4512 6.91351 70.5211 6.75478 70.5846 6.67224C70.6608 6.58336 70.8004 6.55161 70.902 6.64685C71.3147 7.04685 71.6068 7.52304 71.6449 8.10717C71.6576 8.29129 71.5179 8.38653 71.3338 8.39923Z" fill="#E3B60C"/>
<path d="M50.5846 24.1454C50.4893 24.1327 50.356 24.1454 50.2544 24.0946C49.8163 23.885 48.9147 23.8723 49.0607 23.3835C49.283 22.666 49.8925 23.4533 50.3433 23.4469C50.4576 23.4469 50.5655 23.5231 50.6861 23.5485C50.9211 23.5993 51.2131 23.6374 51.1179 23.9612C51.0607 24.1771 50.7941 24.1263 50.5782 24.139L50.5846 24.1454Z" fill="#EBBD0B"/>
<path d="M38.298 25.3137C38.0758 25.301 37.9615 25.1994 37.9806 25.0153C38.0504 24.4502 38.298 23.955 38.5774 23.4661C38.6663 23.3073 38.8695 23.3137 39.0028 23.3899C39.079 23.4343 39.1615 23.6058 39.1298 23.6819C38.952 24.1645 38.7488 24.647 38.5393 25.1169C38.4949 25.2121 38.3679 25.2629 38.298 25.3137Z" fill="#EBBD0B"/>
<path d="M23.0728 30.1832C23.0347 30.1832 22.8632 30.1832 22.7172 30.1261C22.622 30.088 22.5077 29.9801 22.4823 29.8785C22.4315 29.6944 22.5712 29.5674 22.7299 29.5356C22.9648 29.4912 23.2124 29.4785 23.4537 29.4848C23.7458 29.4975 24.222 29.3007 24.222 29.7769C24.222 30.1198 23.7648 30.1578 23.4347 30.1832C23.3521 30.1832 23.2759 30.1832 23.0728 30.1832Z" fill="#E3B60C"/>
<path d="M49.2699 38.4502C49.3207 38.4502 49.5238 38.4502 49.708 38.5073C49.8984 38.5708 49.9111 38.7359 49.7778 38.8756C49.4921 39.1613 48.4381 39.3073 48.0762 39.1169C47.981 39.0661 47.873 38.9391 47.873 38.8502C47.873 38.6851 48 38.5645 48.1715 38.5454C48.4889 38.5073 48.8064 38.4946 49.2699 38.4565V38.4502Z" fill="#E3B60C"/>
<path d="M27.7648 15.7582C27.7648 15.955 27.6505 16.0756 27.4727 16.0375C27.3267 16.0058 27.1743 15.9105 27.0664 15.7963C26.7553 15.4851 26.3616 15.2248 26.3743 14.7169C26.3743 14.6597 26.5711 14.5518 26.6664 14.5645C27.0219 14.5963 27.7394 15.4026 27.7648 15.7582Z" fill="#EBBD0B"/>
<path d="M95.8411 21.4214C95.2125 21.269 94.5903 21.1166 93.9617 20.9706C93.803 20.9325 93.6443 20.8944 93.657 20.6785C93.6633 20.4626 93.8347 20.4309 93.9935 20.4055C94.5395 20.3166 95.0347 20.5325 95.53 20.6976C95.8982 20.8182 95.6951 21.1991 95.8347 21.4214H95.8411Z" fill="#EBBD0B"/>
<path d="M8.46949 23.6566C8.30441 23.6185 8.12028 23.6312 8.08853 23.4281C8.05679 23.2312 8.19647 23.1297 8.3425 23.0789C8.7552 22.9328 9.17425 22.7995 9.59965 22.6789C9.77107 22.6281 9.91076 22.717 9.9933 22.8757C10.0885 23.0662 9.96155 23.2185 9.83457 23.2693C9.39647 23.4535 8.94568 23.6312 8.47584 23.6566H8.46949Z" fill="#E3B60C"/>
<path d="M74.2033 9.42173C74.3621 9.42173 74.5271 9.39633 74.6795 9.42808C74.7811 9.44712 74.9081 9.52966 74.9462 9.6122C75.0224 9.80268 74.8636 9.89157 74.7113 9.95506C74.597 9.99951 74.4827 10.0313 74.3684 10.0566C73.943 10.1646 73.5113 10.2852 73.0986 10.0186C73.0478 9.98681 72.997 9.85982 73.0224 9.80903C73.2827 9.29474 73.8033 9.54236 74.2033 9.42173Z" fill="#E3B60C"/>
<path d="M19.1304 27.1995C19.1177 27.2757 19.1304 27.3772 19.0859 27.4217C18.7939 27.682 18.5018 27.9487 18.178 28.1709C18.0066 28.2915 17.7844 28.2344 17.6574 28.0439C17.5494 27.8788 17.6574 27.7265 17.7907 27.6439C18.0891 27.4534 18.2542 27.0788 18.6288 27.009C18.8193 26.9709 19.0225 26.9773 19.1304 27.1995Z" fill="#E3B60C"/>
<path d="M57.5941 24.3995C57.5433 24.4694 57.4925 24.6218 57.4099 24.6471C56.9211 24.7995 56.4703 25.1551 55.9179 24.9456C55.8036 24.9011 55.7655 24.736 55.848 24.6408C56.229 24.2218 56.7687 24.171 57.2766 24.0757C57.4353 24.044 57.5877 24.1519 57.5877 24.3995H57.5941Z" fill="#EBBD0B"/>
<path d="M69.8604 23.8723C70.9524 23.4469 71.3524 23.5167 72.0762 24.1516C71.5217 24.3506 70.7831 24.2575 69.8604 23.8723Z" fill="#EBBD0B"/>
<path d="M92.5078 24.7995C92.4507 23.9042 92.9015 23.2312 93.5618 23.1169C93.657 23.0979 93.8157 23.1677 93.8602 23.2439C93.9427 23.3836 93.8983 23.5487 93.7713 23.6757C93.7459 23.7011 93.7142 23.7328 93.6888 23.7582C93.3396 24.0693 92.984 24.3804 92.5078 24.7995Z" fill="#EBBD0B"/>
<path d="M35.3337 2.86285C35.3464 3.18666 34.4702 4.18348 34.1147 4.24063C33.9623 4.26602 33.8861 4.16444 33.8607 4.05015C33.7845 3.6692 34.7559 2.57713 35.1242 2.61523C35.2575 2.62793 35.321 2.72317 35.3337 2.8565V2.86285Z" fill="#EBBD0B"/>
<path d="M20.5138 8.78649C20.063 9.33887 20.1138 9.94204 19.7836 10.3801C19.6757 10.5262 19.3265 10.4436 19.3392 10.2151C19.371 9.67538 19.3773 9.09125 19.8344 8.67855C19.917 8.60236 20.0186 8.52617 20.1519 8.60236C20.2535 8.6595 20.3614 8.7103 20.5202 8.78649H20.5138Z" fill="#EBBD0B"/>
<path d="M29.6701 32.99C29.6256 33.0661 29.5875 33.1804 29.5114 33.2566C29.1875 33.5677 28.7621 33.6947 28.3431 33.809C28.2542 33.8344 28.0891 33.7582 28.0383 33.682C27.9495 33.536 27.9939 33.3646 28.1526 33.2757C28.5336 33.0725 28.9209 32.8693 29.3272 32.7042C29.4606 32.6535 29.632 32.7614 29.6701 32.99Z" fill="#EBBD0B"/>
<path d="M5.36463 14.9706C5.17416 14.9642 5.07257 14.85 5.05987 14.6785C5.04082 14.2849 5.92971 13.5484 6.33606 13.6309C6.52019 13.669 6.56463 13.8277 6.52654 13.9992C6.49479 14.1325 5.50432 14.9452 5.36463 14.9706Z" fill="#E3B60C"/>
<path d="M75.549 25.8405C75.5236 25.885 75.4855 26.0246 75.4029 26.0691C74.9077 26.304 74.4188 26.5834 73.841 26.4754C73.7013 26.45 73.7013 26.285 73.7394 26.177C73.8347 25.9104 74.9458 25.4723 75.3331 25.5421C75.441 25.5612 75.568 25.6119 75.5426 25.8342L75.549 25.8405Z" fill="#EBBD0B"/>
<path d="M43.3082 19.3262C43.7209 19.4024 44.1781 20.2278 44.032 20.6024C44.0003 20.6913 43.8543 20.7992 43.7654 20.7928C43.4797 20.7801 42.9527 19.8024 43.0733 19.5039C43.1114 19.4151 43.2384 19.3706 43.3082 19.3198V19.3262Z" fill="#E3B60C"/>
<path d="M49.7076 21.1106C49.352 19.9932 49.5933 19.4408 50.3298 19.2503C50.4441 19.2186 50.5901 19.2186 50.6409 19.3392C50.679 19.4344 50.698 19.6186 50.6409 19.663C50.2345 19.9868 50.006 20.4376 49.7012 21.1106H49.7076Z" fill="#EBBD0B"/>
<path d="M68.1203 30.482C68.0251 30.4693 67.9806 30.482 67.9489 30.4629C67.5679 30.2979 66.8568 30.1963 66.9775 29.7836C67.1679 29.1423 67.6822 29.8026 68.0568 29.8026C68.0949 29.8026 68.133 29.8217 68.1711 29.8407C68.3806 29.955 68.8314 29.8407 68.6918 30.2852C68.6092 30.5518 68.2918 30.4629 68.1203 30.482Z" fill="#EBBD0B"/>
<path d="M62.737 4.34863C62.8767 4.34863 62.9973 4.34228 63.1116 4.34863C63.3592 4.36768 63.6195 4.40578 63.6005 4.72324C63.5878 4.95181 63.3719 5.0153 63.1624 5.03435C63.0417 5.04705 62.9274 5.0534 62.8068 5.0534C62.4703 5.05974 61.9687 5.21847 61.9306 4.74228C61.8925 4.228 62.4322 4.40578 62.7306 4.34229L62.737 4.34863Z" fill="#E3B60C"/>
<path d="M90.5329 23.9296C90.4187 24.3106 90.7234 24.9645 90.2409 24.9836C89.6822 25.0026 89.9298 24.3487 89.9425 24.0058C89.9615 23.5804 89.6504 22.8185 90.2663 22.8058C90.7361 22.7931 90.3806 23.5614 90.5329 23.9296Z" fill="#EBBD0B"/>
<path d="M44.0949 28.5518C43.9425 28.5264 43.7457 28.5137 43.5552 28.463C43.4981 28.4503 43.4473 28.3614 43.4155 28.2979C43.352 28.1582 43.46 28.0376 43.5552 28.0185C44.0187 27.9233 44.4885 27.8534 44.9584 27.7963C45.1171 27.7772 45.2758 27.8534 45.3012 28.0503C45.333 28.2979 45.1742 28.4058 44.9647 28.4439C44.6917 28.4884 44.4123 28.5137 44.0949 28.5518Z" fill="#EBBD0B"/>
<path d="M8.6726 18.571C8.64085 18.8059 8.53927 18.9646 8.2853 18.9075C8.07578 18.8631 7.4853 17.7456 7.60593 17.6186C7.79006 17.4091 8.05038 17.4154 8.2472 17.5996C8.53292 17.8535 8.52657 18.2535 8.6726 18.571Z" fill="#E3B60C"/>
<path d="M50.0954 34.1519C50.1399 34.863 49.8224 35.39 49.2954 35.4979C49.1684 35.5233 49.0414 35.4725 49.0033 35.3582C48.9716 35.2566 48.9843 35.1169 49.0224 35.0153C49.124 34.7741 49.5748 34.4312 50.0954 34.1519Z" fill="#EBBD0B"/>
<path d="M73.1494 12.1454C73.1113 11.7899 73.0605 11.4978 73.378 11.4534C73.6955 11.4089 73.7526 11.7327 73.7843 11.9422C73.8478 12.3232 74.032 12.7232 73.7653 13.0978C73.7272 13.1549 73.6002 13.2184 73.5621 13.1994C73.1113 12.9264 73.1875 12.4502 73.1494 12.1454Z" fill="#EBBD0B"/>
<path d="M26.438 38.7802C26.1396 38.7167 26.0126 38.5643 26.1714 38.3548C26.4888 37.9294 26.9396 37.6691 27.4729 37.65C27.6952 37.6437 27.8666 37.9103 27.7079 38.0627C27.3396 38.4056 26.8825 38.6405 26.438 38.7802Z" fill="#E3B60C"/>
<path d="M9.87321 27.1867C9.79067 27.3709 9.74623 27.5677 9.63194 27.7201C9.44782 27.9677 9.21924 28.2915 8.88274 28.0312C8.56528 27.7899 8.87004 27.5487 9.03512 27.3391C9.13036 27.2121 9.22559 27.0852 9.33353 26.9772C9.41607 26.8947 9.52401 26.8121 9.63829 26.9074C9.72718 26.9772 9.78432 27.0788 9.87321 27.1867Z" fill="#E3B60C"/>
<path d="M25.549 20.9582C25.7268 20.9645 25.8537 21.0725 25.9109 21.2185C26.0315 21.5106 26.1331 21.809 26.2283 22.1074C26.2791 22.2661 26.2347 22.4376 26.0887 22.5201C25.9236 22.609 25.7775 22.501 25.695 22.3614C25.4918 22.0185 25.3204 21.663 25.2887 21.263C25.276 21.1106 25.3395 20.9455 25.549 20.9518V20.9582Z" fill="#E3B60C"/>
<path d="M53.7653 20.5581C53.7653 20.4819 53.7463 20.3613 53.7653 20.247C53.7907 20.1327 53.8478 20.0184 53.9875 20.0057C54.1145 19.993 54.2542 20.0311 54.2732 20.1518C54.3621 20.6597 54.4383 21.1676 54.4955 21.6819C54.5082 21.7962 54.4002 21.9105 54.2669 21.8915C54.159 21.8788 54.0256 21.8407 53.9621 21.7581C53.6828 21.4089 53.8669 20.9835 53.759 20.5581H53.7653Z" fill="#EBBD0B"/>
<path d="M12.0507 19.4027C11.9999 19.6567 11.8603 19.7583 11.6253 19.6757C11.5555 19.6503 11.4666 19.6059 11.4349 19.5424C11.2571 19.2059 10.8063 18.99 10.9587 18.5138C10.9777 18.4503 11.1809 18.3869 11.2634 18.4186C11.7269 18.5773 11.873 19.0091 12.0507 19.3964V19.4027Z" fill="#EBBD0B"/>
<path d="M93.4036 27.3897C93.4417 27.7706 92.7687 28.3167 92.4068 28.177C92.3179 28.1452 92.2227 27.9992 92.2227 27.9103C92.2227 27.5865 92.8385 27.1103 93.1877 27.1548C93.3147 27.1675 93.3846 27.2627 93.4036 27.3897Z" fill="#E3B60C"/>
<path d="M94.8448 16.577C94.5908 16.5516 94.3495 16.577 94.3241 16.3039C94.2987 16.0246 94.54 16.0309 94.7305 15.9738C95.0733 15.8722 95.4225 15.7008 95.759 15.9674C95.8479 16.0373 95.8797 16.177 95.7908 16.2912C95.5305 16.6468 95.1114 16.4373 94.8511 16.577H94.8448Z" fill="#EBBD0B"/>
<path d="M84.5646 9.99287C84.4821 10.1135 84.4313 10.2214 84.3488 10.2913C84.2408 10.3865 84.1265 10.3103 84.0313 10.2468C83.6313 9.96747 83.5614 9.52938 83.4853 9.09763C83.4726 9.02144 83.5995 8.90716 83.6884 8.84367C83.7329 8.81192 83.8662 8.83096 83.8916 8.86906C84.1202 9.23731 84.3424 9.61192 84.5646 9.99287Z" fill="#EBBD0B"/>
<path d="M53.0477 35.6436C53.5556 36.2531 53.8604 36.742 53.8985 37.3642C53.9048 37.5229 53.8604 37.6944 53.6763 37.7388C53.4858 37.7832 53.3588 37.6753 53.3525 37.4975C53.3271 36.9197 52.6477 36.488 53.0541 35.6499L53.0477 35.6436Z" fill="#EBBD0B"/>
<path d="M72.6353 44.4123C72.4639 44.3996 72.3432 44.3932 72.2226 44.3805C72.0512 44.3551 71.9178 44.2662 71.9305 44.0821C71.9369 43.9742 72.0004 43.8662 72.1464 43.8472C72.502 43.7964 72.8512 43.7075 73.2004 43.6694C73.3527 43.6567 73.5178 43.7266 73.5369 43.9297C73.5559 44.1202 73.4289 44.2345 73.2829 44.2853C73.0543 44.3551 72.8131 44.3805 72.6289 44.4123H72.6353Z" fill="#EBBD0B"/>
<path d="M70.6093 19.7137C70.6093 19.9486 70.5458 20.1327 70.3108 20.1645C70.0378 20.2026 69.9934 19.9804 69.968 19.7835C69.9172 19.3899 69.8156 18.9899 70.0759 18.6343C70.1013 18.5962 70.2473 18.5835 70.2918 18.6216C70.6664 18.9073 70.4188 19.3835 70.6093 19.7137Z" fill="#EBBD0B"/>
<path d="M47.2637 32.1391C47.2383 32.209 47.232 32.3042 47.1812 32.3423C46.8701 32.5836 45.9749 32.3487 45.8225 31.9741C45.7844 31.8852 45.8161 31.7328 45.8669 31.6439C45.9622 31.4725 46.1145 31.5296 46.2796 31.5804C46.832 31.7582 47.2447 31.9804 47.2701 32.1455L47.2637 32.1391Z" fill="#EBBD0B"/>
<path d="M78.2919 25.32C78.6411 25.2565 78.73 25.5867 78.9141 25.7771C79.0728 25.9486 79.3014 26.1073 79.1871 26.3867C79.1554 26.4692 78.9712 26.5581 78.8887 26.5327C78.4315 26.3867 78.1966 26.0248 78.0823 25.5867C78.0442 25.447 78.1649 25.3835 78.2919 25.3263V25.32Z" fill="#EBBD0B"/>
<path d="M15.3082 12.4374C15.34 12.8374 14.6288 13.4723 14.2669 13.3643C14.2034 13.3453 14.1146 13.2754 14.1019 13.2183C14.0384 12.831 14.3622 12.6723 14.5717 12.45C14.7368 12.2786 14.9273 12.1199 15.1876 12.2405C15.2447 12.2659 15.2638 12.3675 15.3019 12.431L15.3082 12.4374Z" fill="#EBBD0B"/>
<path d="M59.2697 1.19319C58.584 1.60589 58.1586 1.35193 57.7776 0.964625C57.7459 0.932878 57.7776 0.774147 57.8157 0.7551C58.3808 0.463036 58.7681 0.767797 59.2634 1.19319H59.2697Z" fill="#EBBD0B"/>
<path d="M14.1138 24.3042C14.1011 24.4692 14.0059 24.6343 13.8281 24.5708C13.4154 24.4248 13.2503 24.0502 13.1361 23.6692C13.098 23.5486 13.1995 23.4343 13.3202 23.4026C13.6313 23.32 14.1075 23.8534 14.1202 24.3042H14.1138Z" fill="#EBBD0B"/>
<path d="M92.8759 30.4438C93.1171 30.4438 93.3266 30.5264 93.2949 30.755C93.2568 31.0153 92.9901 31.1042 92.7552 31.1105C92.6155 31.1105 92.4441 31.0089 92.4314 30.8311C92.406 30.501 92.6663 30.4819 92.8759 30.4502V30.4438Z" fill="#E3B60C"/>
<defs>
<linearGradient id="paint0_linear_279_750" x1="50" y1="3" x2="50" y2="23" gradientUnits="userSpaceOnUse">
<stop stop-color="#F4C061"/>
<stop offset="1" stop-color="#BC882E"/>
</linearGradient>
</defs>
</svg>
