<svg width="100" height="54" viewBox="0 0 100 54" fill="none" xmlns="http://www.w3.org/2000/svg">
<path d="M98.125 37.5384C97.3504 39.3797 96.5059 41.1066 95.0202 42.5797C93.6297 43.9574 92.3028 45.5384 90.5948 46.332C88.5313 47.2908 86.4678 48.2876 84.3726 49.1955C81.725 50.3384 78.944 51.1892 76.2075 51.7924C73.6742 52.3574 71.0012 52.6685 68.3726 53.0114C59.2424 54.1924 50.0678 54.0971 40.9123 53.8178C31.4012 53.532 21.9408 52.3955 13.052 48.6686C7.29323 46.2559 2.44878 42.7765 0.575765 36.3701C0.461479 35.9765 0.315447 35.6019 0.417034 35.1828C0.994812 35.5892 1.26783 36.3701 2.05513 36.5162C3.28688 37.4622 4.66465 37.2273 5.99799 36.9225C8.36624 36.3765 10.417 35.1193 12.4678 33.8876C15.217 32.2305 17.8139 30.332 20.6837 28.8844C25.0266 26.6939 26.9885 27.7098 27.7313 32.4781C27.9027 33.6146 27.7694 34.8019 28.2583 35.8876C28.2329 36.186 28.2329 36.4717 28.5186 36.6685L28.5059 36.7828C28.925 38.7003 30.2329 39.7797 32.0424 40.1479C37.6361 41.3035 42.1504 39.4305 45.6869 35.0495C47.1027 33.3035 48.1377 31.3098 49.3313 29.4178C50.4805 27.5892 50.544 27.5765 52.4043 28.6749C53.1853 29.4559 53.9726 30.2432 54.7535 31.0241C57.09 33.8432 59.5345 36.567 62.3916 38.8844C65.3821 41.3162 68.544 42.7701 72.6266 41.6844C75.998 40.7892 77.7885 39.0368 77.8202 35.5892C77.852 34.7384 77.8837 33.8876 77.9091 33.0368C77.9662 30.8463 77.5345 28.6368 78.1885 26.4717C79.0901 25.2781 80.3345 24.8908 81.7821 24.8082C84.8805 24.6305 87.2551 26.0781 89.4329 28.0209C91.6869 30.0336 93.4012 32.5035 95.2615 34.8527C96.0805 35.8812 96.8297 36.9924 98.1059 37.5447L98.125 37.5384Z" fill="#E9D5B7"/>
<path d="M2.06116 36.5159C1.27386 36.3699 0.994497 35.5889 0.423068 35.1826C0.397671 35.0048 0.378624 34.8334 0.353227 34.6556C0.264338 34.4524 0.175449 34.2492 0.0865601 34.0461C-0.00232881 33.9953 -0.0213764 33.9254 0.023068 33.8302C0.0929093 31.7604 -0.0404241 29.6778 0.365925 27.627C1.47069 23.8429 3.62307 20.7889 6.78497 18.4334C7.8072 20.9032 9.3945 22.7254 12.1818 23.2651C14.658 23.7413 18.1247 22.7 19.0834 20.6175C19.312 20.4778 19.3818 20.2556 19.3881 20.008C19.4834 19.9 19.5786 19.7921 19.6802 19.6905C20.0358 19.4683 19.9786 19.1127 19.985 18.7762C20.0739 18.6619 20.2072 18.554 20.2516 18.4207C21.0834 15.9826 19.9913 14.1096 18.4485 12.3699C21.8834 11.1064 25.4389 10.3064 29.0199 9.60797C29.4643 9.51909 29.9024 9.3921 30.3405 9.28417C32.4802 9.03655 34.6389 8.89686 36.7532 8.50956C37.9913 8.28099 39.2929 8.71274 40.4675 8.07147C41.312 8.18575 42.1247 8.03972 42.9247 7.76036C43.2548 7.75401 43.5786 7.74131 43.9088 7.73496C48.6326 7.0048 53.3628 7.03655 58.0929 7.68417C58.7405 7.77306 59.4072 7.91909 60.0675 7.72226C63.2929 8.67464 66.6453 8.83337 69.9532 9.28417C70.7913 9.78575 71.7056 9.59528 72.6008 9.58258C72.9247 9.7794 73.2421 9.96988 73.5659 10.1667C75.7945 10.408 77.9088 11.081 80.0294 11.754C79.8643 12.0715 79.6993 12.3826 79.5405 12.7C77.9215 15.9826 78.9374 19.335 82.1056 21.1762C84.5882 22.6175 87.0643 22.2365 89.5342 21.1191C89.5469 21.2207 89.5342 21.3286 89.5659 21.4238C90.8739 25.6651 93.6802 29.0175 96.2009 32.5413C96.3913 32.808 96.6834 33.1381 97.0897 32.9096C97.4389 32.7127 97.4643 32.3254 97.4516 31.9635C97.3183 26.8715 95.2929 22.7889 90.9501 19.9572C91.4136 19.1254 91.877 18.2873 92.3405 17.4556C94.7977 18.9858 96.785 20.9921 98.3278 23.4238C99.4326 25.1699 100.131 27.0175 99.9596 29.1572C99.8326 30.7191 99.9151 32.3 99.9469 33.8746C99.9596 34.5984 99.877 35.2842 99.4707 35.9C98.0104 36.0461 97.0453 35.1889 96.277 34.1667C94.5374 31.8492 92.512 29.8048 90.4485 27.7858C87.7691 25.1572 84.5945 23.8111 80.8104 24.2937C79.585 24.4524 78.2199 24.7318 78.2008 26.4651C77.5405 28.6302 77.9786 30.8397 77.9215 33.0302C77.8961 33.881 77.8643 34.7318 77.8326 35.5826C77.2294 36.9794 76.6389 38.4969 75.077 39.0302C71.6167 40.2111 68.1501 40.8524 64.6897 38.827C61.5405 36.9858 58.912 34.5604 56.3723 32.0143C55.9215 31.5635 55.5659 30.9223 54.7596 31.0175C53.9786 30.2365 53.1913 29.4492 52.4104 28.6683C52.4231 27.4683 51.3691 27.354 50.6262 27.1127C49.8707 26.8715 49.477 27.6334 49.1215 28.1667C47.1024 31.1445 45.2929 34.2746 42.2516 36.4334C39.1913 38.6048 31.7183 40.027 28.512 36.7762L28.5247 36.6619C28.5183 36.3762 28.5437 36.0778 28.2643 35.881C27.7754 34.7953 27.9088 33.608 27.7374 32.4715C28.0993 31.6397 27.9977 30.7699 27.8262 29.9318C27.2231 27.0238 25.9342 26.2683 23.0008 26.9477C22.3913 27.0873 21.8453 27.3159 21.2929 27.5699C18.3151 28.9159 15.6485 30.7889 12.8358 32.427C9.47704 34.3762 6.28339 36.8334 2.05481 36.5096L2.06116 36.5159ZM30.9945 21.8111C30.8929 21.9127 30.7913 22.0143 30.6897 22.1159C30.131 22.3953 29.9723 22.9477 29.7881 23.4683C28.0739 28.2492 32.1247 32.8905 37.4389 32.1858C39.7183 31.881 42.7151 29.8873 43.2104 26.135C43.4834 24.0651 41.9913 21.3159 39.9151 20.2746C39.4961 19.8238 38.9754 19.6461 38.3723 19.6778C36.3405 18.4334 32.7596 19.2334 31.5977 21.1953C31.4961 21.2969 31.4008 21.4048 31.2993 21.5064C31.1977 21.608 31.0961 21.7096 30.9945 21.8111ZM70.2135 21.2143V21.227C69.2548 19.7667 66.5691 18.7699 64.7278 19.2588C64.3088 19.3667 63.6104 19.1381 63.5278 19.9191C63.0897 19.9826 62.6516 20.0207 62.2834 20.3127C62.0167 20.3 61.7754 20.3381 61.6485 20.6175H61.6802C57.8389 22.6492 57.5977 28.2619 61.2358 30.9032C64.0548 32.9477 67.0199 32.7127 69.9151 30.9159C70.5755 32.8207 70.5628 34.8905 71.331 36.7699C71.477 37.1254 71.5977 37.608 72.1183 37.5762C72.4993 37.5508 72.7151 37.2016 72.8739 36.8905C73.2675 36.1223 73.5151 35.3159 73.5786 34.4334C73.7437 32.154 73.3691 30.0016 72.2707 27.9889C72.3024 26.9413 72.4485 25.881 72.3405 24.8524C72.2008 23.5318 71.8961 22.2048 70.5056 21.5254H70.5247C70.4167 21.4238 70.3151 21.3223 70.2072 21.2143H70.2135ZM51.8072 19.6715C54.2072 19.8492 57.0643 19.6842 59.8897 19.335C62.8993 18.9667 65.9532 18.681 68.7596 17.354C69.4961 17.0048 70.4739 16.6873 70.385 15.754C70.3024 14.8715 69.4326 14.3826 68.6326 14.008C68.4485 13.9191 68.2453 13.8873 68.0485 13.8238C63.5342 12.2492 58.7977 12.027 54.0993 11.7731C49.1723 11.5064 44.2453 11.9191 39.3628 12.6746C37.3564 12.9858 35.3501 13.3604 33.5596 14.4334C32.2516 15.2143 32.1818 16.1159 33.4262 17.0111C34.2643 17.608 35.2358 17.9127 36.2326 18.1604C41.1977 19.3858 46.2453 19.7667 51.8008 19.6651L51.8072 19.6715Z" fill="#0277BD"/>
<path d="M89.5356 21.1257C87.0658 22.2495 84.596 22.6304 82.1071 21.1828C78.9388 19.3415 77.9229 15.9892 79.542 12.7066C79.7007 12.3892 79.8658 12.078 80.0309 11.7606C80.6658 11.3415 80.9896 10.5034 81.8658 10.4209C81.2817 11.5955 81.7325 12.3447 82.8626 12.7955C84.9452 13.6146 87.0785 13.8241 89.2499 13.1765C90.1388 12.9098 90.7928 12.4082 90.7547 11.3542C92.3737 12.4336 92.6023 14.0844 92.5833 15.8241C92.5833 16.3701 92.4309 16.9098 92.342 17.4558C91.8785 18.2876 91.415 19.1257 90.9515 19.9574C90.3293 20.1606 89.942 20.6558 89.5293 21.1193L89.5356 21.1257ZM91.669 16.0272C91.669 15.7034 91.6626 15.5511 91.669 15.3987C91.7198 14.5034 91.4468 13.6082 90.5515 13.4939C89.688 13.3796 89.3071 14.2685 89.1737 15.0304C88.9452 16.3701 88.7547 17.7161 88.6404 19.0685C88.5579 19.9955 89.0277 20.1606 89.7388 19.6019C90.9452 18.6431 91.796 17.5003 91.6753 16.0272H91.669Z" fill="#A90202"/>
<path d="M19.085 20.6238C18.1199 22.7063 14.6596 23.7476 12.1834 23.2714C9.38974 22.7317 7.80879 20.9095 6.78657 18.4397C6.75482 17.0809 6.60244 15.7032 7.28815 14.4333C7.54847 13.9571 7.6945 13.373 8.32942 13.2206C8.19609 14.6174 8.91355 15.1571 10.2405 15.1063C11.0532 15.0746 11.8723 15.1381 12.685 15.0619C15.5167 14.8143 17.1358 13.5317 17.212 11.5381C17.6247 11.8175 18.0437 12.0968 18.4564 12.3762C19.9993 14.1159 21.0913 15.9889 20.2596 18.427C20.2151 18.5603 20.0818 18.6619 19.9929 18.7825L19.9485 18.7444C20.0374 17.3222 20.1072 15.8936 19.0596 14.7381C18.6532 14.2873 18.1834 13.8809 17.4786 14.1095C16.7485 14.3444 16.285 14.9857 16.4247 15.5952C16.7802 17.1 16.7929 18.6809 17.4659 20.1159C17.8278 20.8905 18.304 20.8651 18.9072 20.446C18.9707 20.5095 19.0342 20.5667 19.0977 20.6301L19.085 20.6238Z" fill="#A90202"/>
<path d="M73.5673 10.1733C73.2435 9.97649 72.926 9.78601 72.6022 9.58919C72.6276 8.93522 72.6657 8.28125 72.6784 7.62728C72.6911 7.0749 72.4752 6.57966 71.9482 6.41458C71.326 6.21776 70.8816 6.6495 70.5958 7.14474C70.2149 7.79871 69.9673 8.51617 69.9482 9.29077C66.6403 8.83998 63.2942 8.68125 60.0625 7.72887C60.145 4.96062 61.4784 2.83998 63.4847 2.28125C62.9704 3.53839 63.7895 4.17966 64.6974 4.6876C66.4244 5.65268 68.3038 6.05268 70.2847 5.913C71.8339 5.80506 72.272 5.28443 72.1577 3.72887C73.6752 4.96062 73.8212 6.65585 73.7387 8.41458C73.7133 9.00506 73.3831 9.56379 73.5609 10.1797L73.5673 10.1733Z" fill="#A90202"/>
<path d="M40.4712 8.07167C39.2966 8.70659 37.995 8.28119 36.7569 8.50977C34.6426 8.89707 32.4839 9.03675 30.3442 9.28437C29.6458 7.01135 30.3759 4.49707 32.141 3.11294C32.2997 4.26215 32.9474 4.84627 34.1029 5.08754C35.8362 5.44945 37.5442 5.4177 39.2204 4.92881C40.414 4.58596 41.5696 4.08437 41.4743 2.50342C43.4616 3.70342 43.8172 5.65897 43.9061 7.73516C43.5759 7.74151 43.2521 7.74786 42.922 7.76056C42.8966 7.20818 42.9537 6.63675 42.8204 6.11612C42.6553 5.48754 42.3632 4.77643 41.5759 4.77643C40.7632 4.77643 40.6426 5.53199 40.3886 6.14786C40.1093 6.82723 40.414 7.43675 40.4648 8.07802L40.4712 8.07167Z" fill="#A90202"/>
<path d="M78.2173 26.4715C78.2363 24.7382 79.6014 24.4588 80.8268 24.3001C84.6109 23.8176 87.7855 25.17 90.4649 27.7922C92.5284 29.8112 94.5538 31.8557 96.2935 34.1731C97.0617 35.2017 98.0268 36.0525 99.4871 35.9065C99.2776 36.6493 99.0744 37.3985 98.1284 37.5382C96.8522 36.9858 96.0967 35.8747 95.284 34.8461C93.4236 32.4969 91.7094 30.0271 89.4554 28.0144C87.2776 26.0715 84.8966 24.6239 81.8046 24.8017C80.357 24.8842 79.1125 25.2779 78.2109 26.4652L78.2173 26.4715Z" fill="#004066"/>
<path d="M90.7621 11.3539C90.8065 12.4079 90.1525 12.9095 89.2573 13.1762C87.0859 13.8238 84.9525 13.6143 82.87 12.7952C81.7335 12.3508 81.2827 11.6016 81.8732 10.4206C82.3875 10.1413 82.9017 9.86189 83.4097 9.58252C83.8414 9.7603 83.6637 10.1857 83.7843 10.4905C84.1589 11.4619 85.6192 11.9508 86.9017 11.6397C88.2097 11.3222 87.9494 10.4651 87.7335 9.57617C89.0097 9.71585 90.0065 10.3254 90.7621 11.3476V11.3539Z" fill="#EC5D41"/>
<path d="M17.2056 11.5382C17.1294 13.5319 15.5103 14.8144 12.6786 15.062C11.8722 15.1319 11.0532 15.0747 10.2341 15.1065C8.9135 15.1573 8.19604 14.6176 8.32302 13.2207C8.77381 12.3065 9.72619 12.0081 10.4754 11.4493C10.85 12.4017 10.9579 13.5827 12.5389 13.2842C13.8087 13.043 14.8691 12.6874 15.0214 11.189C15.7706 11.1636 16.5643 10.8652 17.1992 11.5446L17.2056 11.5382Z" fill="#EC5D41"/>
<path d="M41.4818 2.5032C41.577 4.0905 40.4215 4.58573 39.2278 4.92859C37.5516 5.41113 35.8437 5.44923 34.1103 5.08732C32.9548 4.84605 32.3072 4.25558 32.1484 3.11272L32.1865 3.16351C32.4088 3.16351 32.5103 3.04923 32.5167 2.83335L32.4913 2.85875C32.7008 2.8524 32.8151 2.74446 32.8278 2.53494L32.8088 2.56669C33.0627 2.50954 33.0945 2.29367 33.1516 2.09685C33.2849 1.86193 33.4754 1.70954 33.7548 1.70319C34.0278 1.95716 34.3072 2.12859 34.4468 2.57304C34.8342 3.77939 35.9516 3.52542 36.8722 3.48732C37.6342 3.45558 38.5929 3.27145 38.5675 2.36986C38.5421 1.34129 39.0183 1.59526 39.5135 1.77304C39.9516 1.93177 40.3707 2.0524 40.8342 1.95716L40.8151 1.93812C40.8024 2.16669 40.9357 2.25558 41.1453 2.25558L41.1262 2.23653C41.1326 2.4524 41.2469 2.55399 41.4627 2.55399L41.4754 2.5032H41.4818Z" fill="#EC5D41"/>
<path d="M72.1675 3.72258C72.2817 5.27813 71.8436 5.79877 70.2944 5.90671C68.3135 6.04639 66.4341 5.64639 64.7071 4.68131C63.8055 4.17972 62.9802 3.53845 63.4944 2.27496C63.9071 2.06544 64.3135 1.84956 64.7262 1.64004C65.2151 1.70353 65.869 1.29083 65.7357 2.45274C65.6278 3.41782 66.7198 3.70353 67.5579 3.93845C68.3833 4.16702 69.4055 4.17972 69.704 3.37972C70.1294 2.25591 70.4849 2.68131 71.0119 3.15115C71.2405 3.35433 71.4754 3.5448 71.8182 3.44321L71.7865 3.43051C71.7865 3.65274 71.8944 3.76067 72.1103 3.76067L72.1548 3.70988L72.1675 3.72258Z" fill="#EC5D41"/>
<path d="M71.8225 3.45593C71.4797 3.55752 71.2448 3.36705 71.0162 3.16387C70.4892 2.69403 70.1336 2.26228 69.7082 3.39244C69.4035 4.18609 68.3876 4.17974 67.5622 3.95117C66.7305 3.7226 65.6321 3.43054 65.74 2.46546C65.8733 1.30355 65.2194 1.71625 64.7305 1.65276C67.1559 0.484506 70.7051 1.39244 71.8289 3.46228L71.8225 3.45593Z" fill="#A90202"/>
<path d="M40.8372 1.95737C40.3737 2.05261 39.9546 1.93198 39.5165 1.77324C39.0213 1.59547 38.5451 1.3415 38.5705 2.37007C38.5959 3.27166 37.6372 3.45579 36.8753 3.48753C35.9546 3.53198 34.8372 3.78594 34.4499 2.57325C34.3038 2.1288 34.0245 1.95737 33.7578 1.7034C36.1642 0.516102 38.5261 0.395468 40.8372 1.95737Z" fill="#A90202"/>
<path d="M87.734 9.5889C87.9498 10.4714 88.2165 11.3349 86.9022 11.6524C85.6197 11.9635 84.1594 11.4746 83.7848 10.5032C83.6705 10.1984 83.8419 9.77302 83.4102 9.59524C84.8514 8.90318 86.2927 8.54128 87.734 9.59524V9.5889Z" fill="#A90202"/>
<path d="M15.0304 11.1765C14.878 12.6749 13.8177 13.0305 12.5479 13.2717C10.9669 13.5765 10.859 12.3892 10.4844 11.4368C11.678 10.5289 13.0495 10.4971 14.459 10.6241C14.4082 11.0622 14.6431 11.1955 15.0368 11.1574V11.1701L15.0304 11.1765Z" fill="#A90202"/>
<path d="M15.03 11.1639C14.6363 11.202 14.4014 11.0687 14.4522 10.6306C14.8903 10.548 15.1506 10.6496 15.03 11.1639Z" fill="#EC5D41"/>
<path d="M0.0908889 34.0464C0.179778 34.2496 0.268667 34.4527 0.357556 34.6559C0.135333 34.5099 0.0654921 34.294 0.0908889 34.0464Z" fill="#773417"/>
<path d="M72.1209 3.77337C71.8987 3.77337 71.7908 3.66543 71.7971 3.44321C72.1273 3.33527 72.2352 3.44321 72.1209 3.77337Z" fill="#A90202"/>
<path d="M32.512 2.83338C32.4993 3.04291 32.4041 3.16354 32.1818 3.16354C32.0866 2.84608 32.1945 2.7318 32.512 2.83338Z" fill="#A90202"/>
<path d="M32.8308 2.53532C32.8117 2.74485 32.7038 2.85278 32.4943 2.85913C32.3864 2.52262 32.5514 2.47183 32.8308 2.53532Z" fill="#A90202"/>
<path d="M41.4654 2.56077C41.2495 2.56077 41.1353 2.45918 41.1289 2.24331C41.3511 2.23061 41.548 2.24331 41.4654 2.56077Z" fill="#A90202"/>
<path d="M33.1577 2.09717C33.1006 2.29399 33.0688 2.51621 32.8149 2.56701C32.726 2.26225 32.9863 2.21145 33.1577 2.09717Z" fill="#A90202"/>
<path d="M41.1513 2.26228C40.9355 2.26228 40.8085 2.1734 40.8212 1.94482C41.0117 1.97022 41.1767 2.02101 41.1513 2.26228Z" fill="#A90202"/>
<path d="M28.5273 36.7763C31.7337 40.0271 39.2067 38.6049 42.267 36.4335C45.3083 34.2747 47.1115 31.1446 49.1369 28.1668C49.4988 27.6335 49.8861 26.8716 50.6416 27.1128C51.3908 27.3541 52.4385 27.4684 52.4258 28.6684C50.5654 27.57 50.5019 27.5827 49.3527 29.4112C48.1654 31.3033 47.1242 33.2906 45.7083 35.043C42.1654 39.4239 37.6575 41.297 32.0639 40.1414C30.2607 39.7668 28.9464 38.6874 28.5273 36.7763Z" fill="#004066"/>
<path d="M54.7734 31.0178C55.5734 30.9226 55.9353 31.5638 56.3861 32.0146C58.9322 34.567 61.5544 36.9924 64.7036 38.8273C68.1639 40.8527 71.6306 40.2115 75.0909 39.0305C76.6528 38.4972 77.2369 36.9861 77.8465 35.5829C77.8147 39.0369 76.0242 40.7892 72.6528 41.6781C68.5703 42.7638 65.4084 41.3035 62.4179 38.8781C59.5607 36.5607 57.1226 33.8369 54.7798 31.0178H54.7734Z" fill="#004066"/>
<path d="M2.0625 36.5162C6.29742 36.8336 9.49107 34.3829 12.8435 32.4336C15.6562 30.8019 18.3228 28.9225 21.3006 27.5765C21.8593 27.3225 22.4054 27.094 23.0085 26.9543C25.9419 26.2686 27.2308 27.0305 27.8339 29.9384C28.0054 30.7765 28.1069 31.64 27.745 32.4781C27.0022 27.7098 25.0339 26.7003 20.6974 28.8844C17.8276 30.3321 15.2244 32.2305 12.4815 33.8876C10.4308 35.1257 8.37996 36.3765 6.01171 36.9225C4.67837 37.2336 3.29425 37.4686 2.06885 36.5162H2.0625Z" fill="#004066"/>
<path d="M28.272 35.8813C28.5514 36.0782 28.526 36.3702 28.5324 36.6623C28.2466 36.4718 28.2466 36.1798 28.272 35.8813Z" fill="#773417"/>
<path d="M51.8096 19.6716C46.2604 19.7731 41.2064 19.3858 36.2413 18.1668C35.2445 17.9192 34.2667 17.6144 33.435 17.0176C32.1905 16.1224 32.2604 15.2208 33.5683 14.4398C35.3588 13.3668 37.3651 12.9922 39.3715 12.6811C44.254 11.9255 49.1746 11.5128 54.108 11.7795C58.8064 12.0335 63.5429 12.2557 68.0572 13.8303C68.2477 13.9001 68.4572 13.9319 68.6413 14.0144C69.4413 14.389 70.3112 14.8779 70.3937 15.7604C70.4762 16.6938 69.5048 17.0112 68.7683 17.3604C65.9619 18.6874 62.9016 18.9731 59.8984 19.3414C57.0731 19.6906 54.2223 19.8493 51.8159 19.6779L51.8096 19.6716Z" fill="#004066"/>
<path d="M70.5131 21.5256C71.9035 22.205 72.2083 23.5256 72.348 24.8526C72.4559 25.8812 72.3099 26.9415 72.2781 27.9891C71.4845 28.9605 70.9004 30.097 69.9162 30.9224C67.021 32.7129 64.0559 32.9542 61.2369 30.9097C57.5988 28.2748 57.84 22.6558 61.6813 20.624C61.4464 21.8939 62.0686 22.5986 63.1988 23.0431C65.1734 23.8177 67.1924 24.1224 69.2686 23.5764C70.2718 23.3097 71.0845 22.8082 70.5131 21.532V21.5256ZM71.6813 25.7986C71.5035 25.2335 71.6369 24.3129 70.7289 24.0335C69.9353 23.7859 69.4019 24.4018 69.2115 25.005C68.7734 26.4018 68.494 27.8431 68.1956 29.278C68.1258 29.6272 68.2781 30.0145 68.5892 30.2177C68.9575 30.4589 69.2559 30.1605 69.5353 29.951C70.875 28.9478 71.5924 27.6081 71.675 25.805L71.6813 25.7986Z" fill="#A90202"/>
<path d="M39.9158 20.2749C41.992 21.3162 43.4904 24.0654 43.211 26.1352C42.7094 29.8876 39.719 31.8813 37.4396 32.186C32.1317 32.8971 28.0745 28.2495 29.7888 23.4686C29.9729 22.9479 30.1317 22.3955 30.6904 22.1162L30.7793 22.1924C30.6586 23.4495 31.5856 23.767 32.4936 23.8749C34.665 24.1352 36.7348 23.6844 38.5888 22.5289C39.2745 22.1035 40.1126 21.5765 39.7063 20.4781C39.7761 20.4082 39.8459 20.3447 39.9094 20.2749H39.9158ZM42.6269 26.2559C42.538 25.1955 42.2713 24.1924 41.5158 23.3606C41.065 22.8654 40.519 22.6305 39.8777 22.84C39.2174 23.0622 39.0142 23.6019 38.9761 24.2749C38.919 25.2654 39.3063 26.1606 39.5031 27.0876C39.6809 27.932 39.5031 29.2781 40.6142 29.3098C41.8078 29.3416 42.1063 27.9892 42.519 27.0241C42.6142 26.8019 42.5888 26.5289 42.6205 26.2559H42.6269Z" fill="#A90202"/>
<path d="M89.5352 21.1258C89.9479 20.6623 90.3352 20.167 90.9574 19.9639C95.2939 22.802 97.3193 26.8782 97.4526 31.9702C97.4653 32.3321 97.4399 32.7194 97.0907 32.9162C96.678 33.1448 96.3923 32.8147 96.2018 32.548C93.6812 29.0242 90.8748 25.6718 89.5669 21.4305C89.5352 21.3353 89.5415 21.2274 89.5352 21.1258Z" fill="#7BABC7"/>
<path d="M69.9219 30.9162C70.906 30.0972 71.4901 28.9543 72.2838 27.9829C73.3822 29.9956 73.7568 32.1543 73.5917 34.4274C73.5282 35.3099 73.2743 36.1162 72.887 36.8845C72.7282 37.1956 72.5124 37.5448 72.1314 37.5702C71.6108 37.6083 71.4901 37.1258 71.3441 36.7639C70.5758 34.8845 70.5885 32.8147 69.9282 30.9099L69.9219 30.9162Z" fill="#7BABC7"/>
<path d="M70.5138 21.5258C71.0852 22.802 70.2662 23.3036 69.2693 23.5702C67.1931 24.1226 65.1741 23.8178 63.1995 23.0369C62.0693 22.5924 61.4471 21.8813 61.682 20.6178H61.6503C61.9551 20.7131 62.1519 20.5797 62.2852 20.3131C62.6471 20.021 63.0916 19.9829 63.5297 19.9194C63.6376 20.1353 63.7773 20.3448 63.8535 20.5734C64.2154 21.621 65.0598 21.9004 66.0376 21.8623C66.8947 21.8305 67.9805 22.148 68.1138 20.7194C68.1773 20.0401 68.5963 20.4464 68.882 20.548C69.3519 20.7194 69.6439 21.2528 70.2217 21.221L70.2154 21.2083C70.3233 21.3163 70.4249 21.4178 70.5328 21.5258H70.5138Z" fill="#EC5D41"/>
<path d="M31.6016 21.1892C32.7635 19.2336 36.3444 18.4336 38.3762 19.6717L38.3635 19.6908C37.9825 19.8177 37.1952 19.1511 37.3603 20.3511C37.4873 21.2781 36.573 21.5701 35.8492 21.7797C35.0174 22.0209 33.8047 22.3003 33.4746 21.4749C32.8587 19.9384 32.2873 21.1447 31.6905 21.2717L31.6143 21.1892H31.6016Z" fill="#A90202"/>
<path d="M70.2233 21.2272C69.6519 21.2526 69.3598 20.7256 68.8836 20.5542C68.5916 20.4462 68.1789 20.0462 68.1154 20.7256C67.982 22.1542 66.8963 21.8367 66.0392 21.8685C65.0614 21.9066 64.2233 21.6272 63.8551 20.5796C63.7789 20.351 63.6392 20.1415 63.5312 19.9256C63.6138 19.1447 64.3122 19.3732 64.7312 19.2653C66.5789 18.7764 69.2582 19.7732 70.2297 21.2335L70.2233 21.2272Z" fill="#A90202"/>
<path d="M69.9531 9.29085C69.9722 8.51624 70.2198 7.79878 70.6007 7.14481C70.8865 6.65593 71.3309 6.22418 71.9531 6.41466C72.4801 6.57974 72.696 7.07497 72.6833 7.62736C72.6642 8.28132 72.6325 8.93529 72.6071 9.58926C71.7119 9.60196 70.7912 9.79243 69.9595 9.29085H69.9531Z" fill="#EC5D41"/>
<path d="M40.4699 8.07161C40.4191 7.43034 40.1144 6.82081 40.3937 6.14145C40.6413 5.52557 40.7683 4.77637 41.581 4.77002C42.3683 4.77002 42.6604 5.48113 42.8255 6.1097C42.9652 6.63034 42.9017 7.20812 42.9271 7.75415C42.1334 8.03351 41.3144 8.17954 40.4699 8.06526V8.07161Z" fill="#EC5D41"/>
<path d="M38.3682 19.6779C38.9713 19.6462 39.492 19.8239 39.911 20.2747C39.8412 20.3446 39.7777 20.4144 39.7079 20.4779C39.2253 20.2684 38.6031 20.3065 38.3555 19.6969L38.3682 19.6779Z" fill="#A90202"/>
<path d="M19.9894 18.7764C19.983 19.1129 20.0338 19.4684 19.6846 19.6907L19.5703 19.6018C19.6529 19.297 19.6275 18.9478 19.9449 18.7446L19.9894 18.7827V18.7764Z" fill="#A90202"/>
<path d="M19.3912 20.0147C19.3849 20.2686 19.315 20.4845 19.0865 20.6242C19.023 20.5671 18.9595 20.5036 18.9023 20.4401C19.042 20.275 19.1754 20.1036 19.3087 19.9321L19.3912 20.0083V20.0147Z" fill="#A90202"/>
<path d="M62.2834 20.3127C62.15 20.5794 61.9532 20.7127 61.6484 20.6175C61.7754 20.3381 62.0167 20.3064 62.2834 20.3127Z" fill="#A90202"/>
<path d="M19.6754 19.6909C19.5801 19.7989 19.4849 19.9005 19.3833 20.0084L19.3008 19.9322C19.3897 19.8179 19.4722 19.71 19.5611 19.5957L19.6754 19.6846V19.6909Z" fill="#A90202"/>
<path d="M31.2969 21.5064C31.3985 21.4048 31.4937 21.2969 31.5953 21.1953L31.6715 21.2779C31.5635 21.3731 31.4556 21.462 31.3477 21.5572L31.2969 21.5064Z" fill="#A90202"/>
<path d="M30.9961 21.8116C31.0977 21.71 31.1993 21.6084 31.3009 21.5068L31.3517 21.5576C31.2501 21.6592 31.1485 21.7608 31.0469 21.8624L30.9961 21.8116Z" fill="#A90202"/>
<path d="M30.6914 22.1163C30.793 22.0147 30.8946 21.9131 30.9962 21.8115L31.047 21.8623C30.9581 21.9703 30.8692 22.0845 30.7803 22.1925L30.6914 22.1163Z" fill="#A90202"/>
<path d="M91.668 16.021C91.7886 17.4876 90.9378 18.6368 89.7315 19.5956C89.0267 20.1543 88.5569 19.9956 88.6331 19.0622C88.7474 17.7099 88.9378 16.3638 89.1664 15.0241C89.2997 14.2559 89.6807 13.367 90.5442 13.4876C91.4394 13.6083 91.7188 14.4972 91.6616 15.3924C91.6553 15.5448 91.6616 15.6972 91.6616 16.021H91.668Z" fill="#EC5D41"/>
<path d="M19.5664 19.6017C19.4775 19.716 19.395 19.8239 19.3061 19.9382C19.1728 20.1096 19.0331 20.2747 18.8998 20.4461C18.2966 20.8652 17.8204 20.8906 17.4585 20.116C16.7918 18.6811 16.7728 17.1001 16.4172 15.5953C16.2712 14.9858 16.741 14.3445 17.4712 14.1096C18.1759 13.8811 18.6458 14.2874 19.0521 14.7382C20.0998 15.8938 20.0299 17.3223 19.941 18.7445C19.6299 18.9477 19.649 19.2969 19.5664 19.6017Z" fill="#EC5D41"/>
<path d="M71.6819 25.7988C71.5993 27.6083 70.8819 28.9416 69.5422 29.9448C69.2628 30.1543 68.9644 30.4528 68.5961 30.2115C68.285 30.0083 68.1263 29.621 68.2025 29.2718C68.5009 27.8369 68.7866 26.3956 69.2184 24.9988C69.4088 24.3956 69.9358 23.7797 70.7358 24.0274C71.6438 24.3067 71.5041 25.2274 71.6882 25.7924L71.6819 25.7988Z" fill="#EC5D41"/>
<path d="M30.7811 22.1925C30.87 22.0845 30.9589 21.9702 31.0478 21.8623C31.1494 21.7607 31.251 21.6591 31.3526 21.5575C31.4605 21.4623 31.5684 21.3734 31.6764 21.2782C32.2732 21.1512 32.8446 19.9448 33.4605 21.4814C33.7907 22.3004 35.0034 22.0274 35.8351 21.7861C36.5653 21.5702 37.4732 21.2782 37.3462 20.3575C37.1811 19.1575 37.9684 19.8242 38.3494 19.6972C38.597 20.3067 39.2192 20.275 39.7018 20.4782C40.1018 21.5766 39.2637 22.1036 38.578 22.529C36.724 23.6845 34.6542 24.1353 32.4827 23.875C31.5748 23.7671 30.6478 23.4496 30.7684 22.1925H30.7811Z" fill="#EC5D41"/>
<path d="M42.6267 26.256C42.595 26.529 42.6204 26.802 42.5251 27.0242C42.1188 27.9893 41.8203 29.3417 40.6203 29.3099C39.5156 29.2782 39.6934 27.9322 39.5092 27.0877C39.3124 26.1544 38.9251 25.2592 38.9823 24.275C39.0203 23.602 39.2235 23.0623 39.8838 22.8401C40.5188 22.6242 41.0711 22.8655 41.5219 23.3607C42.2775 24.1925 42.5442 25.1957 42.633 26.256H42.6267Z" fill="#EC5D41"/>
</svg>
