<svg width="100" height="69" viewBox="0 0 100 69" fill="none" xmlns="http://www.w3.org/2000/svg">
<path d="M97.2067 49.4609C97.2067 63.1752 76.1274 69.3974 46.921 69.3974C17.7147 69.3974 2.34961 61.9053 2.34961 48.191C2.34961 34.4768 20.6353 23.1752 49.7782 23.1752C78.921 23.1752 97.2067 35.7466 97.2067 49.4609Z" fill="#903F1C"/>
<path d="M99.3016 39.4926C99.3016 39.7466 99.2381 40.0005 99.1747 40.2545C98.3493 45.2704 95.6826 50.2863 85.1429 51.4291C76.762 52.318 75.4286 53.8418 70.7937 53.0164C66.1588 52.191 65.4604 55.8101 58.5397 55.8101C51.6191 55.8101 53.4604 53.8418 49.2064 52.572C44.9524 51.3021 44.1905 57.0799 34.9207 55.8101C25.9048 54.5402 29.3969 50.6672 22.6667 48.3815C15.9366 46.0958 15.0477 50.4767 10.6667 48.3815C6.22227 46.2863 0.761954 45.4609 0.507985 37.4609C0.444493 34.9847 0.888938 33.1434 1.52386 31.8736C2.85719 29.0164 5.14291 28.572 5.14291 28.572C50.3493 56.064 89.2064 24.7624 93.2064 24.9529C97.2064 25.1434 100 34.2228 99.3016 39.5561V39.4926Z" fill="#842D08"/>
<path d="M99.3012 39.4926C99.3012 39.7466 99.2378 40.0005 99.1743 40.2545C97.6505 44.0005 94.2219 47.1751 86.0314 48.064C77.6505 48.9529 76.3171 50.4767 71.6822 49.6513C67.0473 48.8259 66.3489 52.445 59.4282 52.445C52.5076 52.445 54.3489 50.4767 50.0949 49.2069C45.8409 47.937 45.079 53.7148 35.8092 52.445C26.7298 51.1751 30.2854 47.3021 23.5552 45.0164C16.8251 42.7307 15.9997 47.1116 11.5552 45.0164C7.11077 42.9212 1.65045 42.0323 1.39648 34.0958C1.39648 33.2704 1.39648 32.5085 1.52347 31.8101C2.8568 28.9529 5.14252 28.5085 5.14252 28.5085C50.3489 56.0005 89.206 24.6989 93.206 24.8894C97.206 25.0799 99.9997 34.1593 99.3012 39.4926Z" fill="#BB5429"/>
<path d="M97.2067 21.3339C97.2067 35.0482 76.1909 46.2228 46.9845 46.2863C17.8417 46.3498 2.34961 35.3021 2.34961 21.5879C2.34961 20.191 2.54009 18.8577 2.92104 17.5879C6.15913 6.34975 23.556 0.127532 49.7147 0.000548299C75.048 -0.0629438 92.1909 5.71484 96.2544 16.191C96.8893 17.7783 97.2067 19.4926 97.2067 21.2704V21.3339Z" fill="#903F1C"/>
<path d="M95.3651 14.4132C93.1428 24.9529 85.4603 33.6513 49.7778 34.3498C28.5714 34.7307 8.76189 29.9688 4.06348 14.8577C7.30157 6.79419 23.5555 0.127526 49.7143 0.000541522C75.0476 -0.0629505 91.0476 5.46086 95.3651 14.4132Z" fill="#945032"/>
<path d="M85.0791 8.06404C85.0791 12.572 69.0791 16.191 46.9838 16.2545C24.8886 16.2545 13.1426 12.699 13.1426 8.25451C13.1426 3.81007 26.9838 1.20689 49.0791 1.1434C71.1743 1.1434 85.0791 5.07991 85.0791 8.06404Z" fill="#935F49"/>
<path d="M8.63505 26.5402C8.63505 26.5402 8.00013 40.2545 35.2382 42.2228C62.4763 44.1275 82.9843 34.7307 82.9843 34.7307C82.9843 34.7307 18.2858 51.937 8.63505 26.5402Z" fill="#935F49"/>
</svg>
