<svg width="100" height="100" viewBox="0 0 100 100" fill="none" xmlns="http://www.w3.org/2000/svg">
<path d="M79.79 64.144C81.3392 66.4171 81.9868 69.0266 82.6344 71.6425V78.1059C82.082 79.9917 81.6439 81.9155 80.7551 83.6932C78.3741 88.4742 74.7043 92.0234 70.1836 94.7345C65.5106 97.5345 60.4439 99.198 55.0281 99.725C46.882 100.519 39.0217 99.5853 31.6884 95.6996C26.2789 92.8298 21.8535 88.9059 19.2566 83.2361C16.6662 77.5726 16.8058 71.852 19.3011 66.1948C19.8725 64.8932 20.717 63.7123 21.4535 62.4869C21.4979 62.4171 21.6947 62.4361 21.8217 62.4171C21.3709 63.8647 20.9392 65.3186 21.0979 66.8615C21.2185 68.0361 21.8725 68.5123 23.0281 68.2837C23.7582 68.1377 24.4376 67.852 25.0916 67.5091C27.1804 66.4171 29.0979 65.0456 31.1106 63.8393C32.1455 63.2171 33.1868 62.5948 34.3614 62.252C35.8471 61.8139 36.8058 62.3917 37.0916 63.8964C37.1868 64.3917 37.2249 64.8932 37.2439 65.4012C37.282 66.3726 37.2249 67.3504 37.4471 68.3155C37.7709 69.725 38.5392 70.4932 39.9741 70.671C43.0916 71.052 45.4471 69.7948 47.1678 67.2234L47.155 67.2361C47.3265 67.1472 47.3963 67.0075 47.39 66.8234L47.3582 66.8488C47.5106 66.8488 47.555 66.7345 47.5868 66.6202C48.6344 65.3186 49.3074 63.7948 50.1709 62.379C51.0027 62.4679 51.4281 63.1218 51.8916 63.6742C53.1233 65.1345 54.2979 66.652 55.536 68.1123C56.5138 69.2679 57.6122 70.3028 58.9201 71.0964C60.8122 72.2393 62.6725 71.8012 64.4884 70.9758C65.1614 70.671 65.6503 70.0679 65.7582 69.2615L65.7201 69.2806C65.8598 69.2679 65.8789 69.1726 65.8725 69.0583C67.2122 67.5726 67.1043 65.7567 67.0281 63.9536C66.9773 62.8298 66.7424 61.6996 67.1233 60.5885C68.2852 60.2139 69.4217 60.1567 70.5011 60.8552C71.3963 61.4329 72.0693 62.2266 72.5773 63.1409C73.3773 64.5758 74.082 66.0552 74.882 67.4837C75.263 68.1567 75.5551 69.0901 76.5328 69.0393C77.4598 68.9948 77.7328 68.0742 78.1709 67.4202C78.2408 67.3186 78.2344 67.1663 78.2598 67.0393L78.2217 67.0583C78.3804 67.0583 78.3931 66.9377 78.4058 66.8171C79.0281 66.0171 79.263 65.0075 79.8027 64.1631L79.79 64.144Z" fill="#E9D5B7"/>
<path d="M67.1062 60.5631C66.7252 61.6742 66.9601 62.8044 67.0109 63.9282C67.0871 65.7377 67.195 67.5472 65.8554 69.0329C65.8046 69.1091 65.7538 69.179 65.703 69.2552L65.7411 69.2361C65.4935 69.344 65.2585 69.4837 65.0046 69.5472C63.3347 69.9663 61.6712 70.5504 59.995 69.5091C58.6173 68.652 57.4046 67.6361 56.395 66.3599C55.1696 64.8171 53.9823 63.2488 52.6808 61.7758C51.3411 60.2583 50.8331 60.4107 50.1601 62.3536C49.303 63.7694 48.6236 65.2996 47.576 66.5948C47.4998 66.671 47.4236 66.7472 47.3474 66.8234L47.3792 66.798C47.176 66.8615 47.1442 67.0266 47.1442 67.2107L47.1569 67.198C46.9982 67.2488 46.8077 67.2488 46.6935 67.3504C45.195 68.6647 43.4427 69.1282 41.4744 69.0266C39.7093 68.9377 38.5347 67.8456 38.4522 66.0742C38.395 64.8678 38.3316 63.6679 38.249 62.4615C38.1474 61.0964 37.3411 60.4234 35.9823 60.525C35.4363 60.5631 34.9411 60.779 34.4585 61.0075C32.903 61.7377 31.4617 62.6456 30.0268 63.5853C28.376 64.671 26.7379 65.8075 24.8331 66.4361C23.0173 67.0393 22.3125 66.5123 22.3125 64.6266C22.3125 64.0552 22.4014 63.4964 22.4458 62.9313C22.5411 61.8456 23.2966 60.9567 23.2585 59.852L23.2395 59.8901C23.4935 59.852 23.5062 59.6552 23.5125 59.4647C25.8744 55.6107 29.195 52.8298 33.2141 50.8361C33.4808 50.7028 33.7474 50.5631 34.0141 50.4234C34.4204 50.3663 34.5982 50.6774 34.8331 50.9059C35.4808 51.5409 36.0903 52.2202 36.7887 52.7853C41.3855 56.4679 46.6363 57.9409 52.4776 57.2996C58.0585 56.6837 62.7125 54.3218 66.2046 49.8393C66.4014 49.5853 66.522 49.2298 66.903 49.1599C73.4681 51.5663 77.4617 56.379 79.6839 62.8488C79.8363 63.2869 79.8109 63.7059 79.7792 64.1377C79.2395 64.9821 79.0109 65.9917 78.3823 66.7917C78.3189 66.8742 78.2617 66.9504 78.1982 67.0329L78.2363 67.0139C77.1252 67.6234 76.8268 67.5599 76.1157 66.4996C75.2395 65.1853 74.6871 63.7059 73.9316 62.3282C73.2395 61.0583 72.4649 59.8456 71.176 59.0901C69.3474 58.0234 67.3601 58.7472 67.0935 60.5567L67.1062 60.5631ZM78.376 63.4901C78.2236 60.8932 77.1633 58.6964 75.3728 56.8615C74.8966 56.379 74.2808 55.5663 73.5125 56.0932C72.7062 56.6456 73.157 57.5599 73.5252 58.1885C74.6744 60.1504 75.9189 62.0552 77.1443 63.9726C77.3347 64.271 77.6649 64.6329 78.0395 64.4742C78.4014 64.3218 78.3697 63.8583 78.376 63.4901ZM66.1093 65.3567C65.957 64.2964 65.8173 63.1536 65.157 62.1821C64.903 61.8075 64.6173 61.3123 64.0712 61.4139C63.4554 61.5218 63.4363 62.1313 63.322 62.6075C63.2712 62.8234 63.3093 63.0774 63.3601 63.3059C63.6141 64.5123 63.8744 65.725 64.1538 66.925C64.2363 67.2805 64.3823 67.6298 64.5411 67.9599C64.8331 68.5758 65.1252 68.4932 65.4363 67.9472C65.8808 67.1663 65.9887 66.3028 66.1093 65.3631V65.3567Z" fill="#903F1C"/>
<path d="M66.915 49.1726C66.5277 49.2424 66.4134 49.5916 66.2166 49.8519C62.7245 54.3345 58.0706 56.6964 52.4896 57.3123C46.6547 57.9535 41.3975 56.4805 36.8007 52.798C36.096 52.2329 35.4928 51.5535 34.8452 50.9186C34.6102 50.69 34.4325 50.3726 34.0261 50.4361C34.1976 49.6297 33.5817 49.09 33.2007 48.6011C32.0452 47.1091 31.8039 45.2869 31.1245 43.6297C31.0166 43.3758 30.9341 43.1154 31.2833 42.9567C31.7087 43.6488 32.2674 43.6615 32.9087 43.2869C33.9944 42.6583 34.8706 41.7821 35.7722 40.9313C36.9404 39.8265 38.0325 38.6456 39.3849 37.7504C40.0198 37.3313 40.6483 37.1281 41.2833 37.7504C41.5499 38.5631 41.4801 39.4011 41.4801 40.2329C41.4801 41.3757 41.5436 42.5059 41.9372 43.5916C42.3245 45.8138 43.9626 46.5757 45.9055 45.4265C46.9912 44.7853 47.6261 43.7567 48.1849 42.671C48.8579 41.3504 49.2642 39.9281 49.7785 38.544C49.8991 38.2265 49.8991 37.7186 50.3499 37.6996C50.7626 37.6805 50.9341 38.125 51.1055 38.4297C51.6706 39.4202 52.2102 40.4234 52.7436 41.4329C53.5753 43.0075 54.3944 44.5948 55.6388 45.89C56.2737 46.5504 56.9531 47.0964 58.0198 46.8488C59.2769 46.5567 60.1531 45.9408 60.4706 44.6329C60.6737 43.8075 60.7309 42.9821 60.6674 42.144C60.6674 41.9472 60.6674 41.7567 60.661 41.5599C60.6737 41.5408 60.7055 41.5154 60.6991 41.4964C60.6928 41.4519 60.6737 41.4011 60.6547 41.3567C60.642 40.3345 60.6293 39.3186 60.6166 38.2964C60.642 38.0297 60.642 37.7567 60.6928 37.4964C60.8452 36.6646 60.9595 35.7884 61.9944 35.5726C63.0293 35.3567 63.6134 36.0107 64.1214 36.7535C64.6483 37.5345 65.0039 38.4043 65.3087 39.2869C65.7912 40.671 66.261 42.0615 66.7626 43.4392C66.8833 43.7694 67.042 44.1758 67.4864 44.1884C67.9372 44.2011 68.1023 43.7948 68.2293 43.471C68.5912 42.544 68.9087 41.5916 69.2452 40.6519C69.3721 42.8424 68.8325 44.8932 67.9753 46.8805C67.6452 47.6488 67.1182 48.3281 66.915 49.1535V49.1726Z" fill="#E9D5B7"/>
<path d="M41.9289 43.598C41.5352 42.5123 41.4717 41.3821 41.4717 40.2392C41.4717 39.4075 41.5416 38.5694 41.2749 37.7567C41.3257 37.1091 41.1797 36.4996 40.5765 36.2011C39.9797 35.9091 39.4146 36.1757 38.894 36.5503C37.4717 37.5726 36.259 38.8234 35.0146 40.0424C34.2273 40.817 33.3701 41.5154 32.4051 42.0678C32.0114 42.29 31.6178 42.4615 31.186 42.1567C30.8114 41.9916 30.8178 41.6678 30.7987 41.3249C30.5067 35.7249 32.7606 31.2043 36.767 27.4773C38.913 25.4837 41.44 24.1122 44.2781 23.3376C44.2844 23.6424 44.3162 23.9408 44.2971 24.2456C44.1067 28.017 48.0559 30.9567 51.5924 30.6202C55.3067 30.2646 57.586 27.871 58.0749 24.0869C64.3733 26.7726 68.4305 31.217 69.2241 38.2456C69.2876 38.8234 69.2051 39.3821 69.1162 39.9408C68.8495 40.6202 68.6019 41.3059 68.3035 41.9726C68.1321 42.3535 67.9987 42.9123 67.4908 42.8805C67.04 42.8488 66.8241 42.398 66.6717 41.9662C66.1638 40.4805 65.6432 38.9948 65.1098 37.5154C64.7289 36.4742 64.2781 35.471 63.4082 34.7154C62.5067 33.9281 61.2051 34.0932 60.8559 35.198C60.5447 36.1821 60.2209 37.2424 60.6209 38.3091C60.6336 39.3313 60.6463 40.3472 60.659 41.3694C60.659 41.4392 60.659 41.5027 60.659 41.5726C60.659 41.7694 60.659 41.9599 60.6654 42.1567C60.4051 42.3472 60.4876 42.6392 60.4495 42.8996C60.2717 44.0742 59.7511 44.9757 58.5638 45.4011C57.3511 45.8392 56.3797 45.6043 55.4971 44.6202C54.8178 43.8646 54.2146 43.071 53.7194 42.1948C52.7225 40.4488 51.7638 38.6837 50.7797 36.9249C50.6336 36.6646 50.4749 36.3408 50.1257 36.3916C49.7828 36.4424 49.713 36.8107 49.6114 37.0837C49.2495 38.0551 48.9448 39.0519 48.5575 40.017C47.9987 41.4265 47.3638 42.7916 46.1955 43.8329C44.9257 44.963 42.9003 44.8615 41.9416 43.6043L41.9289 43.598ZM68.3225 38.417C68.3162 36.8932 67.6622 35.0646 66.8368 34.1567C66.5257 33.8202 66.1638 33.5027 65.7067 33.7376C65.2622 33.9726 65.3003 34.4297 65.3765 34.8932C65.5987 36.2392 66.3987 37.363 66.7924 38.6456C66.9638 39.2107 67.1543 40.1948 67.8082 40.0742C68.5892 39.9345 68.2209 38.9567 68.3225 38.417ZM59.04 41.8329C59.0844 40.963 58.9384 40.3281 58.5575 39.7376C58.2273 39.2297 57.8146 38.7535 57.1797 39.0011C56.5574 39.2424 56.5257 39.9027 56.64 40.4805C56.767 41.1345 57.0082 41.763 57.1606 42.417C57.3003 43.0202 57.2813 43.9345 57.9987 43.9027C58.7606 43.871 58.9067 42.9567 59.0273 42.2519C59.059 42.0551 59.0273 41.8519 59.0273 41.8329H59.04Z" fill="#903F1C"/>
<path d="M58.0781 24.0932C57.5892 27.8773 55.3098 30.271 51.5955 30.6265C48.059 30.9631 44.1098 28.0234 44.3003 24.2519C44.313 23.9535 44.2876 23.6488 44.2812 23.344C44.859 20.2773 46.7511 18.5123 49.7225 17.7948C49.786 18.2583 49.932 18.7345 49.894 19.1916C49.8368 19.9599 50.1606 20.2329 50.8717 20.1758C49.1447 20.8107 48.2241 20.4424 47.9828 18.9758C47.4622 19.0837 47.1511 19.5027 46.7511 19.7758C46.1416 20.1123 45.6336 20.5123 45.7098 21.3186C45.7797 22.0805 46.4336 22.1948 46.9479 22.271C49.4813 22.6392 51.8749 22.2456 53.9574 20.6773C55.0241 19.8773 54.84 19.09 53.5828 18.5567C53.1828 18.3535 52.7765 18.1504 52.3765 17.9472C54.6939 17.8773 57.3543 20.3027 57.8305 22.925C57.9003 23.3186 57.9955 23.7059 58.0717 24.0932H58.0781ZM57.4495 24.6329C57.3352 23.4583 57.0749 22.3662 56.1098 21.5789C55.64 21.198 55.1257 21.0202 54.5225 21.3059C53.9638 21.5726 53.7606 22.0488 53.7797 22.6265C53.8368 24.2075 54.2686 25.7186 54.713 27.217C54.9543 28.0297 55.6654 28.1059 56.2749 27.4583C57.0178 26.671 57.3416 25.6996 57.4432 24.6392L57.4495 24.6329Z" fill="#AA0404"/>
<path d="M23.2675 59.8711C23.3056 60.9759 22.55 61.8647 22.4548 62.9505C22.404 63.5155 22.3214 64.0806 22.3214 64.6457C22.3214 66.5314 23.0262 67.052 24.8421 66.4552C26.7405 65.8267 28.3786 64.6901 30.0357 63.6044C31.4707 62.6647 32.9119 61.7505 34.4675 61.0267C34.9564 60.7981 35.4453 60.5822 35.9913 60.5441C37.35 60.4489 38.1564 61.1219 38.258 62.4806C38.3468 63.6806 38.4103 64.887 38.4611 66.0933C38.5437 67.8647 39.7183 68.9568 41.4833 69.0457C43.4516 69.1473 45.204 68.6838 46.7024 67.3695C46.8167 67.2743 47.0072 67.2679 47.1659 67.2171C45.4453 69.7886 43.0897 71.0457 39.9722 70.6647C38.5373 70.487 37.7691 69.7187 37.4453 68.3092C37.223 67.3441 37.2802 66.3727 37.2421 65.3949C37.223 64.8933 37.1849 64.3854 37.0897 63.8901C36.804 62.379 35.8516 61.8076 34.3595 62.2457C33.1913 62.5886 32.15 63.2171 31.1087 63.833C29.0897 65.0393 27.1786 66.4108 25.0897 67.5028C24.4294 67.8457 23.7564 68.1314 23.0262 68.2774C21.8706 68.5124 21.2167 68.0298 21.096 66.8552C20.9373 65.3124 21.3691 63.8584 21.8199 62.4108C22.0675 61.4267 22.696 60.6584 23.2738 59.8584L23.2675 59.8711Z" fill="#773417"/>
<path d="M50.871 20.1758C50.1599 20.2266 49.8297 19.9599 49.8932 19.1917C49.9313 18.7345 49.7853 18.2647 49.7218 17.7949C49.4932 15.2552 48.8202 12.8552 47.398 10.7091C46.5028 9.36311 45.3916 8.2647 43.6837 8.03612C43.2583 7.97898 43.2266 7.73771 43.2266 7.4139C43.2266 6.93136 43.5504 6.9885 43.8551 7.02025C45.144 7.17263 46.198 7.80755 47.0805 8.71549C49.1567 10.8425 50.0837 13.5091 50.5726 16.3663C50.6869 17.0139 50.7313 17.6742 51.5186 17.8901C51.4488 17.9155 51.3726 17.9345 51.2964 17.9599C50.8139 17.9155 50.7631 18.2012 50.7948 18.5885C50.8329 19.1155 50.8456 19.6425 50.8647 20.1758H50.871Z" fill="#747C52"/>
<path d="M31.1875 42.1568C31.6192 42.4615 32.0129 42.2901 32.4065 42.0679C33.3716 41.5218 34.2288 40.8171 35.0161 40.0425C36.2605 38.8234 37.4732 37.5726 38.8954 36.5504C39.4161 36.1758 39.9812 35.9091 40.578 36.2012C41.1812 36.4996 41.3272 37.1091 41.2764 37.7568C40.6415 37.1345 40.0129 37.3377 39.378 37.7568C38.0319 38.652 36.9335 39.833 35.7653 40.9377C34.8637 41.7885 33.9875 42.6647 32.9018 43.2933C32.2605 43.6615 31.7018 43.6488 31.2764 42.9631C31.2446 42.6964 31.2192 42.4298 31.1875 42.1631V42.1568Z" fill="#773417"/>
<path d="M60.6079 38.3155C60.2079 37.2424 60.5317 36.1821 60.8428 35.2043C61.192 34.0932 62.4999 33.9281 63.3952 34.7218C64.2587 35.4837 64.7158 36.4805 65.0968 37.5218C65.6365 39.0012 66.1507 40.4869 66.6587 41.9726C66.8047 42.4043 67.0269 42.8615 67.4777 42.8869C67.9857 42.9186 68.119 42.3662 68.2904 41.9789C68.5888 41.3123 68.8365 40.6266 69.1031 39.9472C69.2555 40.1694 69.2746 40.4107 69.2301 40.6647C68.8936 41.6043 68.5825 42.5567 68.2142 43.4837C68.0873 43.8075 67.9285 44.2139 67.4714 44.2012C67.0269 44.1885 66.8682 43.7821 66.7476 43.452C66.2396 42.0742 65.7761 40.6837 65.2936 39.2996C64.9825 38.417 64.6333 37.5472 64.1063 36.7662C63.5984 36.0234 63.0142 35.3694 61.9793 35.5853C60.938 35.8012 60.8301 36.6837 60.6777 37.5091C60.6269 37.7694 60.6269 38.0424 60.6015 38.3091L60.6079 38.3155Z" fill="#773417"/>
<path d="M50.8685 20.1758C51.5796 20.0425 52.1891 19.7124 52.2844 18.9632C52.3542 18.3663 51.7574 18.1822 51.3003 17.9663C51.3764 17.9409 51.4463 17.9219 51.5225 17.8965C51.8082 17.9155 52.0939 17.9282 52.3796 17.9473C52.7796 18.1505 53.186 18.3536 53.586 18.5568C53.6812 19.0838 53.6304 19.5727 53.1542 19.8965C51.4526 21.052 49.5987 21.4774 47.5733 21.0266C46.913 20.8806 46.6209 20.4679 46.7542 19.7822C47.1542 19.5092 47.4653 19.0901 47.986 18.9822C48.2272 20.4489 49.1542 20.8171 50.8749 20.1822L50.8685 20.1758Z" fill="#FD7858"/>
<path d="M23.5152 59.4774C23.5089 59.6742 23.4898 59.8647 23.2422 59.9028C23.2739 59.725 23.3438 59.5663 23.5152 59.4774Z" fill="#AA0404"/>
<path d="M50.1602 62.3599C50.8268 60.4107 51.3348 60.2647 52.6808 61.7821C53.9824 63.2552 55.176 64.8234 56.3951 66.3663C57.4046 67.6361 58.6236 68.6583 59.9951 69.5155C61.6649 70.5567 63.3348 69.9726 65.0046 69.5536C65.2586 69.4901 65.4935 69.3504 65.7411 69.2425C65.6332 70.0488 65.1443 70.652 64.4776 70.9567C62.6617 71.7885 60.8014 72.2266 58.9094 71.0774C57.6014 70.2837 56.503 69.2551 55.5252 68.0932C54.2935 66.6329 53.1189 65.1155 51.8808 63.6551C51.4173 63.1028 50.9919 62.4488 50.1602 62.3599Z" fill="#773417"/>
<path d="M67.1055 60.5631C67.3721 58.7472 69.3531 58.0298 71.188 59.0964C72.4769 59.852 73.2515 61.0647 73.9436 62.3345C74.6991 63.7123 75.2515 65.1917 76.1277 66.5059C76.8325 67.5663 77.1309 67.6298 78.2483 67.0202C78.2229 67.1472 78.2293 67.2996 78.1594 67.4012C77.715 68.0488 77.4483 68.9758 76.5213 69.0202C75.5436 69.0647 75.2515 68.1377 74.8705 67.4647C74.0642 66.0361 73.3594 64.5567 72.5658 63.1218C72.0578 62.2075 71.3848 61.4139 70.4896 60.8361C69.4102 60.1377 68.2737 60.1948 67.1118 60.5694L67.1055 60.5631Z" fill="#773417"/>
<path d="M47.1406 67.2234C47.1406 67.0392 47.1724 66.8742 47.3755 66.8107C47.3819 66.9948 47.3121 67.1408 47.1406 67.2234Z" fill="#AA0404"/>
<path d="M47.3438 66.8361C47.4199 66.7599 47.4961 66.6837 47.5723 66.6075C47.5342 66.7282 47.4961 66.8425 47.3438 66.8361Z" fill="#AA0404"/>
<path d="M78.2109 67.0392C78.2744 66.9567 78.3316 66.8805 78.3951 66.798C78.3887 66.9186 78.3697 67.0329 78.2109 67.0392Z" fill="#AA0404"/>
<path d="M65.7031 69.2552C65.7539 69.179 65.8047 69.1091 65.8555 69.033C65.8555 69.1409 65.8428 69.2425 65.7031 69.2552Z" fill="#AA0404"/>
<path d="M78.3801 63.4901C78.3801 63.8584 78.4055 64.3282 78.0436 64.4742C77.669 64.633 77.3388 64.2711 77.1483 63.9727C75.9166 62.0615 74.6785 60.1504 73.5293 58.1885C73.161 57.56 72.7102 56.6393 73.5166 56.0933C74.2785 55.5727 74.9007 56.379 75.3769 56.8615C77.1674 58.6965 78.2277 60.8933 78.3864 63.4901H78.3801Z" fill="#773417"/>
<path d="M66.1068 65.3568C65.9862 66.3028 65.8782 67.1599 65.4338 67.9409C65.129 68.4869 64.8306 68.5695 64.5385 67.9536C64.3798 67.6234 64.2338 67.2742 64.1512 66.9187C63.8655 65.7187 63.6116 64.506 63.3576 63.2996C63.3132 63.0711 63.2687 62.8234 63.3195 62.6012C63.4338 62.125 63.4528 61.5155 64.0687 61.4076C64.6147 61.3123 64.9005 61.8012 65.1544 62.1758C65.8147 63.1536 65.9608 64.2901 66.1068 65.3504V65.3568Z" fill="#773417"/>
<path d="M41.9282 43.598C42.887 44.8552 44.906 44.9567 46.1822 43.8266C47.3504 42.7853 47.9854 41.4202 48.5441 40.0107C48.925 39.0456 49.2362 38.0488 49.5981 37.0774C49.6997 36.8044 49.7631 36.4361 50.1124 36.3853C50.4616 36.3345 50.6203 36.6583 50.7663 36.9186C51.7504 38.671 52.7092 40.4361 53.706 42.1885C54.2012 43.0647 54.8108 43.852 55.4838 44.6139C56.3663 45.598 57.3441 45.8329 58.5504 45.3948C59.7377 44.9694 60.2584 44.0615 60.4362 42.8933C60.4743 42.6329 60.3917 42.3472 60.652 42.1504C60.7155 42.9885 60.6584 43.8139 60.4552 44.6393C60.1377 45.9472 59.2552 46.5567 58.0044 46.8552C56.9441 47.1028 56.2584 46.5631 55.6235 45.8964C54.379 44.5948 53.56 43.0075 52.7282 41.4393C52.1949 40.4298 51.6552 39.4266 51.0901 38.4361C50.9124 38.1313 50.7473 37.6869 50.3346 37.7059C49.8838 37.7313 49.8838 38.2329 49.7631 38.5504C49.2489 39.9345 48.8425 41.3567 48.1695 42.6774C47.6171 43.7631 46.9822 44.7917 45.8901 45.4329C43.9473 46.5821 42.3092 45.8202 41.9219 43.598H41.9282Z" fill="#773417"/>
<path d="M60.6484 41.5726C60.6484 41.5027 60.6484 41.4392 60.6484 41.3694C60.6611 41.4138 60.6865 41.4583 60.6929 41.5091C60.6929 41.5281 60.6675 41.5535 60.6548 41.5726H60.6484Z" fill="#AA0404"/>
<path d="M68.3305 38.417C68.2289 38.9567 68.5971 39.9345 67.8162 40.0742C67.1622 40.1948 66.9717 39.2043 66.8003 38.6456C66.4066 37.3631 65.6067 36.2393 65.3844 34.8932C65.3082 34.4297 65.2638 33.9726 65.7146 33.7377C66.1717 33.5028 66.54 33.8202 66.8447 34.1567C67.6701 35.0647 68.3241 36.8932 68.3305 38.417Z" fill="#773417"/>
<path d="M59.0486 41.833C59.0486 41.833 59.074 42.0615 59.0486 42.252C58.928 42.9504 58.7819 43.8647 58.02 43.9028C57.3026 43.9346 57.3216 43.0203 57.1819 42.4171C57.0295 41.7695 56.7883 41.1346 56.6613 40.4806C56.547 39.9028 56.5787 39.2425 57.201 39.0012C57.8295 38.7536 58.2422 39.2298 58.5788 39.7377C58.9597 40.3219 59.1057 40.9631 59.0613 41.833H59.0486Z" fill="#773417"/>
<path d="M46.7558 19.7758C46.6225 20.4615 46.9145 20.8742 47.5749 21.0203C49.6003 21.471 51.4542 21.0457 53.1558 19.8901C53.632 19.5663 53.6828 19.0774 53.5876 18.5504C54.8447 19.0837 55.0288 19.8711 53.9622 20.6711C51.8796 22.2393 49.486 22.6393 46.9526 22.2647C46.432 22.1885 45.7844 22.0806 45.7145 21.3123C45.6384 20.5123 46.1526 20.106 46.7558 19.7695V19.7758Z" fill="#D61823"/>
<path d="M57.446 24.6329C57.3444 25.6869 57.0206 26.6583 56.2777 27.452C55.6682 28.0996 54.9571 28.0234 54.7158 27.2107C54.2777 25.7123 53.8396 24.2012 53.7825 22.6202C53.7635 22.0488 53.9603 21.5726 54.5254 21.2996C55.1222 21.0139 55.6365 21.1917 56.1127 21.5726C57.0777 22.3536 57.3381 23.452 57.4523 24.6266L57.446 24.6329ZM56.4619 24.671C56.4365 23.5028 56.2841 22.6774 55.5984 22.0806C55.0396 21.598 54.4365 21.8139 54.3857 22.5441C54.2968 23.7631 54.7095 24.9123 55.0968 26.0425C55.2809 26.5885 55.6936 26.5504 55.9793 26.0806C56.2904 25.5599 56.4809 24.9822 56.4619 24.671Z" fill="#D61823"/>
<path d="M51.2943 17.9599C51.7514 18.1694 52.3482 18.3599 52.2784 18.9567C52.1895 19.7059 51.5736 20.0361 50.8625 20.1694C50.8371 19.6424 50.8308 19.1091 50.7927 18.5821C50.761 18.1948 50.8117 17.9091 51.2943 17.9535V17.9599Z" fill="#AA0404"/>
<path d="M56.4581 24.6647C56.4771 24.9822 56.2866 25.5536 55.9755 26.0742C55.6962 26.5441 55.2835 26.5822 55.093 26.0361C54.7057 24.906 54.2993 23.7568 54.3819 22.5377C54.4327 21.8076 55.0358 21.5917 55.5946 22.0742C56.2803 22.6711 56.4263 23.4901 56.4581 24.6647Z" fill="#FD7858"/>
</svg>
